\relax 
\providecommand\HyperFirstAtBeginDocument{\AtBeginDocument}
\HyperFirstAtBeginDocument{\ifx\hyper@anchor\@undefined
\global\let\oldcontentsline\contentsline
\gdef\contentsline#1#2#3#4{\oldcontentsline{#1}{#2}{#3}}
\global\let\oldnewlabel\newlabel
\gdef\newlabel#1#2{\newlabelxx{#1}#2}
\gdef\newlabelxx#1#2#3#4#5#6{\oldnewlabel{#1}{{#2}{#3}}}
\AtEndDocument{\ifx\hyper@anchor\@undefined
\let\contentsline\oldcontentsline
\let\newlabel\oldnewlabel
\fi}
\fi}
\global\let\hyper@last\relax 
\gdef\HyperFirstAtBeginDocument#1{#1}
\providecommand\HyField@AuxAddToFields[1]{}
\select@language{english}
\@writefile{toc}{\select@language{english}}
\@writefile{lof}{\select@language{english}}
\@writefile{lot}{\select@language{english}}
\@writefile{toc}{\contentsline {section}{\numberline {1}Motivations}{1}{section.1}}
\newlabel{eq:1}{{1}{1}{Motivations\relax }{equation.1.1}{}}
\@writefile{toc}{\contentsline {paragraph}{Problems in the limit $r \rightarrow $}{1}{section*.1}}
\@writefile{toc}{\contentsline {section}{\numberline {2}Using the action}{2}{section.2}}
\@writefile{toc}{\contentsline {subsection}{\numberline {2.1}Equation for the minimal path}{2}{subsection.2.1}}
\newlabel{eq1}{{8}{2}{Equation for the minimal path\relax }{equation.2.8}{}}
\bibstyle{plain}
\bibdata{nasheq}
\@writefile{toc}{\contentsline {subsection}{\numberline {2.2}Solution in the case of constant variance}{3}{subsection.2.2}}
\newlabel{eq:mcond}{{14}{3}{Solution in the case of constant variance\relax }{equation.2.14}{}}
\@writefile{toc}{\contentsline {section}{\numberline {3}Discussion}{3}{section.3}}
\newlabel{sec:disc}{{3}{3}{Discussion\relax }{section.3}{}}
