\BOOKMARK [1][-]{section.1}{Motivations}{}% 1
\BOOKMARK [1][-]{section.2}{Using the action}{}% 2
\BOOKMARK [2][-]{subsection.2.1}{Equation for the minimal path}{section.2}% 3
\BOOKMARK [2][-]{subsection.2.2}{Solution in the case of constant variance}{section.2}% 4
\BOOKMARK [1][-]{section.3}{Discussion}{}% 5
