<?xml version="1.0" encoding="UTF-8" standalone="no"?>
<!-- Created with Inkscape (http://www.inkscape.org/) -->

<svg
   xmlns:dc="http://purl.org/dc/elements/1.1/"
   xmlns:cc="http://creativecommons.org/ns#"
   xmlns:rdf="http://www.w3.org/1999/02/22-rdf-syntax-ns#"
   xmlns:svg="http://www.w3.org/2000/svg"
   xmlns="http://www.w3.org/2000/svg"
   xmlns:xlink="http://www.w3.org/1999/xlink"
   xmlns:sodipodi="http://sodipodi.sourceforge.net/DTD/sodipodi-0.dtd"
   xmlns:inkscape="http://www.inkscape.org/namespaces/inkscape"
   id="svg2"
   version="1.1"
   inkscape:version="0.48.4 r9939"
   width="700"
   height="293.75"
   xml:space="preserve"
   sodipodi:docname="scheme1.pdf"><metadata
     id="metadata8"><rdf:RDF><cc:Work
         rdf:about=""><dc:format>image/svg+xml</dc:format><dc:type
           rdf:resource="http://purl.org/dc/dcmitype/StillImage" /><dc:title></dc:title></cc:Work></rdf:RDF></metadata><defs
     id="defs6"><marker
       inkscape:stockid="Arrow1Lstart"
       orient="auto"
       refY="0.0"
       refX="0.0"
       id="Arrow1Lstart"
       style="overflow:visible"><path
         id="path4675"
         d="M 0.0,0.0 L 5.0,-5.0 L -12.5,0.0 L 5.0,5.0 L 0.0,0.0 z "
         style="fill-rule:evenodd;stroke:#000000;stroke-width:1.0pt"
         transform="scale(0.8) translate(12.5,0)" /></marker><clipPath
       clipPathUnits="userSpaceOnUse"
       id="clipPath20"><path
         d="m 4,72 324,0 0,-3 -324,0 0,3 z"
         id="path22"
         inkscape:connector-curvature="0" /></clipPath><clipPath
       clipPathUnits="userSpaceOnUse"
       id="clipPath30"><path
         d="m 3,69 325,0 0,3 -325,0 0,-3 z"
         id="path32"
         inkscape:connector-curvature="0" /></clipPath><clipPath
       clipPathUnits="userSpaceOnUse"
       id="clipPath40"><path
         d="m 3,72 325,0 0,-3 -325,0 0,3 z"
         id="path42"
         inkscape:connector-curvature="0" /></clipPath><clipPath
       clipPathUnits="userSpaceOnUse"
       id="clipPath50"><path
         d="m 3,69 325,0 0,3 -325,0 0,-3 z"
         id="path52"
         inkscape:connector-curvature="0" /></clipPath><clipPath
       clipPathUnits="userSpaceOnUse"
       id="clipPath60"><path
         d="m 3,72 325,0 0,-3 -325,0 0,3 z"
         id="path62"
         inkscape:connector-curvature="0" /></clipPath><clipPath
       clipPathUnits="userSpaceOnUse"
       id="clipPath70"><path
         d="m 3,69 325,0 0,3 -325,0 0,-3 z"
         id="path72"
         inkscape:connector-curvature="0" /></clipPath><clipPath
       clipPathUnits="userSpaceOnUse"
       id="clipPath80"><path
         d="m 3,72 325,0 0,-3 -325,0 0,3 z"
         id="path82"
         inkscape:connector-curvature="0" /></clipPath><clipPath
       clipPathUnits="userSpaceOnUse"
       id="clipPath90"><path
         d="m 3,69 325,0 0,3 -325,0 0,-3 z"
         id="path92"
         inkscape:connector-curvature="0" /></clipPath><clipPath
       clipPathUnits="userSpaceOnUse"
       id="clipPath102"><path
         d="M 4,188 334,188 334,62 4,62 4,188 z"
         id="path104"
         inkscape:connector-curvature="0" /></clipPath><clipPath
       clipPathUnits="userSpaceOnUse"
       id="clipPath112"><path
         d="m 3,69 325,0 0,112 L 3,181 3,69 z"
         id="path114"
         inkscape:connector-curvature="0" /></clipPath><clipPath
       clipPathUnits="userSpaceOnUse"
       id="clipPath122"><path
         d="M 3,181 328,181 328,69 3,69 3,181 z"
         id="path124"
         inkscape:connector-curvature="0" /></clipPath><clipPath
       clipPathUnits="userSpaceOnUse"
       id="clipPath132"><path
         d="m 3,69 325,0 0,112 L 3,181 3,69 z"
         id="path134"
         inkscape:connector-curvature="0" /></clipPath><clipPath
       clipPathUnits="userSpaceOnUse"
       id="clipPath142"><path
         d="M 3,181 328,181 328,69 3,69 3,181 z"
         id="path144"
         inkscape:connector-curvature="0" /></clipPath><clipPath
       clipPathUnits="userSpaceOnUse"
       id="clipPath152"><path
         d="m 3,69 325,0 0,112 L 3,181 3,69 z"
         id="path154"
         inkscape:connector-curvature="0" /></clipPath><clipPath
       clipPathUnits="userSpaceOnUse"
       id="clipPath162"><path
         d="M 3,181 328,181 328,69 3,69 3,181 z"
         id="path164"
         inkscape:connector-curvature="0" /></clipPath><clipPath
       clipPathUnits="userSpaceOnUse"
       id="clipPath172"><path
         d="m 3,69 325,0 0,112 L 3,181 3,69 z"
         id="path174"
         inkscape:connector-curvature="0" /></clipPath><clipPath
       clipPathUnits="userSpaceOnUse"
       id="clipPath184"><path
         d="m 4,181 324,0 0,-3 -324,0 0,3 z"
         id="path186"
         inkscape:connector-curvature="0" /></clipPath><clipPath
       clipPathUnits="userSpaceOnUse"
       id="clipPath194"><path
         d="m 3,178 325,0 0,3 -325,0 0,-3 z"
         id="path196"
         inkscape:connector-curvature="0" /></clipPath><clipPath
       clipPathUnits="userSpaceOnUse"
       id="clipPath204"><path
         d="m 3,181 325,0 0,-3 -325,0 0,3 z"
         id="path206"
         inkscape:connector-curvature="0" /></clipPath><clipPath
       clipPathUnits="userSpaceOnUse"
       id="clipPath214"><path
         d="m 3,178 325,0 0,3 -325,0 0,-3 z"
         id="path216"
         inkscape:connector-curvature="0" /></clipPath><clipPath
       clipPathUnits="userSpaceOnUse"
       id="clipPath224"><path
         d="m 3,181 325,0 0,-3 -325,0 0,3 z"
         id="path226"
         inkscape:connector-curvature="0" /></clipPath><clipPath
       clipPathUnits="userSpaceOnUse"
       id="clipPath234"><path
         d="m 3,178 325,0 0,3 -325,0 0,-3 z"
         id="path236"
         inkscape:connector-curvature="0" /></clipPath><clipPath
       clipPathUnits="userSpaceOnUse"
       id="clipPath244"><path
         d="m 3,181 325,0 0,-3 -325,0 0,3 z"
         id="path246"
         inkscape:connector-curvature="0" /></clipPath><clipPath
       clipPathUnits="userSpaceOnUse"
       id="clipPath254"><path
         d="m 3,178 325,0 0,3 -325,0 0,-3 z"
         id="path256"
         inkscape:connector-curvature="0" /></clipPath><clipPath
       clipPathUnits="userSpaceOnUse"
       id="clipPath266"><path
         d="m 4,127 324,0 0,-4 -324,0 0,4 z"
         id="path268"
         inkscape:connector-curvature="0" /></clipPath><clipPath
       clipPathUnits="userSpaceOnUse"
       id="clipPath276"><path
         d="m 3,124 325,0 0,2 -325,0 0,-2 z"
         id="path278"
         inkscape:connector-curvature="0" /></clipPath><clipPath
       clipPathUnits="userSpaceOnUse"
       id="clipPath286"><path
         d="m 3,126 325,0 0,-2 -325,0 0,2 z"
         id="path288"
         inkscape:connector-curvature="0" /></clipPath><clipPath
       clipPathUnits="userSpaceOnUse"
       id="clipPath296"><path
         d="m 3,124 325,0 0,2 -325,0 0,-2 z"
         id="path298"
         inkscape:connector-curvature="0" /></clipPath><clipPath
       clipPathUnits="userSpaceOnUse"
       id="clipPath306"><path
         d="m 3,126 325,0 0,-2 -325,0 0,2 z"
         id="path308"
         inkscape:connector-curvature="0" /></clipPath><clipPath
       clipPathUnits="userSpaceOnUse"
       id="clipPath316"><path
         d="m 3,124 325,0 0,2 -325,0 0,-2 z"
         id="path318"
         inkscape:connector-curvature="0" /></clipPath><clipPath
       clipPathUnits="userSpaceOnUse"
       id="clipPath326"><path
         d="m 3,126 325,0 0,-2 -325,0 0,2 z"
         id="path328"
         inkscape:connector-curvature="0" /></clipPath><clipPath
       clipPathUnits="userSpaceOnUse"
       id="clipPath336"><path
         d="m 3,124 325,0 0,2 -325,0 0,-2 z"
         id="path338"
         inkscape:connector-curvature="0" /></clipPath><path
       id="g2-18"
       d="m 9.4896,-8.5824 c 0.2448,0 0.504,0 0.504,-0.288 0,-0.288 -0.2592,-0.288 -0.504,-0.288 H 5.616 c -2.4768,0 -4.4208,1.8864 -4.4208,4.1616 0,2.3184 1.9872,4.176 4.4208,4.176 h 3.8736 c 0.2448,0 0.504,0 0.504,-0.288 0,-0.288 -0.2592,-0.288 -0.504,-0.288 H 5.6448 c -2.2752,0 -3.8736,-1.6848 -3.8736,-3.5856 0,-1.9584 1.6416,-3.6 3.8736,-3.6 H 9.4896 z M 1.9872,1.3968 c -0.2448,0 -0.504,0 -0.504,0.288 0,0.288 0.2592,0.288 0.504,0.288 h 7.5024 c 0.2448,0 0.504,0 0.504,-0.288 0,-0.288 -0.2592,-0.288 -0.504,-0.288 H 1.9872 z"
       inkscape:connector-curvature="0" /><path
       id="g1-59"
       d="m 2.808,0.0576 c 0,-0.8352 -0.2736,-1.4544 -0.864,-1.4544 -0.4608,0 -0.6912,0.3744 -0.6912,0.6912 C 1.2528,-0.3888 1.4688,0 1.9584,0 2.1456,0 2.304,-0.0576 2.4336,-0.1872 2.4624,-0.216 2.4768,-0.216 2.4912,-0.216 2.52,-0.216 2.52,-0.0144 2.52,0.0576 2.52,0.5328 2.4336,1.4688 1.5984,2.4048 1.44,2.5776 1.44,2.6064 1.44,2.6352 c 0,0.072 0.072,0.144 0.144,0.144 0.1152,0 1.224,-1.0656 1.224,-2.7216 z"
       inkscape:connector-curvature="0" /><path
       id="g1-30"
       d="m 6.192,-9.864 c 0,-0.1296 -0.1008,-0.1296 -0.144,-0.1296 -0.1296,0 -0.144,0.0288 -0.2016,0.2736 l -0.7776,3.096 c -0.0432,0.1872 -0.0576,0.2016 -0.072,0.216 -0.0144,0.0288 -0.1152,0.0432 -0.144,0.0432 -2.3616,0.2016 -4.176,2.1456 -4.176,3.9456 0,1.5552 1.1952,2.5056 2.6928,2.592 C 3.2544,0.6192 3.1536,1.08 3.0384,1.5264 2.8368,2.2896 2.7216,2.7648 2.7216,2.8224 c 0,0.0288 0,0.1152 0.144,0.1152 0.0432,0 0.1008,0 0.1296,-0.0576 C 3.024,2.8512 3.1104,2.5056 3.168,2.3184 L 3.7008,0.1728 c 2.4624,-0.1296 4.3344,-2.1456 4.3344,-3.96 0,-1.4544 -1.0944,-2.4912 -2.6928,-2.592 L 6.192,-9.864 z m -0.936,3.7728 c 0.9504,0.0576 1.9008,0.5904 1.9008,2.0016 0,1.6272 -1.1376,3.7872 -3.384,3.96 L 5.256,-6.0912 z m -1.8144,5.976 C 2.736,-0.1584 1.5552,-0.5328 1.5552,-2.1168 c 0,-1.8144 1.3104,-3.8304 3.384,-3.96 l -1.4976,5.9616 z"
       inkscape:connector-curvature="0" /><path
       id="g0-121"
       d="m 5.832,-4.8096 c 0.3888,-0.9648 1.0656,-0.9792 1.3392,-0.9792 v -0.4176 c -0.4176,0.0288 -0.6192,0.0288 -1.08,0.0288 -0.3312,0 -0.36,0 -1.1664,-0.0288 v 0.4176 c 0.5328,0.0288 0.6624,0.36 0.6624,0.6192 0,0.1296 -0.0288,0.2016 -0.0864,0.3456 L 4.032,-1.1952 2.4336,-5.112 C 2.3472,-5.3136 2.3472,-5.4 2.3472,-5.4144 c 0,-0.3744 0.504,-0.3744 0.792,-0.3744 v -0.4176 c -0.3744,0.0288 -1.08,0.0288 -1.4832,0.0288 -0.5472,0 -0.576,0 -1.3968,-0.0288 v 0.4176 c 0.8352,0 0.9504,0.072 1.1376,0.5184 L 3.5424,0 C 2.9088,1.5264 2.9088,1.5552 2.8512,1.6704 2.6064,2.1024 2.2176,2.6496 1.5696,2.6496 c -0.4464,0 -0.72,-0.2592 -0.72,-0.2592 0,0 0.504,-0.0576 0.504,-0.5616 C 1.3536,1.4832 1.08,1.296 0.8208,1.296 0.576,1.296 0.2736,1.44 0.2736,1.8576 c 0,0.5472 0.5328,1.08 1.296,1.08 0.8064,0 1.3968,-0.7056 1.7712,-1.6128 L 5.832,-4.8096 z"
       inkscape:connector-curvature="0" /><path
       id="g0-117"
       d="m 4.3776,-6.192 v 0.4176 c 0.9792,0 1.0944,0.1008 1.0944,0.8064 v 2.5776 c 0,1.224 -0.648,2.2464 -1.728,2.2464 -1.1808,0 -1.2528,-0.6768 -1.2528,-1.44 V -6.3504 L 0.4608,-6.192 v 0.4176 c 1.0944,0 1.0944,0.0432 1.0944,1.3248 v 2.16 c 0,0.8928 0,1.4112 0.432,1.8864 0.3456,0.3744 0.936,0.5472 1.6704,0.5472 0.2448,0 0.7056,0 1.1952,-0.4176 0.4176,-0.3312 0.648,-0.8784 0.648,-0.8784 V 0.144 L 7.5024,0 V -0.4176 C 6.5232,-0.4176 6.408,-0.5184 6.408,-1.224 V -6.3504 L 4.3776,-6.192 z"
       inkscape:connector-curvature="0" /><path
       id="g0-116"
       d="M 2.4192,-5.7888 H 4.4496 V -6.2064 H 2.4192 V -8.856 H 2.1024 C 2.088,-7.5024 1.5696,-6.12 0.2592,-6.0768 v 0.288 h 1.224 v 4.0032 c 0,1.5984 1.0656,1.9296 1.8288,1.9296 0.9072,0 1.3824,-0.8928 1.3824,-1.9296 V -2.6064 H 4.3776 v 0.792 c 0,1.0368 -0.4176,1.6416 -0.9792,1.6416 -0.9792,0 -0.9792,-1.3392 -0.9792,-1.584 v -4.032 z"
       inkscape:connector-curvature="0" /><path
       id="g0-115"
       d="m 4.7232,-6.0912 c 0,-0.2592 0,-0.3312 -0.144,-0.3312 -0.1152,0 -0.3888,0.3168 -0.4896,0.4464 -0.4464,-0.36 -0.8928,-0.4464 -1.3536,-0.4464 -1.7424,0 -2.2608,0.9504 -2.2608,1.7424 0,0.1584 0,0.6624 0.5472,1.1664 0.4608,0.4032 0.9504,0.504 1.6128,0.6336 0.792,0.1584 0.9792,0.2016 1.3392,0.4896 0.2592,0.216 0.4464,0.5328 0.4464,0.936 0,0.6192 -0.36,1.3104 -1.6272,1.3104 -0.9504,0 -1.6416,-0.5472 -1.9584,-1.9872 -0.0576,-0.2592 -0.0576,-0.2736 -0.072,-0.288 -0.0288,-0.0576 -0.0864,-0.0576 -0.1296,-0.0576 -0.1584,0 -0.1584,0.072 -0.1584,0.3312 v 1.9584 c 0,0.2592 0,0.3312 0.144,0.3312 0.072,0 0.0864,-0.0144 0.3312,-0.3168 0.072,-0.1008 0.072,-0.1296 0.288,-0.36 0.5472,0.6768 1.3248,0.6768 1.5696,0.6768 1.512,0 2.2608,-0.8352 2.2608,-1.9728 0,-0.7776 -0.4752,-1.2384 -0.6048,-1.368 -0.5184,-0.4464 -0.9072,-0.5328 -1.8576,-0.7056 -0.432,-0.0864 -1.4832,-0.288 -1.4832,-1.152 0,-0.4464 0.3024,-1.1088 1.5984,-1.1088 1.5696,0 1.656,1.3392 1.6848,1.7856 0.0144,0.1152 0.1152,0.1152 0.1584,0.1152 0.1584,0 0.1584,-0.072 0.1584,-0.3312 v -1.4976 z"
       inkscape:connector-curvature="0" /><path
       id="g0-114"
       d="m 2.4048,-3.3552 c 0,-1.3968 0.576,-2.7072 1.6848,-2.7072 0.1152,0 0.144,0 0.2016,0.0144 -0.1152,0.0576 -0.3456,0.144 -0.3456,0.5328 0,0.4176 0.3312,0.576 0.5616,0.576 0.288,0 0.576,-0.1872 0.576,-0.576 0,-0.432 -0.3888,-0.8352 -1.008,-0.8352 -1.224,0 -1.6416,1.3248 -1.728,1.5984 H 2.3328 V -6.3504 L 0.4032,-6.192 v 0.4176 c 0.9792,0 1.0944,0.1008 1.0944,0.8064 v 3.9024 c 0,0.648 -0.1584,0.648 -1.0944,0.648 V 0 c 0.4032,-0.0288 1.1952,-0.0288 1.6272,-0.0288 0.3888,0 1.4112,0 1.7424,0.0288 v -0.4176 h -0.288 c -1.0512,0 -1.08,-0.1584 -1.08,-0.6768 v -2.2608 z"
       inkscape:connector-curvature="0" /><path
       id="g0-112"
       d="m 3.528,2.376 c -0.9216,0 -1.0944,0 -1.0944,-0.648 v -2.5056 c 0.2592,0.36 0.8496,0.9216 1.7712,0.9216 1.656,0 3.1104,-1.3968 3.1104,-3.2544 0,-1.8288 -1.3536,-3.24 -2.9232,-3.24 -1.2672,0 -1.944,0.9072 -1.9872,0.9648 V -6.3504 L 0.4032,-6.192 v 0.4176 c 1.008,0 1.0944,0.1008 1.0944,0.7344 v 6.768 c 0,0.648 -0.1584,0.648 -1.0944,0.648 v 0.4176 c 0.3744,-0.0288 1.152,-0.0288 1.5552,-0.0288 0.4176,0 1.1952,0 1.5696,0.0288 V 2.376 z M 2.4336,-4.5936 c 0,-0.2736 0,-0.288 0.1584,-0.5184 0.432,-0.648 1.1376,-0.9216 1.6848,-0.9216 1.08,0 1.944,1.3104 1.944,2.9232 0,1.7136 -0.9792,2.9664 -2.088,2.9664 -0.4464,0 -0.864,-0.1872 -1.152,-0.4608 C 2.6496,-0.936 2.4336,-1.224 2.4336,-1.6272 v -2.9664 z"
       inkscape:connector-curvature="0" /><path
       id="g0-111"
       d="m 6.6096,-3.0816 c 0,-1.8576 -1.4112,-3.3408 -3.0816,-3.3408 -1.728,0 -3.096,1.5264 -3.096,3.3408 0,1.8432 1.44,3.2256 3.0816,3.2256 1.6992,0 3.096,-1.4112 3.096,-3.2256 z M 3.528,-0.1728 c -0.5328,0 -1.1808,-0.2304 -1.5984,-0.936 -0.3888,-0.648 -0.4032,-1.4976 -0.4032,-2.1024 0,-0.5472 0,-1.4256 0.4464,-2.0736 0.4032,-0.6192 1.0368,-0.8496 1.5408,-0.8496 0.5616,0 1.1664,0.2592 1.5552,0.8208 0.4464,0.6624 0.4464,1.5696 0.4464,2.1024 0,0.504 0,1.3968 -0.3744,2.0736 -0.4032,0.6912 -1.0656,0.9648 -1.6128,0.9648 z"
       inkscape:connector-curvature="0" /><path
       id="g0-110"
       d="m 6.408,-3.4992 c 0,-1.3392 0,-1.7424 -0.3312,-2.2032 -0.4176,-0.5616 -1.0944,-0.648 -1.584,-0.648 -1.3968,0 -1.944,1.1952 -2.0592,1.4832 H 2.4192 V -6.3504 L 0.4608,-6.192 v 0.4176 c 0.9792,0 1.0944,0.1008 1.0944,0.8064 v 3.9024 c 0,0.648 -0.1584,0.648 -1.0944,0.648 V 0 c 0.3744,-0.0288 1.152,-0.0288 1.5552,-0.0288 0.4176,0 1.1952,0 1.5696,0.0288 v -0.4176 c -0.9216,0 -1.0944,0 -1.0944,-0.648 V -3.744 c 0,-1.512 0.9936,-2.3184 1.8864,-2.3184 0.8928,0 1.0944,0.7344 1.0944,1.6128 v 3.384 c 0,0.648 -0.1584,0.648 -1.0944,0.648 V 0 c 0.3744,-0.0288 1.152,-0.0288 1.5552,-0.0288 0.4176,0 1.1952,0 1.5696,0.0288 v -0.4176 c -0.72,0 -1.08,0 -1.0944,-0.432 v -2.6496 z"
       inkscape:connector-curvature="0" /><path
       id="g0-109"
       d="m 10.3248,-3.4992 c 0,-1.3392 0,-1.7424 -0.3312,-2.2032 -0.4176,-0.5616 -1.0944,-0.648 -1.584,-0.648 -1.1952,0 -1.8,0.864 -2.0304,1.4256 C 6.1776,-6.0336 5.4,-6.3504 4.4928,-6.3504 c -1.3968,0 -1.944,1.1952 -2.0592,1.4832 H 2.4192 V -6.3504 L 0.4608,-6.192 v 0.4176 c 0.9792,0 1.0944,0.1008 1.0944,0.8064 v 3.9024 c 0,0.648 -0.1584,0.648 -1.0944,0.648 V 0 c 0.3744,-0.0288 1.152,-0.0288 1.5552,-0.0288 0.4176,0 1.1952,0 1.5696,0.0288 v -0.4176 c -0.9216,0 -1.0944,0 -1.0944,-0.648 V -3.744 c 0,-1.512 0.9936,-2.3184 1.8864,-2.3184 0.8928,0 1.0944,0.7344 1.0944,1.6128 v 3.384 c 0,0.648 -0.1584,0.648 -1.0944,0.648 V 0 c 0.3744,-0.0288 1.152,-0.0288 1.5552,-0.0288 0.4176,0 1.1952,0 1.5696,0.0288 v -0.4176 c -0.9216,0 -1.0944,0 -1.0944,-0.648 V -3.744 c 0,-1.512 0.9936,-2.3184 1.8864,-2.3184 0.8928,0 1.0944,0.7344 1.0944,1.6128 v 3.384 c 0,0.648 -0.1584,0.648 -1.0944,0.648 V 0 c 0.3744,-0.0288 1.152,-0.0288 1.5552,-0.0288 0.4176,0 1.1952,0 1.5696,0.0288 v -0.4176 c -0.72,0 -1.08,0 -1.0944,-0.432 v -2.6496 z"
       inkscape:connector-curvature="0" /><path
       id="g0-108"
       d="m 2.4768,-9.9936 -2.0016,0.1584 v 0.4176 c 0.9792,0 1.0944,0.1008 1.0944,0.8064 v 7.5456 c 0,0.648 -0.1584,0.648 -1.0944,0.648 V 0 c 0.4032,-0.0288 1.1088,-0.0288 1.5408,-0.0288 0.432,0 1.152,0 1.5552,0.0288 v -0.4176 c -0.9216,0 -1.0944,0 -1.0944,-0.648 v -8.928 z"
       inkscape:connector-curvature="0" /><path
       id="g0-107"
       d="m 4.032,-3.816 c 0,-0.0144 -0.1008,-0.1296 -0.1008,-0.144 0,-0.0432 0.9072,-0.8208 1.0224,-0.936 0.9936,-0.864 1.6272,-0.8784 1.9296,-0.8928 v -0.4176 c -0.288,0.0288 -0.6624,0.0288 -1.0944,0.0288 -0.3744,0 -1.1088,0 -1.44,-0.0288 v 0.4176 c 0.2448,0.0144 0.4176,0.144 0.4176,0.3744 0,0.288 -0.288,0.5472 -0.3024,0.5472 l -2.0592,1.8144 v -6.9408 l -2.0016,0.1584 v 0.4176 c 0.9792,0 1.0944,0.1008 1.0944,0.8064 v 7.5456 c 0,0.648 -0.1584,0.648 -1.0944,0.648 V 0 c 0.4032,-0.0288 1.0944,-0.0288 1.5264,-0.0288 0.432,0 1.1232,0 1.5264,0.0288 v -0.4176 c -0.9216,0 -1.0944,0 -1.0944,-0.648 V -2.592 l 0.9216,-0.8064 1.3824,1.9872 c 0.216,0.3024 0.3168,0.4608 0.3168,0.6624 0,0.2592 -0.2016,0.3312 -0.504,0.3312 V 0 c 0.36,-0.0288 1.0656,-0.0288 1.4544,-0.0288 0.6192,0 0.648,0 1.2672,0.0288 v -0.4176 c -0.3888,0 -0.8352,0 -1.2384,-0.5904 L 4.032,-3.816 z"
       inkscape:connector-curvature="0" /><path
       id="g0-105"
       d="m 2.5056,-8.8704 c 0,-0.3744 -0.3024,-0.7056 -0.7056,-0.7056 -0.3744,0 -0.6912,0.3024 -0.6912,0.6912 0,0.432 0.3456,0.7056 0.6912,0.7056 0.4464,0 0.7056,-0.3744 0.7056,-0.6912 z M 0.5184,-6.192 v 0.4176 c 0.9216,0 1.0512,0.0864 1.0512,0.792 v 3.9168 c 0,0.648 -0.1584,0.648 -1.0944,0.648 V 0 c 0.4032,-0.0288 1.0944,-0.0288 1.512,-0.0288 0.1584,0 0.9936,0 1.4832,0.0288 v -0.4176 c -0.936,0 -0.9936,-0.072 -0.9936,-0.6336 V -6.3504 L 0.5184,-6.192 z"
       inkscape:connector-curvature="0" /><path
       id="g0-104"
       d="m 6.408,-3.4992 c 0,-1.3392 0,-1.7424 -0.3312,-2.2032 -0.4176,-0.5616 -1.0944,-0.648 -1.584,-0.648 -1.2384,0 -1.8144,0.936 -2.016,1.3824 H 2.4624 v -5.0256 l -2.0016,0.1584 v 0.4176 c 0.9792,0 1.0944,0.1008 1.0944,0.8064 v 7.5456 c 0,0.648 -0.1584,0.648 -1.0944,0.648 V 0 c 0.3744,-0.0288 1.152,-0.0288 1.5552,-0.0288 0.4176,0 1.1952,0 1.5696,0.0288 v -0.4176 c -0.9216,0 -1.0944,0 -1.0944,-0.648 V -3.744 c 0,-1.512 0.9936,-2.3184 1.8864,-2.3184 0.8928,0 1.0944,0.7344 1.0944,1.6128 v 3.384 c 0,0.648 -0.1584,0.648 -1.0944,0.648 V 0 c 0.3744,-0.0288 1.152,-0.0288 1.5552,-0.0288 0.4176,0 1.1952,0 1.5696,0.0288 v -0.4176 c -0.72,0 -1.08,0 -1.0944,-0.432 v -2.6496 z"
       inkscape:connector-curvature="0" /><path
       id="g0-103"
       d="M 1.7136,-2.6064 C 2.3904,-2.16 2.9664,-2.16 3.1248,-2.16 c 1.296,0 2.2608,-0.9792 2.2608,-2.088 0,-0.3888 -0.1152,-0.936 -0.576,-1.3968 0.5616,-0.576 1.2384,-0.576 1.3104,-0.576 0.0576,0 0.1296,0 0.1872,0.0288 -0.144,0.0576 -0.216,0.2016 -0.216,0.36 0,0.2016 0.144,0.3744 0.3744,0.3744 0.1152,0 0.3744,-0.072 0.3744,-0.3888 0,-0.2592 -0.2016,-0.6624 -0.7056,-0.6624 -0.7488,0 -1.3104,0.4608 -1.512,0.6768 -0.432,-0.3312 -0.936,-0.5184 -1.4832,-0.5184 -1.296,0 -2.2608,0.9792 -2.2608,2.088 0,0.8208 0.504,1.3536 0.648,1.4832 -0.1728,0.216 -0.432,0.6336 -0.432,1.1952 0,0.8352 0.504,1.1952 0.6192,1.2672 -0.6624,0.1872 -1.3248,0.7056 -1.3248,1.4544 0,0.9936 1.3536,1.8144 3.1248,1.8144 1.7136,0 3.1392,-0.7632 3.1392,-1.8432 0,-0.36 -0.1008,-1.2096 -0.9648,-1.656 -0.7344,-0.3744 -1.4544,-0.3744 -2.6928,-0.3744 -0.8784,0 -0.9792,0 -1.2384,-0.2736 -0.144,-0.144 -0.2736,-0.4176 -0.2736,-0.72 0,-0.2448 0.0864,-0.4896 0.2304,-0.6912 z m 1.4256,0.144 c -1.2672,0 -1.2672,-1.4544 -1.2672,-1.7856 0,-0.2592 0,-0.8496 0.2448,-1.2384 0.2736,-0.4176 0.7056,-0.5616 1.008,-0.5616 1.2672,0 1.2672,1.4544 1.2672,1.7856 0,0.2592 0,0.8496 -0.2448,1.2384 -0.2736,0.4176 -0.7056,0.5616 -1.008,0.5616 z m 0.3888,5.112 c -1.3824,0 -2.4336,-0.7056 -2.4336,-1.5264 0,-0.1152 0.0288,-0.6768 0.576,-1.0512 0.3168,-0.2016 0.4464,-0.2016 1.4544,-0.2016 1.1952,0 2.8224,0 2.8224,1.2528 0,0.8496 -1.0944,1.5264 -2.4192,1.5264 z"
       inkscape:connector-curvature="0" /><path
       id="g0-101"
       d="m 5.5152,-3.3408 c 0.3168,0 0.3456,0 0.3456,-0.2736 0,-1.4544 -0.7776,-2.808 -2.52,-2.808 -1.6416,0 -2.9088,1.4832 -2.9088,3.2688 0,1.9008 1.4688,3.2976 3.0672,3.2976 1.7136,0 2.3616,-1.5552 2.3616,-1.8576 0,-0.0864 -0.072,-0.144 -0.1584,-0.144 -0.1152,0 -0.144,0.072 -0.1728,0.144 -0.3744,1.2096 -1.3392,1.5408 -1.944,1.5408 -0.6048,0 -2.0592,-0.4032 -2.0592,-2.8944 V -3.3408 H 5.5152 z M 1.5408,-3.6144 c 0.1152,-2.2608 1.3824,-2.52 1.7856,-2.52 1.5408,0 1.6272,2.0304 1.6416,2.52 H 1.5408 z"
       inkscape:connector-curvature="0" /><path
       id="g0-98"
       d="m 2.4048,-9.9936 -2.0016,0.1584 v 0.4176 c 0.9792,0 1.0944,0.1008 1.0944,0.8064 V 0 h 0.3168 c 0.0576,-0.1152 0.4608,-0.8352 0.5184,-0.936 0.3312,0.5328 0.9504,1.08 1.872,1.08 1.656,0 3.1104,-1.3968 3.1104,-3.2544 0,-1.8288 -1.3536,-3.24 -2.952,-3.24 -0.792,0 -1.4688,0.36 -1.9584,0.9648 v -4.608 z m 0.0288,5.3856 c 0,-0.2592 0,-0.288 0.1584,-0.5184 0.3456,-0.5184 0.9792,-0.936 1.6848,-0.936 0.432,0 1.944,0.1728 1.944,2.9376 0,0.9648 -0.144,1.5696 -0.4896,2.088 -0.288,0.4464 -0.864,0.8928 -1.584,0.8928 -0.7776,0 -1.2816,-0.504 -1.5264,-0.8928 -0.1872,-0.3024 -0.1872,-0.36 -0.1872,-0.6048 V -4.608 z"
       inkscape:connector-curvature="0" /><path
       id="g0-97"
       d="m 5.5584,-3.8448 c 0,-0.7776 0,-1.3536 -0.6336,-1.9152 -0.504,-0.4608 -1.152,-0.6624 -1.7856,-0.6624 -1.1808,0 -2.088,0.7776 -2.088,1.7136 0,0.4176 0.2736,0.6192 0.6048,0.6192 0.3456,0 0.5904,-0.2448 0.5904,-0.5904 0,-0.5904 -0.5184,-0.5904 -0.7344,-0.5904 0.3312,-0.6048 1.0224,-0.864 1.5984,-0.864 0.6624,0 1.512,0.5472 1.512,1.8432 v 0.576 c -2.8944,0.0432 -3.9888,1.2528 -3.9888,2.3616 0,1.1376 1.3248,1.4976 2.2032,1.4976 0.9504,0 1.5984,-0.576 1.872,-1.2672 0.0576,0.6768 0.504,1.1952 1.1232,1.1952 0.3024,0 1.1376,-0.2016 1.1376,-1.3536 V -2.088 H 6.6528 v 0.8064 c 0,0.8208 -0.3456,0.936 -0.5472,0.936 -0.5472,0 -0.5472,-0.7632 -0.5472,-0.9792 v -2.52 z m -0.936,1.8144 c 0,1.4112 -1.0512,1.8864 -1.6704,1.8864 -0.7056,0 -1.296,-0.5184 -1.296,-1.2096 0,-1.9008 2.448,-2.0736 2.9664,-2.1024 v 1.4256 z"
       inkscape:connector-curvature="0" /><path
       id="g0-93"
       d="M 2.232,-10.8 H 0.3024 v 0.5328 H 1.6992 V 3.0672 H 0.3024 V 3.6 H 2.232 v -14.4 z"
       inkscape:connector-curvature="0" /><path
       id="g0-91"
       d="M 3.6,3.6 V 3.0672 H 2.2032 V -10.2672 H 3.6 V -10.8 H 1.6704 V 3.6 H 3.6 z"
       inkscape:connector-curvature="0" /><path
       id="g0-83"
       d="M 2.9952,-6.0048 C 2.2608,-6.192 1.6128,-6.912 1.6128,-7.8336 c 0,-1.008 0.8064,-1.9152 1.9296,-1.9152 2.3616,0 2.6784,2.3328 2.7648,2.952 0.0288,0.1728 0.0288,0.2304 0.1728,0.2304 0.1584,0 0.1584,-0.072 0.1584,-0.3312 v -2.9088 c 0,-0.2592 0,-0.3312 -0.144,-0.3312 -0.0432,0 -0.1008,0 -0.2016,0.1872 L 5.8176,-9.072 c -0.6912,-0.8928 -1.6416,-1.0656 -2.2752,-1.0656 -1.5984,0 -2.7648,1.2816 -2.7648,2.7504 0,0.6912 0.2448,1.3248 0.7776,1.9008 0.504,0.5616 1.008,0.6912 2.0304,0.9504 0.504,0.1152 1.296,0.3168 1.4976,0.4032 0.6768,0.3312 1.1232,1.1088 1.1232,1.9152 0,1.08 -0.7632,2.1024 -1.9584,2.1024 -0.648,0 -1.5408,-0.1584 -2.2464,-0.7776 C 1.1664,-1.6416 1.1088,-2.6784 1.0944,-3.1536 1.08,-3.2688 0.9648,-3.2688 0.936,-3.2688 c -0.1584,0 -0.1584,0.072 -0.1584,0.3312 v 2.9088 c 0,0.2592 0,0.3312 0.144,0.3312 0.0864,0 0.1008,-0.0288 0.2016,-0.2016 0.0576,-0.1152 0.36,-0.648 0.4752,-0.864 0.5184,0.576 1.4256,1.0656 2.664,1.0656 1.6128,0 2.7792,-1.368 2.7792,-2.952 0,-0.8784 -0.3312,-1.5264 -0.72,-2.0016 -0.5328,-0.648 -1.1808,-0.8064 -1.7424,-0.9504 l -1.584,-0.4032 z"
       inkscape:connector-curvature="0" /><path
       id="g0-49"
       d="m 4.1472,-9.2304 c 0,-0.3312 0,-0.3456 -0.288,-0.3456 -0.3456,0.3888 -1.0656,0.9216 -2.5488,0.9216 v 0.4176 c 0.3312,0 1.0512,0 1.8432,-0.3744 v 7.5024 c 0,0.5184 -0.0432,0.6912 -1.3104,0.6912 H 1.3968 V 0 c 0.3888,-0.0288 1.7856,-0.0288 2.2608,-0.0288 0.4752,0 1.8576,0 2.2464,0.0288 V -0.4176 H 5.4576 c -1.2672,0 -1.3104,-0.1728 -1.3104,-0.6912 v -8.1216 z"
       inkscape:connector-curvature="0" /><path
       id="g0-48"
       d="m 6.4512,-4.608 c 0,-1.1952 -0.072,-2.3616 -0.5904,-3.456 -0.5904,-1.1952 -1.6272,-1.512 -2.3328,-1.512 -0.8352,0 -1.8576,0.4176 -2.3904,1.6128 -0.4032,0.9072 -0.5472,1.8 -0.5472,3.3552 0,1.3968 0.1008,2.448 0.6192,3.4704 0.5616,1.0944 1.5552,1.44 2.304,1.44 1.2528,0 1.9728,-0.7488 2.3904,-1.584 0.5184,-1.08 0.5472,-2.4912 0.5472,-3.3264 z M 3.5136,0.0144 c -0.4608,0 -1.3968,-0.2592 -1.6704,-1.8288 -0.1584,-0.864 -0.1584,-1.9584 -0.1584,-2.9664 0,-1.1808 0,-2.2464 0.2304,-3.096 0.2448,-0.9648 0.9792,-1.4112 1.5984,-1.4112 0.5472,0 1.3824,0.3312 1.656,1.5696 0.1872,0.8208 0.1872,1.9584 0.1872,2.9376 0,0.9648 0,2.0592 -0.1584,2.9376 -0.2736,1.584 -1.1808,1.8576 -1.6848,1.8576 z"
       inkscape:connector-curvature="0" /><path
       id="g0-41"
       d="m 4.0608,-3.5856 c 0,-1.0944 -0.144,-2.88 -0.9504,-4.5504 C 2.2608,-9.864 1.08,-10.8 0.9216,-10.8 c -0.0576,0 -0.1296,0.0288 -0.1296,0.1152 0,0.0432 0,0.072 0.2448,0.3168 1.44,1.4544 2.2464,3.8304 2.2464,6.768 0,2.7936 -0.6768,5.1984 -2.3472,6.8976 -0.144,0.1296 -0.144,0.1584 -0.144,0.2016 0,0.0864 0.072,0.1152 0.1296,0.1152 0.1872,0 1.368,-1.0368 2.0736,-2.448 0.7344,-1.4688 1.0656,-3.024 1.0656,-4.752 z"
       inkscape:connector-curvature="0" /><path
       id="g0-40"
       d="m 4.68,3.4992 c 0,-0.0432 0,-0.072 -0.2448,-0.3168 -1.44,-1.4544 -2.2464,-3.8304 -2.2464,-6.768 0,-2.7936 0.6768,-5.1984 2.3472,-6.8976 0.144,-0.1296 0.144,-0.1584 0.144,-0.2016 0,-0.0864 -0.072,-0.1152 -0.1296,-0.1152 -0.1872,0 -1.368,1.0368 -2.0736,2.448 -0.7344,1.4544 -1.0656,2.9952 -1.0656,4.7664 0,1.2816 0.2016,2.9952 0.9504,4.536 0.8496,1.728 2.0304,2.664 2.1888,2.664 0.0576,0 0.1296,-0.0288 0.1296,-0.1152 z"
       inkscape:connector-curvature="0" /><path
       id="g0-11"
       d="M 6.3072,-5.7888 H 7.9488 V -6.2064 H 6.2784 v -1.6848 c 0,-1.2384 0.6336,-1.9584 1.2672,-1.9584 0.216,0 0.4176,0.072 0.504,0.1152 -0.0576,0.0144 -0.4176,0.144 -0.4176,0.5616 0,0.3312 0.2304,0.5616 0.5616,0.5616 0.3456,0 0.576,-0.2304 0.576,-0.576 0,-0.5184 -0.504,-0.9504 -1.224,-0.9504 -0.576,0 -1.1232,0.2592 -1.4832,0.6048 -0.3744,-0.5328 -1.1808,-0.6048 -1.5696,-0.6048 -1.3824,0 -2.9952,0.7488 -2.9952,2.2752 v 1.656 H 0.3744 v 0.4176 h 1.1232 v 4.7232 c 0,0.648 -0.1584,0.648 -1.0944,0.648 V 0 c 0.4032,-0.0288 1.1088,-0.0288 1.5408,-0.0288 0.432,0 1.152,0 1.5552,0.0288 v -0.4176 c -0.9216,0 -1.0944,0 -1.0944,-0.648 V -5.7888 H 5.4 v 4.7232 c 0,0.648 -0.1584,0.648 -1.0944,0.648 V 0 c 0.4032,-0.0288 1.1952,-0.0288 1.6272,-0.0288 0.3888,0 1.4112,0 1.7424,0.0288 v -0.4176 h -0.288 c -1.0512,0 -1.08,-0.1584 -1.08,-0.6768 V -5.7888 z M 2.376,-6.2064 v -1.6272 c 0,-1.4688 1.224,-2.016 2.088,-2.016 0.1008,0 0.7344,0 1.152,0.3024 -0.3888,0.072 -0.504,0.3456 -0.504,0.5616 0,0.2448 0.1296,0.4464 0.3456,0.5328 C 5.4,-8.2368 5.4,-8.0496 5.4,-7.8912 v 1.6848 H 2.376 z"
       inkscape:connector-curvature="0" /><path
       id="g2-103"
       d="M3.1104 1.6848C3.1104 2.2608 2.736 3.1824 1.1664 3.2832C1.0944 3.2976 1.0368 3.3552 1.0368 3.4416C1.0368 3.6 1.1952 3.6 1.3248 3.6C2.7216 3.6 4.0608 2.8944 4.0752 1.8V-1.4832C4.0752 -2.0448 4.0752 -2.5056 4.6512 -2.9808C5.1552 -3.3984 5.7024 -3.4272 6.0192 -3.4416C6.0912 -3.456 6.1488 -3.5136 6.1488 -3.6C6.1488 -3.744 6.0624 -3.744 5.9184 -3.7584C4.968 -3.816 4.2768 -4.3344 4.1184 -5.04C4.0752 -5.1984 4.0752 -5.2272 4.0752 -5.7456V-8.5968C4.0752 -9.2016 4.0752 -9.6624 3.384 -10.2096C2.808 -10.656 1.8144 -10.8 1.3248 -10.8C1.1952 -10.8 1.0368 -10.8 1.0368 -10.6416C1.0368 -10.4976 1.1232 -10.4976 1.2672 -10.4832C2.1744 -10.4256 2.88 -9.9648 3.0672 -9.2304C3.1104 -9.1008 3.1104 -9.072 3.1104 -8.5536V-5.5296C3.1104 -4.8672 3.2256 -4.6224 3.6864 -4.1616C3.9888 -3.8592 4.4064 -3.7152 4.8096 -3.6C3.6288 -3.2688 3.1104 -2.6064 3.1104 -1.7712V1.6848Z" /><path
       id="g2-102"
       d="M4.0752 -8.8848C4.0752 -9.4608 4.4496 -10.3824 6.0192 -10.4832C6.0912 -10.4976 6.1488 -10.5552 6.1488 -10.6416C6.1488 -10.8 6.0336 -10.8 5.8752 -10.8C4.4352 -10.8 3.1248 -10.0656 3.1104 -9V-5.7168C3.1104 -5.1552 3.1104 -4.6944 2.5344 -4.2192C2.0304 -3.8016 1.4832 -3.7728 1.1664 -3.7584C1.0944 -3.744 1.0368 -3.6864 1.0368 -3.6C1.0368 -3.456 1.1232 -3.456 1.2672 -3.4416C2.2176 -3.384 2.9088 -2.8656 3.0672 -2.16C3.1104 -2.0016 3.1104 -1.9728 3.1104 -1.4544V1.3968C3.1104 2.0016 3.1104 2.4624 3.8016 3.0096C4.3632 3.4416 5.3136 3.6 5.8752 3.6C6.0336 3.6 6.1488 3.6 6.1488 3.4416C6.1488 3.2976 6.0624 3.2976 5.9184 3.2832C5.0112 3.2256 4.3056 2.7648 4.1184 2.0304C4.0752 1.9008 4.0752 1.872 4.0752 1.3536V-1.6704C4.0752 -2.3328 3.96 -2.5776 3.4992 -3.0384C3.1968 -3.3408 2.7792 -3.4848 2.376 -3.6C3.5568 -3.9312 4.0752 -4.5936 4.0752 -5.4288V-8.8848Z" /><path
       id="g1-30-4"
       d="M6.192 -9.864C6.192 -9.9936 6.0912 -9.9936 6.048 -9.9936C5.9184 -9.9936 5.904 -9.9648 5.8464 -9.72L5.0688 -6.624C5.0256 -6.4368 5.0112 -6.4224 4.9968 -6.408C4.9824 -6.3792 4.8816 -6.3648 4.8528 -6.3648C2.4912 -6.1632 0.6768 -4.2192 0.6768 -2.4192C0.6768 -0.864 1.872 0.0864 3.3696 0.1728C3.2544 0.6192 3.1536 1.08 3.0384 1.5264C2.8368 2.2896 2.7216 2.7648 2.7216 2.8224C2.7216 2.8512 2.7216 2.9376 2.8656 2.9376C2.9088 2.9376 2.9664 2.9376 2.9952 2.88C3.024 2.8512 3.1104 2.5056 3.168 2.3184L3.7008 0.1728C6.1632 0.0432 8.0352 -1.9728 8.0352 -3.7872C8.0352 -5.2416 6.9408 -6.2784 5.3424 -6.3792L6.192 -9.864ZM5.256 -6.0912C6.2064 -6.0336 7.1568 -5.5008 7.1568 -4.0896C7.1568 -2.4624 6.0192 -0.3024 3.7728 -0.1296L5.256 -6.0912ZM3.4416 -0.1152C2.736 -0.1584 1.5552 -0.5328 1.5552 -2.1168C1.5552 -3.9312 2.8656 -5.9472 4.9392 -6.0768L3.4416 -0.1152Z" /><path
       id="g0-121-9"
       d="M5.832 -4.8096C6.2208 -5.7744 6.8976 -5.7888 7.1712 -5.7888V-6.2064C6.7536 -6.1776 6.552 -6.1776 6.0912 -6.1776C5.76 -6.1776 5.7312 -6.1776 4.9248 -6.2064V-5.7888C5.4576 -5.76 5.5872 -5.4288 5.5872 -5.1696C5.5872 -5.04 5.5584 -4.968 5.5008 -4.824L4.032 -1.1952L2.4336 -5.112C2.3472 -5.3136 2.3472 -5.4 2.3472 -5.4144C2.3472 -5.7888 2.8512 -5.7888 3.1392 -5.7888V-6.2064C2.7648 -6.1776 2.0592 -6.1776 1.656 -6.1776C1.1088 -6.1776 1.08 -6.1776 0.2592 -6.2064V-5.7888C1.0944 -5.7888 1.2096 -5.7168 1.3968 -5.2704L3.5424 0C2.9088 1.5264 2.9088 1.5552 2.8512 1.6704C2.6064 2.1024 2.2176 2.6496 1.5696 2.6496C1.1232 2.6496 0.8496 2.3904 0.8496 2.3904S1.3536 2.3328 1.3536 1.8288C1.3536 1.4832 1.08 1.296 0.8208 1.296C0.576 1.296 0.2736 1.44 0.2736 1.8576C0.2736 2.4048 0.8064 2.9376 1.5696 2.9376C2.376 2.9376 2.9664 2.232 3.3408 1.3248L5.832 -4.8096Z" /><path
       id="g0-117-7"
       d="M4.3776 -6.192V-5.7744C5.3568 -5.7744 5.472 -5.6736 5.472 -4.968V-2.3904C5.472 -1.1664 4.824 -0.144 3.744 -0.144C2.5632 -0.144 2.4912 -0.8208 2.4912 -1.584V-6.3504L0.4608 -6.192V-5.7744C1.5552 -5.7744 1.5552 -5.7312 1.5552 -4.4496V-2.2896C1.5552 -1.3968 1.5552 -0.8784 1.9872 -0.4032C2.3328 -0.0288 2.9232 0.144 3.6576 0.144C3.9024 0.144 4.3632 0.144 4.8528 -0.2736C5.2704 -0.6048 5.5008 -1.152 5.5008 -1.152V0.144L7.5024 0V-0.4176C6.5232 -0.4176 6.408 -0.5184 6.408 -1.224V-6.3504L4.3776 -6.192Z" /><path
       id="g0-116-7"
       d="M2.4192 -5.7888H4.4496V-6.2064H2.4192V-8.856H2.1024C2.088 -7.5024 1.5696 -6.12 0.2592 -6.0768V-5.7888H1.4832V-1.7856C1.4832 -0.1872 2.5488 0.144 3.312 0.144C4.2192 0.144 4.6944 -0.7488 4.6944 -1.7856V-2.6064H4.3776V-1.8144C4.3776 -0.7776 3.96 -0.1728 3.3984 -0.1728C2.4192 -0.1728 2.4192 -1.512 2.4192 -1.7568V-5.7888Z" /><path
       id="g0-115-0"
       d="M4.7232 -6.0912C4.7232 -6.3504 4.7232 -6.4224 4.5792 -6.4224C4.464 -6.4224 4.1904 -6.1056 4.0896 -5.976C3.6432 -6.336 3.1968 -6.4224 2.736 -6.4224C0.9936 -6.4224 0.4752 -5.472 0.4752 -4.68C0.4752 -4.5216 0.4752 -4.0176 1.0224 -3.5136C1.4832 -3.1104 1.9728 -3.0096 2.6352 -2.88C3.4272 -2.7216 3.6144 -2.6784 3.9744 -2.3904C4.2336 -2.1744 4.4208 -1.8576 4.4208 -1.4544C4.4208 -0.8352 4.0608 -0.144 2.7936 -0.144C1.8432 -0.144 1.152 -0.6912 0.8352 -2.1312C0.7776 -2.3904 0.7776 -2.4048 0.7632 -2.4192C0.7344 -2.4768 0.6768 -2.4768 0.6336 -2.4768C0.4752 -2.4768 0.4752 -2.4048 0.4752 -2.1456V-0.1872C0.4752 0.072 0.4752 0.144 0.6192 0.144C0.6912 0.144 0.7056 0.1296 0.9504 -0.1728C1.0224 -0.2736 1.0224 -0.3024 1.2384 -0.5328C1.7856 0.144 2.5632 0.144 2.808 0.144C4.32 0.144 5.0688 -0.6912 5.0688 -1.8288C5.0688 -2.6064 4.5936 -3.0672 4.464 -3.1968C3.9456 -3.6432 3.5568 -3.7296 2.6064 -3.9024C2.1744 -3.9888 1.1232 -4.1904 1.1232 -5.0544C1.1232 -5.5008 1.4256 -6.1632 2.7216 -6.1632C4.2912 -6.1632 4.3776 -4.824 4.4064 -4.3776C4.4208 -4.2624 4.5216 -4.2624 4.5648 -4.2624C4.7232 -4.2624 4.7232 -4.3344 4.7232 -4.5936V-6.0912Z" /><path
       id="g0-114-3"
       d="M2.4048 -3.3552C2.4048 -4.752 2.9808 -6.0624 4.0896 -6.0624C4.2048 -6.0624 4.2336 -6.0624 4.2912 -6.048C4.176 -5.9904 3.9456 -5.904 3.9456 -5.5152C3.9456 -5.0976 4.2768 -4.9392 4.5072 -4.9392C4.7952 -4.9392 5.0832 -5.1264 5.0832 -5.5152C5.0832 -5.9472 4.6944 -6.3504 4.0752 -6.3504C2.8512 -6.3504 2.4336 -5.0256 2.3472 -4.752H2.3328V-6.3504L0.4032 -6.192V-5.7744C1.3824 -5.7744 1.4976 -5.6736 1.4976 -4.968V-1.0656C1.4976 -0.4176 1.3392 -0.4176 0.4032 -0.4176V0C0.8064 -0.0288 1.5984 -0.0288 2.0304 -0.0288C2.4192 -0.0288 3.4416 -0.0288 3.7728 0V-0.4176H3.4848C2.4336 -0.4176 2.4048 -0.576 2.4048 -1.0944V-3.3552Z" /><path
       id="g0-112-6"
       d="M3.528 2.376C2.6064 2.376 2.4336 2.376 2.4336 1.728V-0.7776C2.6928 -0.4176 3.2832 0.144 4.2048 0.144C5.8608 0.144 7.3152 -1.2528 7.3152 -3.1104C7.3152 -4.9392 5.9616 -6.3504 4.392 -6.3504C3.1248 -6.3504 2.448 -5.4432 2.4048 -5.3856V-6.3504L0.4032 -6.192V-5.7744C1.4112 -5.7744 1.4976 -5.6736 1.4976 -5.04V1.728C1.4976 2.376 1.3392 2.376 0.4032 2.376V2.7936C0.7776 2.7648 1.5552 2.7648 1.9584 2.7648C2.376 2.7648 3.1536 2.7648 3.528 2.7936V2.376ZM2.4336 -4.5936C2.4336 -4.8672 2.4336 -4.8816 2.592 -5.112C3.024 -5.76 3.7296 -6.0336 4.2768 -6.0336C5.3568 -6.0336 6.2208 -4.7232 6.2208 -3.1104C6.2208 -1.3968 5.2416 -0.144 4.1328 -0.144C3.6864 -0.144 3.2688 -0.3312 2.9808 -0.6048C2.6496 -0.936 2.4336 -1.224 2.4336 -1.6272V-4.5936Z" /><path
       id="g0-111-3"
       d="M6.6096 -3.0816C6.6096 -4.9392 5.1984 -6.4224 3.528 -6.4224C1.8 -6.4224 0.432 -4.896 0.432 -3.0816C0.432 -1.2384 1.872 0.144 3.5136 0.144C5.2128 0.144 6.6096 -1.2672 6.6096 -3.0816ZM3.528 -0.1728C2.9952 -0.1728 2.3472 -0.4032 1.9296 -1.1088C1.5408 -1.7568 1.5264 -2.6064 1.5264 -3.2112C1.5264 -3.7584 1.5264 -4.6368 1.9728 -5.2848C2.376 -5.904 3.0096 -6.1344 3.5136 -6.1344C4.0752 -6.1344 4.68 -5.8752 5.0688 -5.3136C5.5152 -4.6512 5.5152 -3.744 5.5152 -3.2112C5.5152 -2.7072 5.5152 -1.8144 5.1408 -1.1376C4.7376 -0.4464 4.0752 -0.1728 3.528 -0.1728Z" /><path
       id="g0-110-0"
       d="M6.408 -3.4992C6.408 -4.8384 6.408 -5.2416 6.0768 -5.7024C5.6592 -6.264 4.9824 -6.3504 4.4928 -6.3504C3.096 -6.3504 2.5488 -5.1552 2.4336 -4.8672H2.4192V-6.3504L0.4608 -6.192V-5.7744C1.44 -5.7744 1.5552 -5.6736 1.5552 -4.968V-1.0656C1.5552 -0.4176 1.3968 -0.4176 0.4608 -0.4176V0C0.8352 -0.0288 1.6128 -0.0288 2.016 -0.0288C2.4336 -0.0288 3.2112 -0.0288 3.5856 0V-0.4176C2.664 -0.4176 2.4912 -0.4176 2.4912 -1.0656V-3.744C2.4912 -5.256 3.4848 -6.0624 4.3776 -6.0624S5.472 -5.328 5.472 -4.4496V-1.0656C5.472 -0.4176 5.3136 -0.4176 4.3776 -0.4176V0C4.752 -0.0288 5.5296 -0.0288 5.9328 -0.0288C6.3504 -0.0288 7.128 -0.0288 7.5024 0V-0.4176C6.7824 -0.4176 6.4224 -0.4176 6.408 -0.8496V-3.4992Z" /><path
       id="g0-108-0"
       d="M2.4768 -9.9936L0.4752 -9.8352V-9.4176C1.4544 -9.4176 1.5696 -9.3168 1.5696 -8.6112V-1.0656C1.5696 -0.4176 1.4112 -0.4176 0.4752 -0.4176V0C0.8784 -0.0288 1.584 -0.0288 2.016 -0.0288S3.168 -0.0288 3.5712 0V-0.4176C2.6496 -0.4176 2.4768 -0.4176 2.4768 -1.0656V-9.9936Z" /><path
       id="g0-105-9"
       d="M2.5056 -8.8704C2.5056 -9.2448 2.2032 -9.576 1.8 -9.576C1.4256 -9.576 1.1088 -9.2736 1.1088 -8.8848C1.1088 -8.4528 1.4544 -8.1792 1.8 -8.1792C2.2464 -8.1792 2.5056 -8.5536 2.5056 -8.8704ZM0.5184 -6.192V-5.7744C1.44 -5.7744 1.5696 -5.688 1.5696 -4.9824V-1.0656C1.5696 -0.4176 1.4112 -0.4176 0.4752 -0.4176V0C0.8784 -0.0288 1.5696 -0.0288 1.9872 -0.0288C2.1456 -0.0288 2.9808 -0.0288 3.4704 0V-0.4176C2.5344 -0.4176 2.4768 -0.4896 2.4768 -1.0512V-6.3504L0.5184 -6.192Z" /><path
       id="g0-103-1"
       d="M1.7136 -2.6064C2.3904 -2.16 2.9664 -2.16 3.1248 -2.16C4.4208 -2.16 5.3856 -3.1392 5.3856 -4.248C5.3856 -4.6368 5.2704 -5.184 4.8096 -5.6448C5.3712 -6.2208 6.048 -6.2208 6.12 -6.2208C6.1776 -6.2208 6.2496 -6.2208 6.3072 -6.192C6.1632 -6.1344 6.0912 -5.9904 6.0912 -5.832C6.0912 -5.6304 6.2352 -5.4576 6.4656 -5.4576C6.5808 -5.4576 6.84 -5.5296 6.84 -5.8464C6.84 -6.1056 6.6384 -6.5088 6.1344 -6.5088C5.3856 -6.5088 4.824 -6.048 4.6224 -5.832C4.1904 -6.1632 3.6864 -6.3504 3.1392 -6.3504C1.8432 -6.3504 0.8784 -5.3712 0.8784 -4.2624C0.8784 -3.4416 1.3824 -2.9088 1.5264 -2.7792C1.3536 -2.5632 1.0944 -2.1456 1.0944 -1.584C1.0944 -0.7488 1.5984 -0.3888 1.7136 -0.3168C1.0512 -0.1296 0.3888 0.3888 0.3888 1.1376C0.3888 2.1312 1.7424 2.952 3.5136 2.952C5.2272 2.952 6.6528 2.1888 6.6528 1.1088C6.6528 0.7488 6.552 -0.1008 5.688 -0.5472C4.9536 -0.9216 4.2336 -0.9216 2.9952 -0.9216C2.1168 -0.9216 2.016 -0.9216 1.7568 -1.1952C1.6128 -1.3392 1.4832 -1.6128 1.4832 -1.9152C1.4832 -2.16 1.5696 -2.4048 1.7136 -2.6064ZM3.1392 -2.4624C1.872 -2.4624 1.872 -3.9168 1.872 -4.248C1.872 -4.5072 1.872 -5.0976 2.1168 -5.4864C2.3904 -5.904 2.8224 -6.048 3.1248 -6.048C4.392 -6.048 4.392 -4.5936 4.392 -4.2624C4.392 -4.0032 4.392 -3.4128 4.1472 -3.024C3.8736 -2.6064 3.4416 -2.4624 3.1392 -2.4624ZM3.528 2.6496C2.1456 2.6496 1.0944 1.944 1.0944 1.1232C1.0944 1.008 1.1232 0.4464 1.6704 0.072C1.9872 -0.1296 2.1168 -0.1296 3.1248 -0.1296C4.32 -0.1296 5.9472 -0.1296 5.9472 1.1232C5.9472 1.9728 4.8528 2.6496 3.528 2.6496Z" /><path
       id="g0-101-6"
       d="M5.5152 -3.3408C5.832 -3.3408 5.8608 -3.3408 5.8608 -3.6144C5.8608 -5.0688 5.0832 -6.4224 3.3408 -6.4224C1.6992 -6.4224 0.432 -4.9392 0.432 -3.1536C0.432 -1.2528 1.9008 0.144 3.4992 0.144C5.2128 0.144 5.8608 -1.4112 5.8608 -1.7136C5.8608 -1.8 5.7888 -1.8576 5.7024 -1.8576C5.5872 -1.8576 5.5584 -1.7856 5.5296 -1.7136C5.1552 -0.504 4.1904 -0.1728 3.5856 -0.1728S1.5264 -0.576 1.5264 -3.0672V-3.3408H5.5152ZM1.5408 -3.6144C1.656 -5.8752 2.9232 -6.1344 3.3264 -6.1344C4.8672 -6.1344 4.9536 -4.104 4.968 -3.6144H1.5408Z" /><path
       id="g0-98-1"
       d="M2.4048 -9.9936L0.4032 -9.8352V-9.4176C1.3824 -9.4176 1.4976 -9.3168 1.4976 -8.6112V0H1.8144C1.872 -0.1152 2.2752 -0.8352 2.3328 -0.936C2.664 -0.4032 3.2832 0.144 4.2048 0.144C5.8608 0.144 7.3152 -1.2528 7.3152 -3.1104C7.3152 -4.9392 5.9616 -6.3504 4.3632 -6.3504C3.5712 -6.3504 2.8944 -5.9904 2.4048 -5.3856V-9.9936ZM2.4336 -4.608C2.4336 -4.8672 2.4336 -4.896 2.592 -5.1264C2.9376 -5.6448 3.5712 -6.0624 4.2768 -6.0624C4.7088 -6.0624 6.2208 -5.8896 6.2208 -3.1248C6.2208 -2.16 6.0768 -1.5552 5.7312 -1.0368C5.4432 -0.5904 4.8672 -0.144 4.1472 -0.144C3.3696 -0.144 2.8656 -0.648 2.6208 -1.0368C2.4336 -1.3392 2.4336 -1.3968 2.4336 -1.6416V-4.608Z" /><path
       id="g0-97-9"
       d="M5.5584 -3.8448C5.5584 -4.6224 5.5584 -5.1984 4.9248 -5.76C4.4208 -6.2208 3.7728 -6.4224 3.1392 -6.4224C1.9584 -6.4224 1.0512 -5.6448 1.0512 -4.7088C1.0512 -4.2912 1.3248 -4.0896 1.656 -4.0896C2.0016 -4.0896 2.2464 -4.3344 2.2464 -4.68C2.2464 -5.2704 1.728 -5.2704 1.512 -5.2704C1.8432 -5.8752 2.5344 -6.1344 3.1104 -6.1344C3.7728 -6.1344 4.6224 -5.5872 4.6224 -4.2912V-3.7152C1.728 -3.672 0.6336 -2.4624 0.6336 -1.3536C0.6336 -0.216 1.9584 0.144 2.8368 0.144C3.7872 0.144 4.4352 -0.432 4.7088 -1.1232C4.7664 -0.4464 5.2128 0.072 5.832 0.072C6.1344 0.072 6.9696 -0.1296 6.9696 -1.2816V-2.088H6.6528V-1.2816C6.6528 -0.4608 6.3072 -0.3456 6.1056 -0.3456C5.5584 -0.3456 5.5584 -1.1088 5.5584 -1.3248V-3.8448ZM4.6224 -2.0304C4.6224 -0.6192 3.5712 -0.144 2.952 -0.144C2.2464 -0.144 1.656 -0.6624 1.656 -1.3536C1.656 -3.2544 4.104 -3.4272 4.6224 -3.456V-2.0304Z" /><path
       id="g0-83-3"
       d="M2.9952 -6.0048C2.2608 -6.192 1.6128 -6.912 1.6128 -7.8336C1.6128 -8.8416 2.4192 -9.7488 3.5424 -9.7488C5.904 -9.7488 6.2208 -7.416 6.3072 -6.7968C6.336 -6.624 6.336 -6.5664 6.48 -6.5664C6.6384 -6.5664 6.6384 -6.6384 6.6384 -6.8976V-9.8064C6.6384 -10.0656 6.6384 -10.1376 6.4944 -10.1376C6.4512 -10.1376 6.3936 -10.1376 6.2928 -9.9504L5.8176 -9.072C5.1264 -9.9648 4.176 -10.1376 3.5424 -10.1376C1.944 -10.1376 0.7776 -8.856 0.7776 -7.3872C0.7776 -6.696 1.0224 -6.0624 1.5552 -5.4864C2.0592 -4.9248 2.5632 -4.7952 3.5856 -4.536C4.0896 -4.4208 4.8816 -4.2192 5.0832 -4.1328C5.76 -3.8016 6.2064 -3.024 6.2064 -2.2176C6.2064 -1.1376 5.4432 -0.1152 4.248 -0.1152C3.6 -0.1152 2.7072 -0.2736 2.0016 -0.8928C1.1664 -1.6416 1.1088 -2.6784 1.0944 -3.1536C1.08 -3.2688 0.9648 -3.2688 0.936 -3.2688C0.7776 -3.2688 0.7776 -3.1968 0.7776 -2.9376V-0.0288C0.7776 0.2304 0.7776 0.3024 0.9216 0.3024C1.008 0.3024 1.0224 0.2736 1.1232 0.1008C1.1808 -0.0144 1.4832 -0.5472 1.5984 -0.7632C2.1168 -0.1872 3.024 0.3024 4.2624 0.3024C5.8752 0.3024 7.0416 -1.0656 7.0416 -2.6496C7.0416 -3.528 6.7104 -4.176 6.3216 -4.6512C5.7888 -5.2992 5.1408 -5.4576 4.5792 -5.6016L2.9952 -6.0048Z" /><path
       id="g0-68"
       d="M0.6048 -9.8352V-9.4176H0.8928C1.9296 -9.4176 1.9728 -9.2736 1.9728 -8.7408V-1.0944C1.9728 -0.5616 1.9296 -0.4176 0.8928 -0.4176H0.6048V0H5.6448C8.0496 0 9.9792 -2.16 9.9792 -4.824C9.9792 -7.6032 8.0352 -9.8352 5.6448 -9.8352H0.6048ZM3.7728 -0.4176C3.1392 -0.4176 3.1104 -0.5184 3.1104 -0.9936V-8.8416C3.1104 -9.3168 3.1392 -9.4176 3.7728 -9.4176H5.2848C6.48 -9.4176 7.4304 -8.8416 8.0208 -7.8912C8.6688 -6.8688 8.6688 -5.4144 8.6688 -4.8384C8.6688 -4.032 8.6544 -2.6784 7.8336 -1.6128C7.3584 -1.008 6.4944 -0.4176 5.2848 -0.4176H3.7728Z" /><path
       id="g0-61"
       d="M9.72 -4.6656C9.9216 -4.6656 10.1808 -4.6656 10.1808 -4.9248C10.1808 -5.1984 9.936 -5.1984 9.72 -5.1984H1.2384C1.0368 -5.1984 0.7776 -5.1984 0.7776 -4.9392C0.7776 -4.6656 1.0224 -4.6656 1.2384 -4.6656H9.72ZM9.72 -1.9872C9.9216 -1.9872 10.1808 -1.9872 10.1808 -2.2464C10.1808 -2.52 9.936 -2.52 9.72 -2.52H1.2384C1.0368 -2.52 0.7776 -2.52 0.7776 -2.2608C0.7776 -1.9872 1.0224 -1.9872 1.2384 -1.9872H9.72Z" /><path
       id="g0-49-8"
       d="M4.1472 -9.2304C4.1472 -9.5616 4.1472 -9.576 3.8592 -9.576C3.5136 -9.1872 2.7936 -8.6544 1.3104 -8.6544V-8.2368C1.6416 -8.2368 2.3616 -8.2368 3.1536 -8.6112V-1.1088C3.1536 -0.5904 3.1104 -0.4176 1.8432 -0.4176H1.3968V0C1.7856 -0.0288 3.1824 -0.0288 3.6576 -0.0288S5.5152 -0.0288 5.904 0V-0.4176H5.4576C4.1904 -0.4176 4.1472 -0.5904 4.1472 -1.1088V-9.2304Z" /><path
       id="g0-41-5"
       d="M4.0608 -3.5856C4.0608 -4.68 3.9168 -6.4656 3.1104 -8.136C2.2608 -9.864 1.08 -10.8 0.9216 -10.8C0.864 -10.8 0.792 -10.7712 0.792 -10.6848C0.792 -10.6416 0.792 -10.6128 1.0368 -10.368C2.4768 -8.9136 3.2832 -6.5376 3.2832 -3.6C3.2832 -0.8064 2.6064 1.5984 0.936 3.2976C0.792 3.4272 0.792 3.456 0.792 3.4992C0.792 3.5856 0.864 3.6144 0.9216 3.6144C1.1088 3.6144 2.2896 2.5776 2.9952 1.1664C3.7296 -0.3024 4.0608 -1.8576 4.0608 -3.5856Z" /><path
       id="g0-40-1"
       d="M4.68 3.4992C4.68 3.456 4.68 3.4272 4.4352 3.1824C2.9952 1.728 2.1888 -0.648 2.1888 -3.5856C2.1888 -6.3792 2.8656 -8.784 4.536 -10.4832C4.68 -10.6128 4.68 -10.6416 4.68 -10.6848C4.68 -10.7712 4.608 -10.8 4.5504 -10.8C4.3632 -10.8 3.1824 -9.7632 2.4768 -8.352C1.7424 -6.8976 1.4112 -5.3568 1.4112 -3.5856C1.4112 -2.304 1.6128 -0.5904 2.3616 0.9504C3.2112 2.6784 4.392 3.6144 4.5504 3.6144C4.608 3.6144 4.68 3.5856 4.68 3.4992Z" /><path
       id="g0-11-0"
       d="M6.3072 -5.7888H7.9488V-6.2064H6.2784V-7.8912C6.2784 -9.1296 6.912 -9.8496 7.5456 -9.8496C7.7616 -9.8496 7.9632 -9.7776 8.0496 -9.7344C7.992 -9.72 7.632 -9.5904 7.632 -9.1728C7.632 -8.8416 7.8624 -8.6112 8.1936 -8.6112C8.5392 -8.6112 8.7696 -8.8416 8.7696 -9.1872C8.7696 -9.7056 8.2656 -10.1376 7.5456 -10.1376C6.9696 -10.1376 6.4224 -9.8784 6.0624 -9.5328C5.688 -10.0656 4.8816 -10.1376 4.4928 -10.1376C3.1104 -10.1376 1.4976 -9.3888 1.4976 -7.8624V-6.2064H0.3744V-5.7888H1.4976V-1.0656C1.4976 -0.4176 1.3392 -0.4176 0.4032 -0.4176V0C0.8064 -0.0288 1.512 -0.0288 1.944 -0.0288S3.096 -0.0288 3.4992 0V-0.4176C2.5776 -0.4176 2.4048 -0.4176 2.4048 -1.0656V-5.7888H5.4V-1.0656C5.4 -0.4176 5.2416 -0.4176 4.3056 -0.4176V0C4.7088 -0.0288 5.5008 -0.0288 5.9328 -0.0288C6.3216 -0.0288 7.344 -0.0288 7.6752 0V-0.4176H7.3872C6.336 -0.4176 6.3072 -0.576 6.3072 -1.0944V-5.7888ZM2.376 -6.2064V-7.8336C2.376 -9.3024 3.6 -9.8496 4.464 -9.8496C4.5648 -9.8496 5.1984 -9.8496 5.616 -9.5472C5.2272 -9.4752 5.112 -9.2016 5.112 -8.9856C5.112 -8.7408 5.2416 -8.5392 5.4576 -8.4528C5.4 -8.2368 5.4 -8.0496 5.4 -7.8912V-6.2064H2.376Z" /></defs><sodipodi:namedview
     pagecolor="#ffffff"
     bordercolor="#666666"
     borderopacity="1"
     objecttolerance="10"
     gridtolerance="10"
     guidetolerance="10"
     inkscape:pageopacity="0"
     inkscape:pageshadow="2"
     inkscape:window-width="1920"
     inkscape:window-height="1143"
     id="namedview4"
     showgrid="false"
     inkscape:zoom="1.1488477"
     inkscape:cx="256.56826"
     inkscape:cy="225.28294"
     inkscape:window-x="0"
     inkscape:window-y="31"
     inkscape:window-maximized="1"
     inkscape:current-layer="g10" /><g
     id="g10"
     inkscape:groupmode="layer"
     inkscape:label="scheme1"
     transform="matrix(1.25,0,0,-1.25,0,293.75)"><g
       id="g16"><g
         id="g18"
         clip-path="url(#clipPath20)"><g
           id="g24"><g
             id="g26"><g
               id="g28"
               clip-path="url(#clipPath30)"><g
                 id="g34" /><g
                 id="g36"><g
                   id="g38"
                   clip-path="url(#clipPath40)"><g
                     id="g44"><g
                       id="g46"><g
                         id="g48"
                         clip-path="url(#clipPath50)"><g
                           id="g54" /><g
                           id="g56"><g
                             id="g58"
                             clip-path="url(#clipPath60)"><g
                               id="g64"><g
                                 id="g66"><g
                                   id="g68"
                                   clip-path="url(#clipPath70)"><g
                                   id="g74" /><g
                                   id="g76"><g
                                   id="g78"
                                   clip-path="url(#clipPath80)"><g
                                   id="g84"><g
                                   id="g86"><g
                                   id="g88"
                                   clip-path="url(#clipPath90)"><g
                                   id="g94"><path
                                   d="m 4.238,70.289 322.055,0"
                                   style="fill:none;stroke:#000000;stroke-width:1.60000002;stroke-linecap:square;stroke-linejoin:miter;stroke-miterlimit:3.25;stroke-opacity:1;stroke-dasharray:4, 4;stroke-dashoffset:0"
                                   id="path96"
                                   inkscape:connector-curvature="0" /></g></g></g></g></g></g></g></g></g></g></g></g></g></g></g></g></g></g></g></g></g><g
       id="g98"><g
         id="g100"
         clip-path="url(#clipPath102)"><g
           id="g106"><g
             id="g108"><g
               id="g110"
               clip-path="url(#clipPath112)"><g
                 id="g116" /><g
                 id="g118"><g
                   id="g120"
                   clip-path="url(#clipPath122)"><g
                     id="g126"><g
                       id="g128"><g
                         id="g130"
                         clip-path="url(#clipPath132)"><g
                           id="g136" /><g
                           id="g138"><g
                             id="g140"
                             clip-path="url(#clipPath142)"><g
                               id="g146"><g
                                 id="g148"><g
                                   id="g150"
                                   clip-path="url(#clipPath152)"><g
                                   id="g156" /><g
                                   id="g158"><g
                                   id="g160"
                                   clip-path="url(#clipPath162)"><g
                                   id="g166"><g
                                   id="g168"><g
                                   id="g170"
                                   clip-path="url(#clipPath172)"><g
                                   id="g176"><path
                                   d="m 4.238,70.289 0.196,0.07 0.199,0.067 0.394,0.133 0.789,0.269 1.582,0.535 3.161,1.075 6.855,2.332 6.398,2.175 6.274,2.133 6.805,2.313 6.351,2.156 6.883,2.34 6.758,2.297 6.301,2.144 6.836,2.324 6.382,2.168 6.254,2.125 6.785,2.309 6.336,2.152 6.864,2.332 6.738,2.293 6.285,2.137 6.816,2.316 6.364,2.161 6.894,2.343 6.77,2.301 6.312,2.149 6.848,2.328 6.391,2.172 6.265,2.128 6.801,2.313 6.344,2.156 6.875,2.336 6.75,2.297 6.297,2.137 6.828,2.324 6.375,2.164 6.246,2.125 6.781,2.305 6.324,2.148 6.86,2.332 6.402,2.176 6.277,2.137 6.813,2.312 6.355,2.16 6.887,2.344 6.762,2.297 6.308,2.144 6.836,2.325 6.387,2.172 6.258,2.125 6.793,2.308 6.336,2.156 0.113,0.036 0.109,0.039 0.223,0.074 0.441,0.152 0.883,0.301 1.77,0.601 0.109,0.036 0.11,0.039 0.222,0.074 0.442,0.152 0.886,0.301 0.11,0.035 0.109,0.039 0.223,0.074 0.441,0.149 0.11,0.039 0.113,0.039 0.219,0.074 0.109,0.039 0.113,0.036 0.11,0.039 0.109,0.035"
                                   style="fill:none;stroke:#000000;stroke-width:1.60000002;stroke-linecap:square;stroke-linejoin:miter;stroke-miterlimit:3.25;stroke-opacity:1;stroke-dasharray:none"
                                   id="path178"
                                   inkscape:connector-curvature="0" /></g></g></g></g></g></g></g></g></g></g></g></g></g></g></g></g></g></g></g></g></g><g
       id="g180"><g
         id="g182"
         clip-path="url(#clipPath184)"><g
           id="g188"><g
             id="g190"><g
               id="g192"
               clip-path="url(#clipPath194)"><g
                 id="g198" /><g
                 id="g200"><g
                   id="g202"
                   clip-path="url(#clipPath204)"><g
                     id="g208"><g
                       id="g210"><g
                         id="g212"
                         clip-path="url(#clipPath214)"><g
                           id="g218" /><g
                           id="g220"><g
                             id="g222"
                             clip-path="url(#clipPath224)"><g
                               id="g228"><g
                                 id="g230"><g
                                   id="g232"
                                   clip-path="url(#clipPath234)"><g
                                   id="g238" /><g
                                   id="g240"><g
                                   id="g242"
                                   clip-path="url(#clipPath244)"><g
                                   id="g248"><g
                                   id="g250"><g
                                   id="g252"
                                   clip-path="url(#clipPath254)"><g
                                   id="g258"><path
                                   d="m 4.238,179.762 322.055,0"
                                   style="fill:none;stroke:#000000;stroke-width:1.60000002;stroke-linecap:square;stroke-linejoin:miter;stroke-miterlimit:3.25;stroke-opacity:1;stroke-dasharray:4, 4;stroke-dashoffset:0"
                                   id="path260"
                                   inkscape:connector-curvature="0" /></g></g></g></g></g></g></g></g></g></g></g></g></g></g></g></g></g></g></g></g></g><g
       id="g262"><g
         id="g264"
         clip-path="url(#clipPath266)"><g
           id="g270"><g
             id="g272"><g
               id="g274"
               clip-path="url(#clipPath276)"><g
                 id="g280" /><g
                 id="g282"><g
                   id="g284"
                   clip-path="url(#clipPath286)"><g
                     id="g290"><g
                       id="g292"><g
                         id="g294"
                         clip-path="url(#clipPath296)"><g
                           id="g300" /><g
                           id="g302"><g
                             id="g304"
                             clip-path="url(#clipPath306)"><g
                               id="g310"><g
                                 id="g312"><g
                                   id="g314"
                                   clip-path="url(#clipPath316)"><g
                                   id="g320" /><g
                                   id="g322"><g
                                   id="g324"
                                   clip-path="url(#clipPath326)"><g
                                   id="g330"><g
                                   id="g332"><g
                                   id="g334"
                                   clip-path="url(#clipPath336)"><g
                                   id="g340"><path
                                   d="m 4.238,125.027 322.055,0"
                                   style="fill:none;stroke:#0000fd;stroke-width:1.60000002;stroke-linecap:square;stroke-linejoin:miter;stroke-miterlimit:3.25;stroke-opacity:1;stroke-dasharray:none"
                                   id="path342"
                                   inkscape:connector-curvature="0" /></g></g></g></g></g></g></g></g></g></g></g></g></g></g></g></g></g></g></g></g></g><path
       inkscape:connector-curvature="0"
       id="path346"
       style="fill:none;stroke:#636363;stroke-width:1;stroke-linecap:butt;stroke-linejoin:miter;stroke-miterlimit:3.25;stroke-opacity:1;stroke-dasharray:none"
       d="m 4.238,15.555 0,4" /><path
       inkscape:connector-curvature="0"
       id="path348"
       style="fill:none;stroke:#000000;stroke-width:1;stroke-linecap:butt;stroke-linejoin:miter;stroke-miterlimit:3.25;stroke-opacity:1;stroke-dasharray:none"
       d="m 326.293,15.555 0,4" /><path
       inkscape:connector-curvature="0"
       id="path350"
       style="fill:none;stroke:#000000;stroke-width:1;stroke-linecap:butt;stroke-linejoin:miter;stroke-miterlimit:3.25;stroke-opacity:1;stroke-dasharray:none"
       d="m 4.238,15.555 338.184,0" /><path
       inkscape:connector-curvature="0"
       id="path352"
       style="fill:#000000;fill-opacity:1;fill-rule:nonzero;stroke:#000000;stroke-width:0.03;stroke-linecap:square;stroke-linejoin:miter;stroke-miterlimit:3.25;stroke-opacity:1;stroke-dasharray:none"
       d="m 340.785,20.215 0.262,-0.531 0.566,-1.27 0.305,-0.766 0.262,-0.773 0.179,-0.715 0.063,-0.605 -0.063,-0.547 -0.179,-0.711 -0.262,-0.797 -0.305,-0.812 -0.566,-1.391 -0.262,-0.59 17.715,4.848 -17.715,4.66 z" /><path
       inkscape:connector-curvature="0"
       id="path354"
       style="fill:none;stroke:#000000;stroke-width:1;stroke-linecap:butt;stroke-linejoin:miter;stroke-miterlimit:3.25;stroke-opacity:1;stroke-dasharray:none"
       d="m 4.238,15.555 0,202.867" /><path
       inkscape:connector-curvature="0"
       id="path356"
       style="fill:#000000;fill-opacity:1;fill-rule:nonzero;stroke:#000000;stroke-width:0.03;stroke-linecap:square;stroke-linejoin:miter;stroke-miterlimit:3.25;stroke-opacity:1;stroke-dasharray:none"
       d="m -0.422,216.785 0.527,0.262 1.274,0.566 0.766,0.305 0.769,0.262 0.719,0.179 0.605,0.063 0.547,-0.063 0.707,-0.179 0.797,-0.262 0.816,-0.305 1.391,-0.566 0.59,-0.262 -4.848,17.715 -4.66,-17.715 z" /><path
       inkscape:connector-curvature="0"
       id="path358"
       style="fill:#000000;fill-opacity:1;fill-rule:nonzero;stroke:none"
       d="M 86.383,82.809 84.77,82.652 c -0.786,-0.074 -1.458,0.395 -1.692,1.071 -0.281,0.816 0.102,1.746 1.012,2.058 1.945,0.676 2.863,-1.148 3.113,-1.648 0.035,-0.067 0.059,-0.137 0.188,-0.09 0.152,0.051 0.132,0.109 0.054,0.332 l -0.808,2.34 c -0.071,0.199 -0.098,0.281 -0.227,0.234 -0.082,-0.027 -0.09,-0.043 -0.121,-0.211 l -0.18,-0.804 c -0.464,0.218 -1.109,0.531 -2.144,0.171 -1.293,-0.449 -1.918,-1.812 -1.488,-3.046 0.332,-0.969 1.246,-1.606 2.261,-1.606 0.145,0 0.789,0.067 1.672,0.149 0.344,0.027 0.719,0.066 1.195,-0.25 0.348,-0.219 0.598,-0.563 0.731,-0.946 0.289,-0.828 -0.004,-1.871 -0.984,-2.207 -0.336,-0.117 -1.243,-0.367 -2.055,-0.008 -0.895,0.395 -1.188,1.129 -1.344,1.543 -0.055,0.114 -0.148,0.078 -0.18,0.067 -0.152,-0.051 -0.125,-0.133 -0.05,-0.344 l 0.804,-2.328 c 0.071,-0.199 0.098,-0.281 0.227,-0.234 0.082,0.027 0.082,0.054 0.121,0.21 -0.004,0.012 0.02,0.059 0.187,0.809 0.5,-0.269 1.391,-0.434 2.426,-0.074 1.364,0.472 1.903,1.937 1.457,3.219 -0.402,1.164 -1.504,1.855 -2.562,1.75 z" /><path
       inkscape:connector-curvature="0"
       id="path360"
       style="fill:#000000;fill-opacity:1;fill-rule:nonzero;stroke:none"
       d="m 94.59,81.617 0.363,-1.047 1.633,0.707 -0.125,0.36 c -0.813,-0.282 -0.938,-0.231 -1.133,0.34 l -1.433,4.136 -1.668,-0.722 0.125,-0.36 c 0.816,0.281 0.937,0.231 1.136,-0.34 l 0.719,-2.074 c 0.348,-1.012 0.063,-1.996 -0.785,-2.293 -0.981,-0.34 -1.215,0.192 -1.426,0.801 l -1.34,3.867 -1.668,-0.722 0.125,-0.36 c 0.91,0.313 0.922,0.278 1.282,-0.758 L 91,81.402 c 0.312,-0.906 0.68,-1.968 2.453,-1.355 0.652,0.226 1.051,0.73 1.137,1.57 z" /><path
       inkscape:connector-curvature="0"
       id="path362"
       style="fill:#000000;fill-opacity:1;fill-rule:nonzero;stroke:none"
       d="m 97.312,86.434 -0.265,0.769 -1.633,-0.711 0.125,-0.359 c 0.828,0.285 0.934,0.246 1.109,-0.27 l 1.891,-5.449 c 0.18,-0.523 0.051,-0.57 -0.73,-0.84 l 0.125,-0.359 c 0.394,0.148 0.992,0.379 1.293,0.484 0.316,0.11 0.918,0.293 1.328,0.422 l -0.125,0.359 c -0.778,-0.269 -0.907,-0.312 -1.09,0.211 l -0.676,1.957 -0.035,0.106 c 0.121,-0.168 0.828,-0.625 1.715,-0.32 1.386,0.48 2.199,2.043 1.679,3.543 -0.511,1.48 -2.039,2.242 -3.343,1.789 -0.91,-0.313 -1.223,-0.996 -1.368,-1.332 z m 1.094,-3.039 -0.898,2.597 c 0.129,0.711 0.586,1.246 1.18,1.453 0.847,0.293 1.914,-0.484 2.371,-1.8 0.488,-1.411 0.011,-2.672 -0.852,-2.969 -0.465,-0.164 -0.988,-0.082 -1.469,0.285 -0.25,0.187 -0.254,0.199 -0.332,0.434 z" /><path
       inkscape:connector-curvature="0"
       id="path364"
       style="fill:#000000;fill-opacity:1;fill-rule:nonzero;stroke:none"
       d="m 103.785,88.676 -0.265,0.769 -1.633,-0.711 0.125,-0.359 c 0.828,0.285 0.933,0.242 1.109,-0.27 l 1.887,-5.453 c 0.183,-0.523 0.054,-0.566 -0.727,-0.836 l 0.125,-0.363 c 0.395,0.149 0.992,0.383 1.293,0.488 0.317,0.11 0.918,0.289 1.328,0.422 l -0.125,0.36 c -0.781,-0.27 -0.906,-0.317 -1.09,0.211 l -0.675,1.957 -0.039,0.101 c 0.125,-0.164 0.832,-0.625 1.714,-0.316 1.387,0.48 2.204,2.039 1.684,3.543 -0.512,1.48 -2.043,2.242 -3.348,1.789 -0.906,-0.313 -1.218,-0.996 -1.363,-1.332 z m 1.094,-3.043 -0.902,2.597 c 0.132,0.715 0.585,1.25 1.179,1.454 0.852,0.296 1.918,-0.485 2.375,-1.801 0.485,-1.41 0.008,-2.668 -0.851,-2.969 -0.469,-0.16 -0.989,-0.082 -1.469,0.289 -0.25,0.188 -0.254,0.199 -0.332,0.43 z" /><path
       inkscape:connector-curvature="0"
       id="path366"
       style="fill:#000000;fill-opacity:1;fill-rule:nonzero;stroke:none"
       d="m 114.594,84.379 c -0.012,0.035 -0.02,0.059 -0.285,0.187 -1.965,0.965 -3.102,3.039 -3.719,4.821 -0.699,2.027 -0.961,4.207 -0.031,6.16 0.101,0.191 0.093,0.215 0.082,0.25 -0.028,0.082 -0.086,0.101 -0.157,0.074 -0.117,-0.039 -0.89,-1.195 -1.066,-2.91 -0.148,-1.488 0.16,-2.828 0.496,-3.809 0.316,-0.906 0.93,-2.273 2.027,-3.367 1.196,-1.191 2.461,-1.601 2.575,-1.562 0.07,0.023 0.105,0.078 0.078,0.156 z" /><path
       inkscape:connector-curvature="0"
       id="path368"
       style="fill:#000000;fill-opacity:1;fill-rule:nonzero;stroke:none"
       d="m 116.688,96.977 c -0.008,0.023 -0.016,0.164 -0.02,0.175 -0.004,0.012 -0.043,0.118 -0.18,0.067 -0.117,-0.039 -0.117,-0.078 -0.093,-0.293 L 116.648,94 c -1.832,-0.699 -3.007,-2.84 -2.46,-4.426 0.386,-1.105 1.519,-1.742 2.968,-1.332 0.032,-0.394 0.078,-0.793 0.11,-1.187 0.05,-0.598 0.089,-1.078 0.101,-1.114 0.039,-0.117 0.125,-0.101 0.184,-0.082 0.058,0.02 0.078,0.043 0.097,0.09 0.016,0.031 -0.011,0.332 -0.031,0.508 l -0.16,1.891 c 1.855,0.707 3,2.863 2.461,4.425 -0.316,0.918 -1.309,1.778 -2.965,1.332 l -0.265,2.872 z m 0.437,-8.457 c -0.711,-0.208 -1.691,-0.09 -2.094,1.074 -0.484,1.398 -0.047,3.375 1.637,4.129 l 0.457,-5.203 z m -0.156,5.308 c 0.902,0.258 1.754,-0.047 2.109,-1.074 0.473,-1.375 0.051,-3.387 -1.648,-4.129 l -0.461,5.203 z" /><path
       inkscape:connector-curvature="0"
       id="path370"
       style="fill:#000000;fill-opacity:1;fill-rule:nonzero;stroke:none"
       d="m 126.066,88.352 c -0.015,0.035 -0.023,0.058 -0.289,0.187 -1.965,0.965 -3.097,3.035 -3.715,4.82 -0.703,2.028 -0.96,4.207 -0.031,6.157 0.102,0.195 0.094,0.218 0.082,0.254 -0.027,0.078 -0.086,0.097 -0.156,0.074 -0.117,-0.039 -0.891,-1.196 -1.066,-2.914 -0.153,-1.485 0.156,-2.828 0.496,-3.805 0.312,-0.91 0.929,-2.273 2.027,-3.367 1.195,-1.192 2.457,-1.602 2.574,-1.563 0.071,0.024 0.106,0.075 0.078,0.157 z" /><path
       inkscape:connector-curvature="0"
       id="path372"
       style="fill:#000000;fill-opacity:1;fill-rule:nonzero;stroke:none"
       d="m 128.445,96.246 c -0.035,0.328 -0.14,1.492 0.676,1.774 0.059,0.019 0.34,0.117 0.637,0.05 -0.309,-0.172 -0.442,-0.543 -0.344,-0.824 0.066,-0.184 0.27,-0.363 0.586,-0.254 0.254,0.09 0.555,0.43 0.395,0.895 -0.211,0.605 -0.954,0.531 -1.352,0.394 -0.676,-0.234 -0.867,-0.992 -0.914,-1.308 -0.559,0.668 -1.227,0.566 -1.567,0.449 -1.21,-0.422 -1.355,-2.152 -1.253,-2.445 0.039,-0.114 0.156,-0.075 0.179,-0.067 0.094,0.031 0.121,0.067 0.11,0.18 -0.036,1.371 0.632,1.93 1.031,2.066 0.223,0.078 0.664,0.114 0.898,-0.562 0.125,-0.36 0.2,-1.211 0.332,-2.989 0.063,-0.789 -0.175,-1.417 -0.687,-1.597 -0.07,-0.024 -0.34,-0.117 -0.637,-0.047 0.274,0.156 0.445,0.492 0.332,0.816 -0.109,0.317 -0.398,0.321 -0.574,0.258 -0.348,-0.121 -0.535,-0.523 -0.406,-0.894 0.187,-0.539 0.847,-0.571 1.363,-0.391 0.766,0.266 0.902,1.227 0.914,1.309 0.289,-0.383 0.867,-0.692 1.566,-0.45 1.2,0.414 1.344,2.149 1.243,2.438 -0.039,0.117 -0.145,0.082 -0.18,0.07 -0.105,-0.039 -0.113,-0.094 -0.109,-0.183 0.046,-1.379 -0.649,-1.934 -1.02,-2.063 -0.453,-0.156 -0.769,0.152 -0.906,0.547 -0.09,0.258 -0.11,0.539 -0.156,1.094 l -0.157,1.734 z" /><path
       inkscape:connector-curvature="0"
       id="path374"
       style="fill:#000000;fill-opacity:1;fill-rule:nonzero;stroke:none"
       d="m 134.789,97.766 c -0.316,0.906 -0.934,2.273 -2.027,3.367 -1.196,1.191 -2.461,1.601 -2.578,1.558 -0.071,-0.023 -0.098,-0.086 -0.075,-0.156 0.012,-0.035 0.02,-0.058 0.313,-0.191 1.543,-0.758 2.848,-2.379 3.691,-4.813 0.688,-1.992 0.969,-4.191 0.032,-6.16 -0.102,-0.191 -0.094,-0.215 -0.083,-0.25 0.024,-0.07 0.086,-0.101 0.157,-0.078 0.117,0.043 0.89,1.195 1.066,2.914 0.149,1.488 -0.16,2.828 -0.496,3.809 z" /><path
       inkscape:connector-curvature="0"
       id="path376"
       style="fill:#000000;fill-opacity:1;fill-rule:nonzero;stroke:none"
       d="m 139.316,99.332 c -0.312,0.91 -0.929,2.273 -2.027,3.367 -1.195,1.192 -2.457,1.602 -2.574,1.563 -0.07,-0.024 -0.102,-0.086 -0.074,-0.157 0.011,-0.035 0.019,-0.058 0.312,-0.191 1.539,-0.758 2.848,-2.383 3.688,-4.816 0.691,-1.993 0.968,-4.192 0.035,-6.16 -0.106,-0.192 -0.098,-0.215 -0.086,-0.25 0.023,-0.071 0.09,-0.098 0.156,-0.075 0.117,0.039 0.891,1.196 1.066,2.91 0.153,1.489 -0.156,2.832 -0.496,3.809 z" /><path
       inkscape:connector-curvature="0"
       id="path378"
       style="fill:#000000;fill-opacity:1;fill-rule:nonzero;stroke:none"
       d="m 151.41,104.523 c 0.172,0.059 0.395,0.137 0.313,0.372 -0.078,0.23 -0.301,0.156 -0.465,0.097 l -6.977,-2.414 c -0.164,-0.058 -0.383,-0.133 -0.304,-0.367 0.082,-0.234 0.304,-0.156 0.476,-0.098 l 6.957,2.41 z m 0.793,-2.257 c 0.164,0.058 0.383,0.132 0.305,0.367 -0.082,0.234 -0.305,0.156 -0.477,0.097 l -6.957,-2.41 c -0.172,-0.058 -0.394,-0.136 -0.312,-0.367 0.078,-0.234 0.3,-0.16 0.465,-0.101 l 6.976,2.414 z" /><path
       inkscape:connector-curvature="0"
       id="path380"
       style="fill:#000000;fill-opacity:1;fill-rule:nonzero;stroke:none"
       d="m 157.863,110.84 c -0.093,0.281 -0.105,0.305 -0.371,0.211 -0.465,-0.996 -1.488,-1.352 -1.863,-1.481 l 0.125,-0.359 c 0.234,0.082 0.922,0.316 1.422,0.832 l 2.09,-6.035 c 0.144,-0.418 0.156,-0.57 -0.891,-0.934 l -0.371,-0.129 0.125,-0.363 c 0.394,0.176 1.406,0.527 1.875,0.688 0.465,0.164 1.476,0.515 1.898,0.621 l -0.125,0.359 -0.375,-0.129 c -1.047,-0.363 -1.125,-0.246 -1.273,0.184 l -2.266,6.535 z" /><text
       id="text386"
       transform="matrix(0.94510649,0.3267625,0.3267625,-0.94510649,0,0)"
       x="104.39953"
       y="-57.075336"
       style="font-size:12px"><tspan
         id="tspan388"
         sodipodi:role="line"
         y="-57.075336"
         x="104.39953 107.55153 111.09553 114.63953 118.63953 123.07953 127.51953 130.18353 133.67953 137.67953 140.83153"
         style="font-size:8px;font-variant:normal;font-weight:normal;writing-mode:lr-tb;fill:#000000;fill-opacity:1;fill-rule:nonzero;stroke:none;font-family:cmr10;-inkscape-font-specification:Cmr10">second case</tspan></text>
<text
       id="text390"
       transform="scale(1,-1)"
       x="331.77164"
       y="-2.2069089"><tspan
         id="tspan392"
         y="-2.2069089"
         x="331.77164"
         style="font-size:8px;font-variant:normal;font-weight:normal;writing-mode:lr-tb;fill:#000000;fill-opacity:1;fill-rule:nonzero;stroke:none;font-family:cmr10;-inkscape-font-specification:Cmr10">p</tspan><tspan
         id="tspan394"
         sodipodi:role="line"
         y="-226.57576"
         x="13.977084 19.417088 23.417088 27.625095 31.625095 34.065098 36.5051 39.609074 44.049076"
         style="font-size:8px;font-variant:normal;font-weight:normal;writing-mode:lr-tb;fill:#000000;fill-opacity:1;fill-rule:nonzero;stroke:none;font-family:cmr10;-inkscape-font-specification:Cmr10">Payoff(p)</tspan></text>
<text
       id="text428"
       transform="scale(1,-1)"
       x="3.2633381"
       y="-7.4331508"><tspan
         id="tspan430"
         y="-7.4331508"
         x="3.2633381"
         style="font-size:8px;font-variant:normal;font-weight:normal;writing-mode:lr-tb;fill:#000000;fill-opacity:1;fill-rule:nonzero;stroke:none;font-family:cmr10;-inkscape-font-specification:Cmr10">0</tspan><tspan
         id="tspan432"
         y="-7.0705628"
         x="324.15826"
         style="font-size:8px;font-variant:normal;font-weight:normal;writing-mode:lr-tb;fill:#000000;fill-opacity:1;fill-rule:nonzero;stroke:none;font-family:cmr10;-inkscape-font-specification:Cmr10">1</tspan></text>
<g
       transform="matrix(1.12578,0,0,-1.12578,279.7817,260.65362)"
       id="page1"><g
         id="g3492"
         style="fill:#0000ff"><use
           id="use3494"
           y="66.599899"
           xlink:href="#g0-115"
           x="61.624802"
           width="1"
           height="1" /><use
           id="use3496"
           y="66.599899"
           xlink:href="#g0-97"
           x="67.186401"
           width="1"
           height="1" /><use
           id="use3498"
           y="66.599899"
           xlink:href="#g0-109"
           x="74.236298"
           width="1"
           height="1" /><use
           id="use3500"
           y="66.599899"
           xlink:href="#g0-101"
           x="85.986198"
           width="1"
           height="1" /><use
           id="use3502"
           y="66.599899"
           xlink:href="#g0-112"
           x="96.952797"
           width="1"
           height="1" /><use
           id="use3504"
           y="66.599899"
           xlink:href="#g0-97"
           x="104.786"
           width="1"
           height="1" /><use
           id="use3506"
           y="66.599899"
           xlink:href="#g0-121"
           x="111.444"
           width="1"
           height="1" /><use
           id="use3508"
           y="66.599899"
           xlink:href="#g0-111"
           x="118.494"
           width="1"
           height="1" /><use
           id="use3510"
           y="66.599899"
           xlink:href="#g0-11"
           x="125.544"
           width="1"
           height="1" /><use
           id="use3512"
           y="66.599899"
           xlink:href="#g0-105"
           x="138.46899"
           width="1"
           height="1" /><use
           id="use3514"
           y="66.599899"
           xlink:href="#g0-110"
           x="142.386"
           width="1"
           height="1" /><use
           id="use3516"
           y="66.599899"
           xlink:href="#g0-98"
           x="154.91901"
           width="1"
           height="1" /><use
           id="use3518"
           y="66.599899"
           xlink:href="#g0-111"
           x="163.144"
           width="1"
           height="1" /><use
           id="use3520"
           y="66.599899"
           xlink:href="#g0-116"
           x="170.194"
           width="1"
           height="1" /><use
           id="use3522"
           y="66.599899"
           xlink:href="#g0-104"
           x="175.677"
           width="1"
           height="1" /><use
           id="use3524"
           y="66.599899"
           xlink:href="#g0-109"
           x="188.21001"
           width="1"
           height="1" /><use
           id="use3526"
           y="66.599899"
           xlink:href="#g0-97"
           x="199.96001"
           width="1"
           height="1" /><use
           id="use3528"
           y="66.599899"
           xlink:href="#g0-114"
           x="207.00999"
           width="1"
           height="1" /><use
           id="use3530"
           y="66.599899"
           xlink:href="#g0-107"
           x="212.493"
           width="1"
           height="1" /><use
           id="use3532"
           y="66.599899"
           xlink:href="#g0-101"
           x="219.543"
           width="1"
           height="1" /><use
           id="use3534"
           y="66.599899"
           xlink:href="#g0-116"
           x="225.81"
           width="1"
           height="1" /><use
           id="use3536"
           y="66.599899"
           xlink:href="#g0-115"
           x="231.293"
           width="1"
           height="1" /><use
           id="use3538"
           y="84.599899"
           xlink:href="#g0-83"
           x="61.624802"
           width="1"
           height="1" /><use
           id="use3540"
           y="84.599899"
           xlink:href="#g0-117"
           x="69.458099"
           width="1"
           height="1" /><use
           id="use3542"
           y="84.599899"
           xlink:href="#g0-112"
           x="77.291298"
           width="1"
           height="1" /><use
           id="use3544"
           y="84.599899"
           xlink:href="#g0-112"
           x="85.124603"
           width="1"
           height="1" /><use
           id="use3546"
           y="84.599998"
           xlink:href="#g0-40"
           x="95.357697"
           width="1"
           height="1" /><use
           id="use3548"
           y="84.599899"
           xlink:href="#g1-30"
           x="100.841"
           width="1"
           height="1" /><use
           id="use3550"
           y="84.599998"
           xlink:href="#g0-41"
           x="109.186"
           width="1"
           height="1" /><use
           id="use3552"
           y="84.599899"
           xlink:href="#g2-18"
           x="118.669"
           width="1"
           height="1" /><use
           id="use3554"
           y="84.599899"
           xlink:href="#g0-91"
           x="133.869"
           width="1"
           height="1" /><use
           id="use3556"
           y="84.599899"
           xlink:href="#g0-48"
           x="137.786"
           width="1"
           height="1" /><use
           id="use3558"
           y="84.599899"
           xlink:href="#g1-59"
           x="144.836"
           width="1"
           height="1" /><use
           id="use3560"
           y="84.599899"
           xlink:href="#g0-49"
           x="151.15199"
           width="1"
           height="1" /><use
           id="use3562"
           y="84.599899"
           xlink:href="#g0-93"
           x="158.202"
           width="1"
           height="1" /><use
           id="use3564"
           y="102.6"
           xlink:href="#g0-115"
           x="61.624802"
           width="1"
           height="1" /><use
           id="use3566"
           y="102.6"
           xlink:href="#g0-101"
           x="67.186401"
           width="1"
           height="1" /><use
           id="use3568"
           y="102.6"
           xlink:href="#g0-103"
           x="73.453003"
           width="1"
           height="1" /><use
           id="use3570"
           y="102.6"
           xlink:href="#g0-114"
           x="80.502899"
           width="1"
           height="1" /><use
           id="use3572"
           y="102.6"
           xlink:href="#g0-101"
           x="85.986198"
           width="1"
           height="1" /><use
           id="use3574"
           y="102.6"
           xlink:href="#g0-103"
           x="92.2528"
           width="1"
           height="1" /><use
           id="use3576"
           y="102.6"
           xlink:href="#g0-97"
           x="99.302696"
           width="1"
           height="1" /><use
           id="use3578"
           y="102.6"
           xlink:href="#g0-116"
           x="106.353"
           width="1"
           height="1" /><use
           id="use3580"
           y="102.6"
           xlink:href="#g0-105"
           x="111.836"
           width="1"
           height="1" /><use
           id="use3582"
           y="102.6"
           xlink:href="#g0-111"
           x="115.753"
           width="1"
           height="1" /><use
           id="use3584"
           y="102.6"
           xlink:href="#g0-110"
           x="122.802"
           width="1"
           height="1" /><use
           id="use3586"
           y="102.6"
           xlink:href="#g0-105"
           x="135.336"
           width="1"
           height="1" /><use
           id="use3588"
           y="102.6"
           xlink:href="#g0-115"
           x="139.252"
           width="1"
           height="1" /><use
           id="use3590"
           y="102.6"
           xlink:href="#g0-112"
           x="149.51401"
           width="1"
           height="1" /><use
           id="use3592"
           y="102.6"
           xlink:href="#g0-111"
           x="157.739"
           width="1"
           height="1" /><use
           id="use3594"
           y="102.6"
           xlink:href="#g0-115"
           x="164.789"
           width="1"
           height="1" /><use
           id="use3596"
           y="102.6"
           xlink:href="#g0-115"
           x="170.35001"
           width="1"
           height="1" /><use
           id="use3598"
           y="102.6"
           xlink:href="#g0-105"
           x="175.912"
           width="1"
           height="1" /><use
           id="use3600"
           y="102.6"
           xlink:href="#g0-98"
           x="179.828"
           width="1"
           height="1" /><use
           id="use3602"
           y="102.6"
           xlink:href="#g0-108"
           x="187.662"
           width="1"
           height="1" /><use
           id="use3604"
           y="102.6"
           xlink:href="#g0-101"
           x="191.578"
           width="1"
           height="1" /></g></g><g
       transform="matrix(1.12578,0,0,-1.12578,286.39936,145.85193)"
       id="page1-3"><use
         id="use3725"
         y="66.599899"
         xlink:href="#g0-68"
         x="61.624802"
         width="1"
         height="1" /><use
         id="use3727"
         y="66.599899"
         xlink:href="#g0-105-9"
         x="72.392998"
         width="1"
         height="1" /><use
         id="use3729"
         y="66.599899"
         xlink:href="#g0-11-0"
         x="76.3097"
         width="1"
         height="1" /><use
         id="use3731"
         y="66.599899"
         xlink:href="#g0-101-6"
         x="84.534599"
         width="1"
         height="1" /><use
         id="use3733"
         y="66.599899"
         xlink:href="#g0-114-3"
         x="90.801201"
         width="1"
         height="1" /><use
         id="use3735"
         y="66.599899"
         xlink:href="#g0-101-6"
         x="96.2845"
         width="1"
         height="1" /><use
         id="use3737"
         y="66.599899"
         xlink:href="#g0-110-0"
         x="102.551"
         width="1"
         height="1" /><use
         id="use3739"
         y="66.599899"
         xlink:href="#g0-116-7"
         x="109.993"
         width="1"
         height="1" /><use
         id="use3741"
         y="66.599899"
         xlink:href="#g0-112-6"
         x="120.176"
         width="1"
         height="1" /><use
         id="use3743"
         y="66.599899"
         xlink:href="#g0-97-9"
         x="128.009"
         width="1"
         height="1" /><use
         id="use3745"
         y="66.599899"
         xlink:href="#g0-121-9"
         x="134.66701"
         width="1"
         height="1" /><use
         id="use3747"
         y="66.599899"
         xlink:href="#g0-111-3"
         x="141.717"
         width="1"
         height="1" /><use
         id="use3749"
         y="66.599899"
         xlink:href="#g0-11-0"
         x="148.767"
         width="1"
         height="1" /><use
         id="use3751"
         y="66.599899"
         xlink:href="#g0-115-0"
         x="156.992"
         width="1"
         height="1" /><use
         id="use3753"
         y="84.599899"
         xlink:href="#g0-83-3"
         x="61.624802"
         width="1"
         height="1" /><use
         id="use3755"
         y="84.599899"
         xlink:href="#g0-117-7"
         x="69.458099"
         width="1"
         height="1" /><use
         id="use3757"
         y="84.599899"
         xlink:href="#g0-112-6"
         x="77.291298"
         width="1"
         height="1" /><use
         id="use3759"
         y="84.599899"
         xlink:href="#g0-112-6"
         x="85.124603"
         width="1"
         height="1" /><use
         id="use3761"
         y="84.599998"
         xlink:href="#g0-40-1"
         x="95.357697"
         width="1"
         height="1" /><use
         id="use3763"
         y="84.599899"
         xlink:href="#g1-30-4"
         x="100.841"
         width="1"
         height="1" /><use
         id="use3765"
         y="84.599998"
         xlink:href="#g0-41-5"
         x="109.186"
         width="1"
         height="1" /><use
         id="use3767"
         y="84.599899"
         xlink:href="#g0-61"
         x="118.669"
         width="1"
         height="1" /><use
         id="use3769"
         y="84.599899"
         xlink:href="#g2-102"
         x="133.636"
         width="1"
         height="1" /><use
         id="use3771"
         y="84.599899"
         xlink:href="#g0-49-8"
         x="140.836"
         width="1"
         height="1" /><use
         id="use3773"
         y="84.599899"
         xlink:href="#g2-103"
         x="147.886"
         width="1"
         height="1" /><use
         id="use3775"
         y="102.6"
         xlink:href="#g0-115-0"
         x="61.624802"
         width="1"
         height="1" /><use
         id="use3777"
         y="102.6"
         xlink:href="#g0-101-6"
         x="67.186401"
         width="1"
         height="1" /><use
         id="use3779"
         y="102.6"
         xlink:href="#g0-103-1"
         x="73.453003"
         width="1"
         height="1" /><use
         id="use3781"
         y="102.6"
         xlink:href="#g0-114-3"
         x="80.502899"
         width="1"
         height="1" /><use
         id="use3783"
         y="102.6"
         xlink:href="#g0-101-6"
         x="85.986198"
         width="1"
         height="1" /><use
         id="use3785"
         y="102.6"
         xlink:href="#g0-103-1"
         x="92.2528"
         width="1"
         height="1" /><use
         id="use3787"
         y="102.6"
         xlink:href="#g0-97-9"
         x="99.302696"
         width="1"
         height="1" /><use
         id="use3789"
         y="102.6"
         xlink:href="#g0-116-7"
         x="106.353"
         width="1"
         height="1" /><use
         id="use3791"
         y="102.6"
         xlink:href="#g0-105-9"
         x="111.836"
         width="1"
         height="1" /><use
         id="use3793"
         y="102.6"
         xlink:href="#g0-111-3"
         x="115.753"
         width="1"
         height="1" /><use
         id="use3795"
         y="102.6"
         xlink:href="#g0-110-0"
         x="122.802"
         width="1"
         height="1" /><use
         id="use3797"
         y="102.6"
         xlink:href="#g0-105-9"
         x="135.336"
         width="1"
         height="1" /><use
         id="use3799"
         y="102.6"
         xlink:href="#g0-115-0"
         x="139.252"
         width="1"
         height="1" /><use
         id="use3801"
         y="102.6"
         xlink:href="#g0-110-0"
         x="149.51401"
         width="1"
         height="1" /><use
         id="use3803"
         y="102.6"
         xlink:href="#g0-111-3"
         x="157.347"
         width="1"
         height="1" /><use
         id="use3805"
         y="102.6"
         xlink:href="#g0-116-7"
         x="164.397"
         width="1"
         height="1" /><use
         id="use3807"
         y="102.6"
         xlink:href="#g0-112-6"
         x="174.58"
         width="1"
         height="1" /><use
         id="use3809"
         y="102.6"
         xlink:href="#g0-111-3"
         x="182.80499"
         width="1"
         height="1" /><use
         id="use3811"
         y="102.6"
         xlink:href="#g0-115-0"
         x="189.855"
         width="1"
         height="1" /><use
         id="use3813"
         y="102.6"
         xlink:href="#g0-115-0"
         x="195.41701"
         width="1"
         height="1" /><use
         id="use3815"
         y="102.6"
         xlink:href="#g0-105-9"
         x="200.978"
         width="1"
         height="1" /><use
         id="use3817"
         y="102.6"
         xlink:href="#g0-98-1"
         x="204.895"
         width="1"
         height="1" /><use
         id="use3819"
         y="102.6"
         xlink:href="#g0-108-0"
         x="212.728"
         width="1"
         height="1" /><use
         id="use3821"
         y="102.6"
         xlink:href="#g0-101-6"
         x="216.645"
         width="1"
         height="1" /></g><path
       style="fill:none;stroke:#000000;stroke-width:1px;stroke-linecap:butt;stroke-linejoin:miter;stroke-opacity:1;marker-start:url(#Arrow1Lstart)"
       d="M 329.9038,107.87136 437.61493,216.19799"
       id="path3901"
       inkscape:connector-curvature="0"
       transform="matrix(0.8,0,0,-0.8,0,235)" /><path
       style="fill:#000000;fill-opacity:1;stroke:#1a15e2;stroke-width:1px;stroke-linecap:butt;stroke-linejoin:miter;stroke-opacity:1;marker-start:url(#Arrow1Lstart)"
       d="m 400.26885,134.44632 c 2.35316,-2.547 36.1151,-39.500291 36.1151,-39.500291"
       id="path5115"
       inkscape:connector-curvature="0"
       transform="matrix(0.8,0,0,-0.8,0,235)"
       sodipodi:nodetypes="cc" /></g></svg>