\relax 
\newlabel{FirstPage}{{}{1}{}{}{}}
\@writefile{toc}{\contentsline {title}{template}{1}{}}
\bibdata{testNotes}
\bibstyle{apsrev4-1}
\citation{REVTEX41Control}
\citation{apsrev41Control}
\@writefile{toc}{\contentsline {section}{\numberline {I}Section 1}{2}{}}
\newlabel{LastPage}{{}{2}{}{}{}}
