\beamer@endinputifotherversion {3.26pt}
\headcommand {\slideentry {0}{0}{1}{1/1}{}{0}}
\headcommand {\beamer@framepages {1}{1}}
\headcommand {\slideentry {0}{0}{2}{2/2}{}{0}}
\headcommand {\beamer@framepages {2}{2}}
\headcommand {\sectionentry {1}{Introduction}{3}{Introduction}{0}}
\headcommand {\beamer@sectionpages {1}{2}}
\headcommand {\beamer@subsectionpages {1}{2}}
\headcommand {\slideentry {1}{0}{3}{3/3}{}{0}}
\headcommand {\beamer@framepages {3}{3}}
\headcommand {\slideentry {1}{0}{4}{4/4}{}{0}}
\headcommand {\beamer@framepages {4}{4}}
\headcommand {\sectionentry {2}{Model description}{5}{Model description}{0}}
\headcommand {\beamer@sectionpages {3}{4}}
\headcommand {\beamer@subsectionpages {3}{4}}
\headcommand {\slideentry {2}{0}{5}{5/5}{}{0}}
\headcommand {\beamer@framepages {5}{5}}
\headcommand {\beamer@subsectionentry {0}{2}{1}{6}{Market microstructure}}\headcommand {\beamer@subsectionpages {5}{5}}
\headcommand {\slideentry {2}{1}{1}{6/6}{Market microstructure}{0}}
\headcommand {\beamer@framepages {6}{6}}
\headcommand {\beamer@subsectionentry {0}{2}{2}{7}{Traders behaviour}}\headcommand {\beamer@subsectionpages {6}{6}}
\headcommand {\slideentry {2}{2}{1}{7/7}{Traders behaviour}{0}}
\headcommand {\beamer@framepages {7}{7}}
\headcommand {\slideentry {2}{2}{2}{8/8}{Traders behaviour}{0}}
\headcommand {\beamer@framepages {8}{8}}
\headcommand {\beamer@subsectionentry {0}{2}{3}{9}{Simulation results}}\headcommand {\beamer@subsectionpages {7}{8}}
\headcommand {\slideentry {2}{3}{1}{9/9}{Simulation results}{0}}
\headcommand {\beamer@framepages {9}{9}}
\headcommand {\sectionentry {3}{Mean field approach}{10}{Mean field approach}{0}}
\headcommand {\beamer@sectionpages {5}{9}}
\headcommand {\beamer@subsectionpages {9}{9}}
\headcommand {\slideentry {3}{0}{2}{10/10}{}{0}}
\headcommand {\beamer@framepages {10}{10}}
\headcommand {\beamer@subsectionentry {0}{3}{1}{11}{Settings}}\headcommand {\beamer@subsectionpages {10}{10}}
\headcommand {\slideentry {3}{1}{1}{11/11}{Settings}{0}}
\headcommand {\beamer@framepages {11}{11}}
\headcommand {\slideentry {3}{1}{2}{12/12}{Settings}{0}}
\headcommand {\beamer@framepages {12}{12}}
\headcommand {\beamer@subsectionentry {0}{3}{2}{13}{Application}}\headcommand {\beamer@subsectionpages {11}{12}}
\headcommand {\slideentry {3}{2}{1}{13/13}{Application}{0}}
\headcommand {\beamer@framepages {13}{13}}
\headcommand {\slideentry {3}{2}{2}{14/14}{Application}{0}}
\headcommand {\beamer@framepages {14}{14}}
\headcommand {\slideentry {3}{2}{3}{15/15}{Application}{0}}
\headcommand {\beamer@framepages {15}{15}}
\headcommand {\beamer@subsectionentry {0}{3}{3}{16}{Consistency with the reinforcement learning dynamics}}\headcommand {\beamer@subsectionpages {13}{15}}
\headcommand {\slideentry {3}{3}{1}{16/16}{Consistency with the reinforcement learning dynamics}{0}}
\headcommand {\beamer@framepages {16}{16}}
\headcommand {\slideentry {3}{3}{2}{17/17}{Consistency with the reinforcement learning dynamics}{0}}
\headcommand {\beamer@framepages {17}{17}}
\headcommand {\slideentry {3}{3}{3}{18/18}{Consistency with the reinforcement learning dynamics}{0}}
\headcommand {\beamer@framepages {18}{18}}
\headcommand {\slideentry {3}{3}{4}{19/19}{Consistency with the reinforcement learning dynamics}{0}}
\headcommand {\beamer@framepages {19}{19}}
\headcommand {\sectionentry {4}{Large deviation approach for the infinite memory limit}{20}{Large deviation approach for the infinite memory limit}{0}}
\headcommand {\beamer@sectionpages {10}{19}}
\headcommand {\beamer@subsectionpages {16}{19}}
\headcommand {\slideentry {4}{0}{5}{20/20}{}{0}}
\headcommand {\beamer@framepages {20}{20}}
\headcommand {\beamer@subsectionentry {0}{4}{1}{21}{Motivations}}\headcommand {\beamer@subsectionpages {20}{20}}
\headcommand {\slideentry {4}{1}{1}{21/21}{Motivations}{0}}
\headcommand {\beamer@framepages {21}{21}}
\headcommand {\slideentry {4}{1}{2}{22/22}{Motivations}{0}}
\headcommand {\beamer@framepages {22}{22}}
\headcommand {\slideentry {4}{1}{3}{23/23}{Motivations}{0}}
\headcommand {\beamer@framepages {23}{23}}
\headcommand {\slideentry {4}{1}{4}{24/24}{Motivations}{0}}
\headcommand {\beamer@framepages {24}{24}}
\headcommand {\slideentry {4}{1}{5}{25/25}{Motivations}{0}}
\headcommand {\beamer@framepages {25}{25}}
\headcommand {\slideentry {4}{1}{6}{26/26}{Motivations}{0}}
\headcommand {\beamer@framepages {26}{26}}
\headcommand {\beamer@subsectionentry {0}{4}{2}{27}{The minimal action path}}\headcommand {\beamer@subsectionpages {21}{26}}
\headcommand {\slideentry {4}{2}{1}{27/27}{The minimal action path}{0}}
\headcommand {\beamer@framepages {27}{27}}
\headcommand {\slideentry {4}{2}{2}{28/28}{The minimal action path}{0}}
\headcommand {\beamer@framepages {28}{28}}
\headcommand {\beamer@subsectionentry {0}{4}{3}{29}{An equation for the market conditions of a segregated population}}\headcommand {\beamer@subsectionpages {27}{28}}
\headcommand {\slideentry {4}{3}{1}{29/29}{An equation for the market conditions of a segregated population}{0}}
\headcommand {\beamer@framepages {29}{29}}
\headcommand {\slideentry {4}{3}{2}{30/30}{An equation for the market conditions of a segregated population}{0}}
\headcommand {\beamer@framepages {30}{30}}
\headcommand {\sectionentry {5}{Case of an heterogeneous population}{31}{Case of an heterogeneous population}{0}}
\headcommand {\beamer@sectionpages {20}{30}}
\headcommand {\beamer@subsectionpages {29}{30}}
\headcommand {\slideentry {5}{0}{3}{31/31}{}{0}}
\headcommand {\beamer@framepages {31}{31}}
\headcommand {\beamer@subsectionentry {0}{5}{1}{32}{Motivations}}\headcommand {\beamer@subsectionpages {31}{31}}
\headcommand {\slideentry {5}{1}{1}{32/32}{Motivations}{0}}
\headcommand {\beamer@framepages {32}{32}}
\headcommand {\beamer@subsectionentry {0}{5}{2}{33}{The settings}}\headcommand {\beamer@subsectionpages {32}{32}}
\headcommand {\slideentry {5}{2}{1}{33/33}{The settings}{0}}
\headcommand {\beamer@framepages {33}{33}}
\headcommand {\slideentry {5}{2}{2}{34/34}{The settings}{0}}
\headcommand {\beamer@framepages {34}{34}}
\headcommand {\slideentry {5}{2}{3}{35/35}{The settings}{0}}
\headcommand {\beamer@framepages {35}{35}}
\headcommand {\beamer@subsectionentry {0}{5}{3}{36}{Simulation results}}\headcommand {\beamer@subsectionpages {33}{35}}
\headcommand {\slideentry {5}{3}{1}{36/36}{Simulation results}{0}}
\headcommand {\beamer@framepages {36}{36}}
\headcommand {\slideentry {5}{3}{2}{37/37}{Simulation results}{0}}
\headcommand {\beamer@framepages {37}{37}}
\headcommand {\slideentry {5}{3}{3}{38/38}{Simulation results}{0}}
\headcommand {\beamer@framepages {38}{38}}
\headcommand {\sectionentry {6}{Conclusion}{39}{Conclusion}{0}}
\headcommand {\beamer@sectionpages {31}{38}}
\headcommand {\beamer@subsectionpages {36}{38}}
\headcommand {\slideentry {6}{0}{4}{39/39}{}{0}}
\headcommand {\beamer@framepages {39}{39}}
\headcommand {\slideentry {6}{0}{5}{40/40}{}{0}}
\headcommand {\beamer@framepages {40}{40}}
\headcommand {\slideentry {6}{0}{6}{41/41}{}{0}}
\headcommand {\beamer@framepages {41}{41}}
\headcommand {\slideentry {6}{0}{7}{42/42}{}{0}}
\headcommand {\beamer@framepages {42}{42}}
\headcommand {\beamer@partpages {1}{42}}
\headcommand {\beamer@subsectionpages {39}{42}}
\headcommand {\beamer@sectionpages {39}{42}}
\headcommand {\beamer@documentpages {42}}
\headcommand {\def \inserttotalframenumber {42}}
