<?xml version="1.0" encoding="UTF-8" standalone="no"?>
<svg
   xmlns:dc="http://purl.org/dc/elements/1.1/"
   xmlns:cc="http://creativecommons.org/ns#"
   xmlns:rdf="http://www.w3.org/1999/02/22-rdf-syntax-ns#"
   xmlns:svg="http://www.w3.org/2000/svg"
   xmlns="http://www.w3.org/2000/svg"
   xmlns:xlink="http://www.w3.org/1999/xlink"
   xmlns:sodipodi="http://sodipodi.sourceforge.net/DTD/sodipodi-0.dtd"
   xmlns:inkscape="http://www.inkscape.org/namespaces/inkscape"
   width="504pt"
   height="504pt"
   viewBox="0 0 504 504"
   version="1.1"
   id="svg2"
   inkscape:version="0.48.4 r9939"
   sodipodi:docname="benchmark.pdf">
  <metadata
     id="metadata417">
    <rdf:RDF>
      <cc:Work
         rdf:about="">
        <dc:format>image/svg+xml</dc:format>
        <dc:type
           rdf:resource="http://purl.org/dc/dcmitype/StillImage" />
        <dc:title></dc:title>
      </cc:Work>
    </rdf:RDF>
  </metadata>
  <sodipodi:namedview
     pagecolor="#ffffff"
     bordercolor="#666666"
     borderopacity="1"
     objecttolerance="10"
     gridtolerance="10"
     guidetolerance="10"
     inkscape:pageopacity="0"
     inkscape:pageshadow="2"
     inkscape:window-width="1920"
     inkscape:window-height="1143"
     id="namedview415"
     showgrid="false"
     inkscape:zoom="1.0595378"
     inkscape:cx="346.17675"
     inkscape:cy="410.16194"
     inkscape:window-x="0"
     inkscape:window-y="31"
     inkscape:window-maximized="1"
     inkscape:current-layer="svg2" />
  <defs
     id="defs4">
    <g
       id="g6">
      <symbol
         overflow="visible"
         id="glyph0-0">
        <path
           style="stroke:none;"
           d="M 1.1875 0 L 1.1875 -15.203125 L 8.3125 -15.203125 L 8.3125 0 Z M 2.375 -1.1875 L 7.125 -1.1875 L 7.125 -14.015625 L 2.375 -14.015625 Z M 2.375 -1.1875 "
           id="path9" />
      </symbol>
      <symbol
         overflow="visible"
         id="glyph0-1">
        <path
           style="stroke:none;"
           d="M 5.671875 0.359375 C 3.785156 0.359375 2.410156 -0.5 1.546875 -2.21875 C 0.890625 -3.539062 0.5625 -5.265625 0.5625 -7.390625 C 0.5625 -9.179688 0.988281 -10.742188 1.84375 -12.078125 C 2.851562 -13.640625 4.222656 -14.421875 5.953125 -14.421875 C 7.578125 -14.421875 8.847656 -13.726562 9.765625 -12.34375 C 10.546875 -11.144531 10.9375 -9.679688 10.9375 -7.953125 C 10.9375 -5.179688 10.492188 -3.101562 9.609375 -1.71875 C 8.734375 -0.332031 7.421875 0.359375 5.671875 0.359375 Z M 5.953125 -12.640625 C 4.796875 -12.640625 3.878906 -12.050781 3.203125 -10.875 C 2.640625 -9.90625 2.359375 -8.789062 2.359375 -7.53125 C 2.359375 -5.5 2.632812 -3.972656 3.1875 -2.953125 C 3.738281 -1.929688 4.566406 -1.421875 5.671875 -1.421875 C 6.984375 -1.421875 7.921875 -2.171875 8.484375 -3.671875 C 8.878906 -4.703125 9.078125 -6.015625 9.078125 -7.609375 C 9.078125 -9.285156 8.816406 -10.539062 8.296875 -11.375 C 7.773438 -12.21875 6.992188 -12.640625 5.953125 -12.640625 Z M 5.953125 -12.640625 "
           id="path12" />
      </symbol>
      <symbol
         overflow="visible"
         id="glyph0-2">
        <path
           style="stroke:none;"
           d="M 2.484375 0.859375 C 2.160156 0.859375 1.882812 0.742188 1.65625 0.515625 C 1.4375 0.296875 1.328125 0.03125 1.328125 -0.28125 C 1.328125 -0.601562 1.4375 -0.875 1.65625 -1.09375 C 1.882812 -1.320312 2.160156 -1.4375 2.484375 -1.4375 C 2.796875 -1.4375 3.0625 -1.320312 3.28125 -1.09375 C 3.507812 -0.875 3.625 -0.601562 3.625 -0.28125 C 3.625 0.03125 3.507812 0.296875 3.28125 0.515625 C 3.0625 0.742188 2.796875 0.859375 2.484375 0.859375 Z M 2.484375 0.859375 "
           id="path15" />
      </symbol>
      <symbol
         overflow="visible"
         id="glyph0-3">
        <path
           style="stroke:none;"
           d="M 8.9375 -4.046875 L 8.9375 -0.625 C 8.9375 -0.0507812 8.65625 0.234375 8.09375 0.234375 C 7.4375 0.234375 7.109375 -0.210938 7.109375 -1.109375 C 7.109375 -1.210938 7.113281 -1.367188 7.125 -1.578125 C 7.144531 -1.785156 7.15625 -1.925781 7.15625 -2 L 7.140625 -4.09375 L 3.046875 -4.203125 C 2.203125 -4.203125 1.617188 -4.226562 1.296875 -4.28125 C 0.734375 -4.375 0.453125 -4.59375 0.453125 -4.9375 C 0.453125 -5.21875 0.617188 -5.570312 0.953125 -6 L 1.75 -6.953125 L 6.3125 -13.609375 C 6.726562 -14.179688 7.253906 -14.46875 7.890625 -14.46875 C 8.585938 -14.46875 8.9375 -14.164062 8.9375 -13.5625 L 8.9375 -5.859375 C 9.039062 -5.859375 9.171875 -5.859375 9.328125 -5.859375 C 10.460938 -5.859375 11.03125 -5.550781 11.03125 -4.9375 C 11.03125 -4.5 10.796875 -4.21875 10.328125 -4.09375 C 10.117188 -4.039062 9.65625 -4.023438 8.9375 -4.046875 Z M 7.140625 -11.90625 C 5.492188 -9.269531 4.207031 -7.296875 3.28125 -5.984375 L 7.140625 -5.890625 Z M 7.140625 -11.90625 "
           id="path18" />
      </symbol>
      <symbol
         overflow="visible"
         id="glyph0-4">
        <path
           style="stroke:none;"
           d="M 5.609375 0.421875 C 4.679688 0.421875 3.84375 0.226562 3.09375 -0.15625 C 2.257812 -0.601562 1.695312 -1.238281 1.40625 -2.0625 C 1.375 -2.175781 1.359375 -2.285156 1.359375 -2.390625 C 1.359375 -2.628906 1.453125 -2.832031 1.640625 -3 C 1.828125 -3.164062 2.046875 -3.25 2.296875 -3.25 C 2.535156 -3.25 2.75 -3.132812 2.9375 -2.90625 L 3.359375 -2.265625 C 3.578125 -1.960938 3.875 -1.734375 4.25 -1.578125 C 4.632812 -1.429688 5.085938 -1.359375 5.609375 -1.359375 C 6.285156 -1.359375 6.878906 -1.566406 7.390625 -1.984375 C 7.921875 -2.429688 8.1875 -2.976562 8.1875 -3.625 C 8.1875 -4.550781 7.84375 -5.296875 7.15625 -5.859375 C 6.550781 -6.335938 5.75 -6.628906 4.75 -6.734375 C 4.0625 -6.804688 3.71875 -7.085938 3.71875 -7.578125 C 3.71875 -7.941406 3.988281 -8.21875 4.53125 -8.40625 L 6.75 -8.953125 C 7.175781 -9.109375 7.492188 -9.316406 7.703125 -9.578125 C 7.921875 -9.835938 8.035156 -10.160156 8.046875 -10.546875 C 8.054688 -11.085938 7.84375 -11.523438 7.40625 -11.859375 C 6.957031 -12.203125 6.328125 -12.375 5.515625 -12.375 C 5.085938 -12.375 4.675781 -12.269531 4.28125 -12.0625 L 3.234375 -11.40625 C 3.035156 -11.28125 2.875 -11.21875 2.75 -11.21875 C 2.5 -11.21875 2.285156 -11.3125 2.109375 -11.5 C 1.929688 -11.6875 1.84375 -11.898438 1.84375 -12.140625 C 1.84375 -12.628906 2.316406 -13.097656 3.265625 -13.546875 C 4.085938 -13.953125 4.765625 -14.15625 5.296875 -14.15625 C 6.628906 -14.15625 7.6875 -13.863281 8.46875 -13.28125 C 9.300781 -12.644531 9.71875 -11.742188 9.71875 -10.578125 C 9.71875 -9.117188 9.128906 -8.160156 7.953125 -7.703125 C 7.847656 -7.660156 7.726562 -7.617188 7.59375 -7.578125 C 8.414062 -7.265625 9.03125 -6.804688 9.4375 -6.203125 C 9.84375 -5.609375 10.046875 -4.859375 10.046875 -3.953125 C 10.046875 -2.734375 9.613281 -1.695312 8.75 -0.84375 C 7.894531 0 6.847656 0.421875 5.609375 0.421875 Z M 5.609375 0.421875 "
           id="path21" />
      </symbol>
      <symbol
         overflow="visible"
         id="glyph0-5">
        <path
           style="stroke:none;"
           d="M 5.21875 0.578125 C 3.457031 0.578125 2.164062 -0.0664062 1.34375 -1.359375 C 1.226562 -1.546875 1.171875 -1.722656 1.171875 -1.890625 C 1.171875 -2.128906 1.265625 -2.335938 1.453125 -2.515625 C 1.648438 -2.691406 1.867188 -2.78125 2.109375 -2.78125 C 2.359375 -2.78125 2.597656 -2.640625 2.828125 -2.359375 C 3.160156 -1.960938 3.410156 -1.710938 3.578125 -1.609375 C 3.972656 -1.335938 4.519531 -1.203125 5.21875 -1.203125 C 6.28125 -1.203125 7.164062 -1.609375 7.875 -2.421875 C 8.550781 -3.203125 8.890625 -4.140625 8.890625 -5.234375 C 8.890625 -6.140625 8.738281 -6.875 8.4375 -7.4375 C 8.0625 -8.144531 7.472656 -8.5 6.671875 -8.5 C 6.003906 -8.5 5.460938 -8.410156 5.046875 -8.234375 C 4.710938 -8.085938 4.375 -7.84375 4.03125 -7.5 L 3.03125 -6.390625 C 2.75 -6.109375 2.46875 -5.96875 2.1875 -5.96875 C 1.9375 -5.96875 1.722656 -6.054688 1.546875 -6.234375 C 1.378906 -6.410156 1.296875 -6.625 1.296875 -6.875 C 1.296875 -7 1.347656 -7.550781 1.453125 -8.53125 C 1.660156 -10.476562 1.765625 -11.753906 1.765625 -12.359375 C 1.765625 -12.578125 1.707031 -12.816406 1.59375 -13.078125 C 1.488281 -13.335938 1.4375 -13.523438 1.4375 -13.640625 C 1.4375 -14.023438 1.757812 -14.21875 2.40625 -14.21875 C 2.53125 -14.21875 2.71875 -14.203125 2.96875 -14.171875 C 3.21875 -14.148438 3.40625 -14.140625 3.53125 -14.140625 C 3.894531 -14.140625 4.429688 -14.148438 5.140625 -14.171875 C 5.859375 -14.203125 6.398438 -14.21875 6.765625 -14.21875 C 6.929688 -14.21875 7.179688 -14.210938 7.515625 -14.203125 C 7.859375 -14.191406 8.113281 -14.1875 8.28125 -14.1875 C 8.40625 -14.1875 8.578125 -14.207031 8.796875 -14.25 C 9.015625 -14.300781 9.179688 -14.328125 9.296875 -14.328125 C 9.535156 -14.328125 9.75 -14.234375 9.9375 -14.046875 C 10.125 -13.867188 10.21875 -13.664062 10.21875 -13.4375 C 10.21875 -12.738281 9.484375 -12.390625 8.015625 -12.390625 C 7.828125 -12.390625 7.585938 -12.394531 7.296875 -12.40625 C 7.003906 -12.425781 6.828125 -12.4375 6.765625 -12.4375 L 5.203125 -12.40625 L 3.625 -12.359375 C 3.625 -12.078125 3.507812 -11.046875 3.28125 -9.265625 C 4.132812 -9.941406 5.265625 -10.28125 6.671875 -10.28125 C 8.035156 -10.28125 9.070312 -9.75 9.78125 -8.6875 C 10.394531 -7.78125 10.703125 -6.628906 10.703125 -5.234375 C 10.703125 -3.566406 10.210938 -2.191406 9.234375 -1.109375 C 8.210938 0.015625 6.875 0.578125 5.21875 0.578125 Z M 5.21875 0.578125 "
           id="path24" />
      </symbol>
      <symbol
         overflow="visible"
         id="glyph0-6">
        <path
           style="stroke:none;"
           d="M 5.53125 0.671875 C 3.925781 0.671875 2.738281 0.078125 1.96875 -1.109375 C 1.34375 -2.078125 1.03125 -3.367188 1.03125 -4.984375 C 1.03125 -8.046875 2.269531 -10.695312 4.75 -12.9375 L 5.625 -13.828125 C 6.050781 -14.234375 6.375 -14.4375 6.59375 -14.4375 C 6.832031 -14.4375 7.046875 -14.347656 7.234375 -14.171875 C 7.421875 -13.992188 7.519531 -13.785156 7.53125 -13.546875 C 7.539062 -13.328125 7.222656 -12.894531 6.578125 -12.25 L 4.6875 -10.40625 C 4.1875 -9.90625 3.753906 -9.140625 3.390625 -8.109375 C 3.929688 -8.359375 4.398438 -8.539062 4.796875 -8.65625 C 5.203125 -8.78125 5.535156 -8.84375 5.796875 -8.84375 C 7.242188 -8.84375 8.351562 -8.453125 9.125 -7.671875 C 9.894531 -6.898438 10.28125 -5.8125 10.28125 -4.40625 C 10.28125 -2.925781 9.863281 -1.71875 9.03125 -0.78125 C 8.164062 0.1875 7 0.671875 5.53125 0.671875 Z M 5.53125 -6.953125 C 5 -6.953125 4.523438 -6.859375 4.109375 -6.671875 C 3.953125 -6.597656 3.546875 -6.359375 2.890625 -5.953125 C 2.859375 -5.628906 2.84375 -5.304688 2.84375 -4.984375 C 2.84375 -3.878906 3.023438 -2.976562 3.390625 -2.28125 C 3.859375 -1.394531 4.59375 -0.953125 5.59375 -0.953125 C 6.53125 -0.953125 7.253906 -1.285156 7.765625 -1.953125 C 8.242188 -2.566406 8.484375 -3.382812 8.484375 -4.40625 C 8.484375 -5.25 8.238281 -5.882812 7.75 -6.3125 C 7.257812 -6.738281 6.519531 -6.953125 5.53125 -6.953125 Z M 5.53125 -6.953125 "
           id="path27" />
      </symbol>
      <symbol
         overflow="visible"
         id="glyph0-7">
        <path
           style="stroke:none;"
           d="M 6.53125 0.015625 L 4.6875 0.015625 L 2.84375 0 C 2.414062 0 2.113281 -0.0234375 1.9375 -0.078125 C 1.625 -0.191406 1.46875 -0.425781 1.46875 -0.78125 C 1.46875 -1.40625 1.953125 -1.71875 2.921875 -1.71875 L 3.375 -1.71875 L 3.75 -1.703125 C 3.75 -1.992188 3.722656 -2.429688 3.671875 -3.015625 C 3.617188 -3.597656 3.59375 -4.035156 3.59375 -4.328125 C 3.59375 -5.109375 3.660156 -6.300781 3.796875 -7.90625 C 3.941406 -9.476562 4.007812 -10.675781 4 -11.5 C 3.164062 -10.851562 2.632812 -10.53125 2.40625 -10.53125 C 2.164062 -10.53125 1.953125 -10.625 1.765625 -10.8125 C 1.585938 -11 1.5 -11.210938 1.5 -11.453125 C 1.5 -11.742188 1.765625 -12.09375 2.296875 -12.5 C 2.628906 -12.738281 3.101562 -13.117188 3.71875 -13.640625 C 4.257812 -14.191406 4.773438 -14.46875 5.265625 -14.46875 C 5.679688 -14.46875 5.890625 -14.226562 5.890625 -13.75 C 5.890625 -13.601562 5.867188 -13.390625 5.828125 -13.109375 C 5.796875 -12.828125 5.78125 -12.617188 5.78125 -12.484375 C 5.78125 -12.273438 5.789062 -11.960938 5.8125 -11.546875 C 5.832031 -11.128906 5.84375 -10.820312 5.84375 -10.625 C 5.84375 -9.914062 5.769531 -8.863281 5.625 -7.46875 C 5.476562 -6.070312 5.40625 -5.023438 5.40625 -4.328125 C 5.40625 -3.960938 5.425781 -3.523438 5.46875 -3.015625 C 5.519531 -2.503906 5.550781 -2.082031 5.5625 -1.75 L 6.53125 -1.765625 C 6.789062 -1.765625 7.003906 -1.679688 7.171875 -1.515625 C 7.347656 -1.347656 7.4375 -1.132812 7.4375 -0.875 C 7.4375 -0.613281 7.347656 -0.398438 7.171875 -0.234375 C 7.003906 -0.0664062 6.789062 0.015625 6.53125 0.015625 Z M 6.53125 0.015625 "
           id="path30" />
      </symbol>
      <symbol
         overflow="visible"
         id="glyph0-8">
        <path
           style="stroke:none;"
           d="M 9.359375 0.015625 C 9.203125 0.015625 8.984375 -0.03125 8.703125 -0.125 C 8.421875 -0.21875 8.203125 -0.265625 8.046875 -0.265625 C 7.734375 -0.265625 7.257812 -0.242188 6.625 -0.203125 C 6 -0.171875 5.523438 -0.15625 5.203125 -0.15625 C 4.960938 -0.15625 4.601562 -0.125 4.125 -0.0625 C 3.65625 0 3.300781 0.03125 3.0625 0.03125 C 2.988281 0.03125 2.882812 0.0195312 2.75 0 C 2.625 -0.03125 2.53125 -0.046875 2.46875 -0.046875 C 2.039062 -0.046875 1.765625 -0.253906 1.640625 -0.671875 C 1.554688 -0.890625 1.515625 -1.257812 1.515625 -1.78125 C 1.515625 -3.21875 1.910156 -4.378906 2.703125 -5.265625 C 3.054688 -5.660156 4.023438 -6.398438 5.609375 -7.484375 C 6.492188 -8.085938 7.082031 -8.5625 7.375 -8.90625 C 7.90625 -9.5 8.171875 -10.195312 8.171875 -11 C 8.171875 -11.394531 7.914062 -11.742188 7.40625 -12.046875 C 6.945312 -12.328125 6.503906 -12.46875 6.078125 -12.46875 C 5.503906 -12.46875 4.960938 -12.304688 4.453125 -11.984375 L 3.125 -10.9375 C 2.863281 -10.726562 2.648438 -10.625 2.484375 -10.625 C 1.847656 -10.625 1.53125 -10.878906 1.53125 -11.390625 C 1.53125 -11.671875 1.648438 -11.921875 1.890625 -12.140625 C 2.609375 -12.816406 3.234375 -13.304688 3.765625 -13.609375 C 4.515625 -14.035156 5.285156 -14.25 6.078125 -14.25 C 7.078125 -14.25 7.972656 -13.976562 8.765625 -13.4375 C 9.640625 -12.820312 10.078125 -12.035156 10.078125 -11.078125 C 10.078125 -10.441406 9.984375 -9.859375 9.796875 -9.328125 C 9.617188 -8.796875 9.347656 -8.3125 8.984375 -7.875 C 8.523438 -7.320312 7.742188 -6.703125 6.640625 -6.015625 C 5.472656 -5.285156 4.707031 -4.726562 4.34375 -4.34375 C 3.65625 -3.632812 3.316406 -2.773438 3.328125 -1.765625 L 5.234375 -1.9375 C 6.546875 -2.007812 7.484375 -2.046875 8.046875 -2.046875 C 8.523438 -2.046875 8.972656 -1.96875 9.390625 -1.8125 C 9.941406 -1.59375 10.21875 -1.289062 10.21875 -0.90625 C 10.21875 -0.664062 10.132812 -0.453125 9.96875 -0.265625 C 9.800781 -0.078125 9.597656 0.015625 9.359375 0.015625 Z M 9.359375 0.015625 "
           id="path33" />
      </symbol>
      <symbol
         overflow="visible"
         id="glyph1-0">
        <path
           style="stroke:none;"
           d="M 1.5 0 L 1.5 -19.203125 L 10.5 -19.203125 L 10.5 0 Z M 3 -1.5 L 9 -1.5 L 9 -17.703125 L 3 -17.703125 Z M 3 -1.5 "
           id="path36" />
      </symbol>
      <symbol
         overflow="visible"
         id="glyph1-1">
        <path
           style="stroke:none;"
           d="M 15.96875 -14.796875 C 15.382812 -14.796875 14.492188 -14.84375 13.296875 -14.9375 C 12.117188 -15.03125 11.226562 -15.070312 10.625 -15.0625 L 9.78125 -15.0625 C 9.8125 -13.976562 9.921875 -12.226562 10.109375 -9.8125 C 10.273438 -7.550781 10.359375 -5.796875 10.359375 -4.546875 C 10.359375 -4.273438 10.382812 -3.859375 10.4375 -3.296875 C 10.5 -2.742188 10.53125 -2.328125 10.53125 -2.046875 C 10.53125 -1.515625 10.441406 -1.0625 10.265625 -0.6875 C 10.046875 -0.164062 9.707031 0.09375 9.25 0.09375 C 8.9375 0.09375 8.65625 -0.015625 8.40625 -0.234375 C 8.15625 -0.453125 8.03125 -0.734375 8.03125 -1.078125 C 8.03125 -1.191406 8.046875 -1.363281 8.078125 -1.59375 C 8.117188 -1.832031 8.140625 -2.015625 8.140625 -2.140625 C 8.140625 -2.515625 8.113281 -3.082031 8.0625 -3.84375 C 8.019531 -4.613281 8 -5.195312 8 -5.59375 C 8 -6.707031 7.90625 -8.273438 7.71875 -10.296875 C 7.53125 -12.484375 7.425781 -14.054688 7.40625 -15.015625 L 6.34375 -15 C 4.632812 -15 3.289062 -15.125 2.3125 -15.375 C 1.675781 -15.539062 1.359375 -15.925781 1.359375 -16.53125 C 1.359375 -16.851562 1.460938 -17.132812 1.671875 -17.375 C 1.898438 -17.65625 2.195312 -17.78125 2.5625 -17.75 C 2.84375 -17.738281 3.46875 -17.671875 4.4375 -17.546875 C 5.21875 -17.453125 5.851562 -17.40625 6.34375 -17.40625 C 6.8125 -17.40625 7.519531 -17.414062 8.46875 -17.4375 C 9.425781 -17.457031 10.140625 -17.46875 10.609375 -17.46875 C 11.210938 -17.46875 12.101562 -17.421875 13.28125 -17.328125 C 14.46875 -17.242188 15.363281 -17.203125 15.96875 -17.203125 C 16.300781 -17.203125 16.578125 -17.085938 16.796875 -16.859375 C 17.023438 -16.628906 17.140625 -16.34375 17.140625 -16 C 17.140625 -15.664062 17.023438 -15.378906 16.796875 -15.140625 C 16.578125 -14.910156 16.300781 -14.796875 15.96875 -14.796875 Z M 15.96875 -14.796875 "
           id="path39" />
      </symbol>
      <symbol
         overflow="visible"
         id="glyph2-0">
        <path
           style="stroke:none;"
           d="M 0 -1.5 L -19.203125 -1.5 L -19.203125 -10.5 L 0 -10.5 Z M -1.5 -3 L -1.5 -9 L -17.703125 -9 L -17.703125 -3 Z M -1.5 -3 "
           id="path42" />
      </symbol>
      <symbol
         overflow="visible"
         id="glyph2-1">
        <path
           style="stroke:none;"
           d="M -16.484375 -9.5 C -16.484375 -7.613281 -15.171875 -6.554688 -12.546875 -6.328125 L -11.8125 -6.296875 C -11.90625 -7.617188 -11.953125 -8.476562 -11.953125 -8.875 C -11.953125 -10.113281 -11.5625 -10.734375 -10.78125 -10.734375 C -10.207031 -10.734375 -9.867188 -10.429688 -9.765625 -9.828125 C -9.710938 -9.554688 -9.691406 -9.242188 -9.703125 -8.890625 C -9.722656 -8.535156 -9.671875 -7.632812 -9.546875 -6.1875 L -6.875 -6.09375 C -6.394531 -6.09375 -5.671875 -6.109375 -4.703125 -6.140625 C -3.734375 -6.171875 -3.007812 -6.1875 -2.53125 -6.1875 C -1.050781 -6.1875 0.101562 -6.101562 0.9375 -5.9375 C 1.5625 -5.800781 1.875 -5.4375 1.875 -4.84375 C 1.875 -4.519531 1.769531 -4.242188 1.5625 -4.015625 C 1.351562 -3.796875 1.09375 -3.6875 0.78125 -3.6875 C 0.71875 -3.6875 0.640625 -3.691406 0.546875 -3.703125 C -0.460938 -3.867188 -1.566406 -3.953125 -2.765625 -3.953125 L -5.96875 -3.921875 L -9.359375 -3.921875 C -9.285156 -2.941406 -9.25 -2.320312 -9.25 -2.0625 C -9.25 -1.269531 -9.628906 -0.875 -10.390625 -0.875 C -11.160156 -0.875 -11.566406 -1.5625 -11.609375 -2.9375 L -11.640625 -4.0625 C -12.078125 -4.082031 -12.671875 -4.140625 -13.421875 -4.234375 C -15.148438 -4.429688 -16.425781 -4.867188 -17.25 -5.546875 C -18.238281 -6.359375 -18.734375 -7.628906 -18.734375 -9.359375 C -18.734375 -10.472656 -18.359375 -11.03125 -17.609375 -11.03125 C -16.859375 -11.03125 -16.484375 -10.519531 -16.484375 -9.5 Z M -16.484375 -9.5 "
           id="path45" />
      </symbol>
      <symbol
         overflow="visible"
         id="glyph2-2">
        <path
           style="stroke:none;"
           d="M -8.65625 -10.75 C -7.6875 -10.695312 -7.203125 -10.304688 -7.203125 -9.578125 C -7.203125 -8.898438 -7.585938 -8.5625 -8.359375 -8.5625 C -8.503906 -8.5625 -8.773438 -8.550781 -9.171875 -8.53125 L -10.15625 -8.5 C -10.007812 -7.257812 -9.664062 -6.269531 -9.125 -5.53125 C -8.613281 -4.832031 -7.847656 -4.253906 -6.828125 -3.796875 L -0.40625 -3.828125 C 0.382812 -3.828125 0.78125 -3.4375 0.78125 -2.65625 C 0.78125 -1.96875 0.382812 -1.625 -0.40625 -1.625 L -8.625 -1.625 C -8.882812 -1.625 -9.269531 -1.632812 -9.78125 -1.65625 C -10.300781 -1.675781 -10.691406 -1.6875 -10.953125 -1.6875 C -11.734375 -1.6875 -12.125 -2.03125 -12.125 -2.71875 C -12.125 -3.488281 -11.476562 -3.875 -10.1875 -3.875 C -11.632812 -5.375 -12.359375 -7.039062 -12.359375 -8.875 C -12.359375 -9.507812 -12.117188 -9.984375 -11.640625 -10.296875 C -11.160156 -10.609375 -10.441406 -10.765625 -9.484375 -10.765625 C -9.078125 -10.765625 -8.800781 -10.757812 -8.65625 -10.75 Z M -8.65625 -10.75 "
           id="path48" />
      </symbol>
      <symbol
         overflow="visible"
         id="glyph2-3">
        <path
           style="stroke:none;"
           d="M 0.78125 -10.78125 C 0.78125 -10.632812 0.609375 -10.363281 0.265625 -9.96875 C -0.0546875 -9.625 -0.34375 -9.363281 -0.59375 -9.1875 C -0.1875 -8.4375 0.117188 -7.773438 0.328125 -7.203125 C 0.535156 -6.640625 0.640625 -6.164062 0.640625 -5.78125 C 0.640625 -3.945312 0.117188 -2.613281 -0.921875 -1.78125 C -1.890625 -0.988281 -3.375 -0.59375 -5.375 -0.59375 C -7.257812 -0.59375 -8.875 -1.242188 -10.21875 -2.546875 C -11.5625 -3.847656 -12.234375 -5.398438 -12.234375 -7.203125 C -12.234375 -7.890625 -12.054688 -8.65625 -11.703125 -9.5 C -11.265625 -10.5625 -10.738281 -11.09375 -10.125 -11.09375 C -9.914062 -11.09375 -9.726562 -11.015625 -9.5625 -10.859375 C -9.269531 -10.773438 -8.78125 -10.710938 -8.09375 -10.671875 C -7.414062 -10.628906 -6.546875 -10.601562 -5.484375 -10.59375 C -4.515625 -10.582031 -3.75 -10.648438 -3.1875 -10.796875 C -2.84375 -10.867188 -2.15625 -11.113281 -1.125 -11.53125 C -0.988281 -11.582031 -0.78125 -11.671875 -0.5 -11.796875 L -0.3125 -11.875 C 0.0078125 -11.875 0.269531 -11.765625 0.46875 -11.546875 C 0.675781 -11.328125 0.78125 -11.070312 0.78125 -10.78125 Z M -7.375 -8.34375 C -7.707031 -8.34375 -8.070312 -8.363281 -8.46875 -8.40625 C -8.863281 -8.445312 -9.285156 -8.515625 -9.734375 -8.609375 C -9.878906 -8.316406 -9.984375 -8.066406 -10.046875 -7.859375 C -10.117188 -7.648438 -10.15625 -7.484375 -10.15625 -7.359375 C -10.15625 -6.148438 -9.660156 -5.101562 -8.671875 -4.21875 C -7.691406 -3.34375 -6.554688 -2.90625 -5.265625 -2.90625 C -3.984375 -2.90625 -3.019531 -3.128906 -2.375 -3.578125 C -1.738281 -4.035156 -1.421875 -4.71875 -1.421875 -5.625 C -1.421875 -6.375 -1.554688 -7.007812 -1.828125 -7.53125 C -1.972656 -7.8125 -2.269531 -8.207031 -2.71875 -8.71875 C -4.789062 -8.46875 -6.34375 -8.34375 -7.375 -8.34375 Z M -7.375 -8.34375 "
           id="path51" />
      </symbol>
      <symbol
         overflow="visible"
         id="glyph2-4">
        <path
           style="stroke:none;"
           d="M 0.734375 -6.921875 C 0.734375 -5.328125 0.25 -3.992188 -0.71875 -2.921875 C -1.726562 -1.796875 -3.066406 -1.234375 -4.734375 -1.234375 C -6.316406 -1.234375 -7.953125 -1.757812 -9.640625 -2.8125 C -11.515625 -3.988281 -12.453125 -5.3125 -12.453125 -6.78125 C -12.453125 -7.539062 -12.273438 -8.394531 -11.921875 -9.34375 C -11.460938 -10.539062 -10.898438 -11.140625 -10.234375 -11.140625 C -9.929688 -11.140625 -9.664062 -11.039062 -9.4375 -10.84375 C -9.207031 -10.644531 -9.09375 -10.398438 -9.09375 -10.109375 C -9.09375 -9.890625 -9.160156 -9.691406 -9.296875 -9.515625 C -9.429688 -9.347656 -9.566406 -9.1875 -9.703125 -9.03125 C -10.066406 -8.570312 -10.25 -7.820312 -10.25 -6.78125 C -10.25 -5.976562 -9.539062 -5.1875 -8.125 -4.40625 C -6.820312 -3.695312 -5.691406 -3.34375 -4.734375 -3.34375 C -3.703125 -3.34375 -2.890625 -3.691406 -2.296875 -4.390625 C -1.742188 -5.046875 -1.46875 -5.890625 -1.46875 -6.921875 C -1.46875 -7.390625 -1.59375 -7.890625 -1.84375 -8.421875 L -2.5625 -9.78125 C -2.6875 -10.019531 -2.75 -10.191406 -2.75 -10.296875 C -2.75 -10.578125 -2.632812 -10.820312 -2.40625 -11.03125 C -2.175781 -11.25 -1.914062 -11.359375 -1.625 -11.359375 C -1.050781 -11.359375 -0.5 -10.753906 0.03125 -9.546875 C 0.5 -8.492188 0.734375 -7.617188 0.734375 -6.921875 Z M 0.734375 -6.921875 "
           id="path54" />
      </symbol>
      <symbol
         overflow="visible"
         id="glyph2-5">
        <path
           style="stroke:none;"
           d="M -9.984375 -9.46875 C -9.984375 -9.300781 -9.988281 -9.109375 -10 -8.890625 C -10.019531 -8.671875 -10.03125 -8.476562 -10.03125 -8.3125 C -10.03125 -8.132812 -9.972656 -7.601562 -9.859375 -6.71875 L -2.9375 -6.9375 L -2.421875 -6.953125 L -1.8125 -6.96875 C -0.101562 -7 0.75 -6.585938 0.75 -5.734375 C 0.75 -5.421875 0.644531 -5.148438 0.4375 -4.921875 C 0.238281 -4.691406 -0.0078125 -4.578125 -0.3125 -4.578125 C -0.613281 -4.578125 -1.0625 -4.585938 -1.65625 -4.609375 C -2.25 -4.628906 -2.691406 -4.640625 -2.984375 -4.640625 L -9.828125 -4.40625 C -9.859375 -3.832031 -9.925781 -2.96875 -10.03125 -1.8125 C -10.125 -1.113281 -10.507812 -0.765625 -11.1875 -0.765625 C -11.53125 -0.765625 -11.816406 -0.867188 -12.046875 -1.078125 C -12.273438 -1.285156 -12.390625 -1.554688 -12.390625 -1.890625 L -12.1875 -4.34375 C -12.582031 -4.34375 -13.113281 -4.328125 -13.78125 -4.296875 C -14.457031 -4.265625 -14.941406 -4.25 -15.234375 -4.25 C -15.566406 -4.25 -15.835938 -4.359375 -16.046875 -4.578125 C -16.265625 -4.804688 -16.375 -5.085938 -16.375 -5.421875 C -16.375 -6.117188 -15.800781 -6.523438 -14.65625 -6.640625 C -14.363281 -6.671875 -14.015625 -6.6875 -13.609375 -6.6875 L -12.921875 -6.65625 L -12.203125 -6.640625 C -12.328125 -7.609375 -12.390625 -8.164062 -12.390625 -8.3125 C -12.390625 -9.125 -12.347656 -9.65625 -12.265625 -9.90625 C -12.109375 -10.382812 -11.742188 -10.625 -11.171875 -10.625 C -10.828125 -10.625 -10.539062 -10.515625 -10.3125 -10.296875 C -10.09375 -10.078125 -9.984375 -9.800781 -9.984375 -9.46875 Z M -9.984375 -9.46875 "
           id="path57" />
      </symbol>
      <symbol
         overflow="visible"
         id="glyph2-6">
        <path
           style="stroke:none;"
           d="M -14.84375 -3.875 C -14.84375 -3.5 -14.972656 -3.171875 -15.234375 -2.890625 C -15.503906 -2.617188 -15.828125 -2.484375 -16.203125 -2.484375 C -16.578125 -2.484375 -16.894531 -2.617188 -17.15625 -2.890625 C -17.425781 -3.171875 -17.5625 -3.5 -17.5625 -3.875 C -17.5625 -4.25 -17.425781 -4.566406 -17.15625 -4.828125 C -16.894531 -5.097656 -16.578125 -5.234375 -16.203125 -5.234375 C -15.828125 -5.234375 -15.503906 -5.097656 -15.234375 -4.828125 C -14.972656 -4.566406 -14.84375 -4.25 -14.84375 -3.875 Z M -5.328125 -4.390625 C -4.859375 -4.390625 -4.15625 -4.40625 -3.21875 -4.4375 C -2.28125 -4.46875 -1.578125 -4.484375 -1.109375 -4.484375 C -0.765625 -4.484375 -0.484375 -4.375 -0.265625 -4.15625 C -0.046875 -3.945312 0.0625 -3.671875 0.0625 -3.328125 C 0.0625 -2.992188 -0.046875 -2.71875 -0.265625 -2.5 C -0.484375 -2.289062 -0.765625 -2.1875 -1.109375 -2.1875 C -1.578125 -2.1875 -2.28125 -2.171875 -3.21875 -2.140625 C -4.15625 -2.109375 -4.859375 -2.09375 -5.328125 -2.09375 C -6.054688 -2.09375 -6.96875 -2.128906 -8.0625 -2.203125 C -9.164062 -2.285156 -10.082031 -2.328125 -10.8125 -2.328125 C -11.164062 -2.328125 -11.453125 -2.4375 -11.671875 -2.65625 C -11.890625 -2.875 -12 -3.148438 -12 -3.484375 C -12 -3.816406 -11.890625 -4.085938 -11.671875 -4.296875 C -11.453125 -4.515625 -11.164062 -4.625 -10.8125 -4.625 C -10.082031 -4.625 -9.164062 -4.582031 -8.0625 -4.5 C -6.96875 -4.425781 -6.054688 -4.390625 -5.328125 -4.390625 Z M -5.328125 -4.390625 "
           id="path60" />
      </symbol>
      <symbol
         overflow="visible"
         id="glyph2-7">
        <path
           style="stroke:none;"
           d="M 0.6875 -6.03125 C 0.6875 -4.71875 0.203125 -3.585938 -0.765625 -2.640625 C -1.835938 -1.585938 -3.285156 -1.03125 -5.109375 -0.96875 C -6.878906 -0.925781 -8.4375 -1.375 -9.78125 -2.3125 C -11.363281 -3.40625 -12.15625 -4.925781 -12.15625 -6.875 C -12.15625 -8.4375 -11.441406 -9.625 -10.015625 -10.4375 C -8.859375 -11.070312 -7.46875 -11.378906 -5.84375 -11.359375 C -4.101562 -11.335938 -2.617188 -10.882812 -1.390625 -10 C -0.00390625 -9 0.6875 -7.675781 0.6875 -6.03125 Z M -9.78125 -6.734375 C -9.78125 -5.578125 -9.234375 -4.679688 -8.140625 -4.046875 C -7.253906 -3.535156 -6.242188 -3.28125 -5.109375 -3.28125 C -3.972656 -3.28125 -3.09375 -3.585938 -2.46875 -4.203125 C -1.9375 -4.722656 -1.671875 -5.332031 -1.671875 -6.03125 C -1.671875 -6.84375 -1.96875 -7.539062 -2.5625 -8.125 C -3.21875 -8.789062 -4.109375 -9.140625 -5.234375 -9.171875 C -8.253906 -9.285156 -9.769531 -8.472656 -9.78125 -6.734375 Z M -9.78125 -6.734375 "
           id="path63" />
      </symbol>
      <symbol
         overflow="visible"
         id="glyph2-8">
        <path
           style="stroke:none;"
           d="M 0.828125 -10.625 C 0.828125 -9.945312 0.460938 -9.566406 -0.265625 -9.484375 L -2.84375 -9.15625 C -3.75 -9.039062 -4.601562 -8.984375 -5.40625 -8.984375 C -5.625 -8.984375 -5.992188 -9 -6.515625 -9.03125 C -7.035156 -9.0625 -7.40625 -9.078125 -7.625 -9.078125 C -9.3125 -9.078125 -10.15625 -8.765625 -10.15625 -8.140625 C -10.15625 -7.265625 -9.640625 -6.425781 -8.609375 -5.625 C -7.660156 -4.90625 -6.460938 -4.34375 -5.015625 -3.9375 C -4.710938 -3.925781 -4.332031 -3.890625 -3.875 -3.828125 C -3.476562 -3.785156 -3.097656 -3.765625 -2.734375 -3.765625 C -2.492188 -3.765625 -2.140625 -3.785156 -1.671875 -3.828125 C -1.203125 -3.878906 -0.851562 -3.90625 -0.625 -3.90625 C -0.269531 -3.90625 0.015625 -3.796875 0.234375 -3.578125 C 0.453125 -3.367188 0.5625 -3.09375 0.5625 -2.75 C 0.5625 -2.40625 0.453125 -2.128906 0.234375 -1.921875 C 0.015625 -1.710938 -0.269531 -1.609375 -0.625 -1.609375 C -0.851562 -1.609375 -1.203125 -1.582031 -1.671875 -1.53125 C -2.140625 -1.476562 -2.492188 -1.453125 -2.734375 -1.453125 C -3.535156 -1.453125 -4.648438 -1.507812 -6.078125 -1.625 C -7.503906 -1.738281 -8.617188 -1.796875 -9.421875 -1.796875 C -9.671875 -1.796875 -10.039062 -1.78125 -10.53125 -1.75 C -11.03125 -1.726562 -11.40625 -1.71875 -11.65625 -1.71875 C -11.988281 -1.71875 -12.257812 -1.828125 -12.46875 -2.046875 C -12.6875 -2.265625 -12.796875 -2.539062 -12.796875 -2.875 C -12.796875 -3.59375 -12.289062 -3.988281 -11.28125 -4.0625 L -9.90625 -4.09375 C -11.65625 -5.40625 -12.53125 -6.753906 -12.53125 -8.140625 C -12.53125 -9.390625 -11.976562 -10.257812 -10.875 -10.75 C -10.144531 -11.082031 -9.0625 -11.265625 -7.625 -11.296875 L -6.4375 -11.296875 L -5.34375 -11.28125 C -4.695312 -11.28125 -3.859375 -11.363281 -2.828125 -11.53125 C -1.804688 -11.707031 -0.972656 -11.796875 -0.328125 -11.796875 C 0.015625 -11.796875 0.289062 -11.679688 0.5 -11.453125 C 0.71875 -11.234375 0.828125 -10.957031 0.828125 -10.625 Z M 0.828125 -10.625 "
           id="path66" />
      </symbol>
      <symbol
         overflow="visible"
         id="glyph2-9">
        <path
           style="stroke:none;"
           d=""
           id="path69" />
      </symbol>
      <symbol
         overflow="visible"
         id="glyph2-10">
        <path
           style="stroke:none;"
           d="M -4.828125 -15.3125 C -4.828125 -14.476562 -4.945312 -13.757812 -5.1875 -13.15625 C -5.4375 -12.5625 -5.796875 -12.078125 -6.265625 -11.703125 C -5.859375 -11.285156 -5.546875 -10.875 -5.328125 -10.46875 C -5.117188 -10.070312 -5.015625 -9.679688 -5.015625 -9.296875 C -5.015625 -8.429688 -5.367188 -7.613281 -6.078125 -6.84375 C -6.785156 -6.070312 -7.5625 -5.6875 -8.40625 -5.6875 C -9.851562 -5.6875 -11.171875 -6.253906 -12.359375 -7.390625 C -13.554688 -8.523438 -14.15625 -9.816406 -14.15625 -11.265625 C -14.15625 -11.585938 -14.035156 -11.859375 -13.796875 -12.078125 C -13.554688 -12.296875 -13.265625 -12.40625 -12.921875 -12.40625 C -12.453125 -12.40625 -12.101562 -12.015625 -11.875 -11.234375 C -11.570312 -10.203125 -11.234375 -9.46875 -10.859375 -9.03125 C -10.296875 -8.40625 -9.476562 -8.09375 -8.40625 -8.09375 C -8.175781 -8.09375 -7.957031 -8.195312 -7.75 -8.40625 C -7.507812 -8.644531 -7.398438 -8.945312 -7.421875 -9.3125 C -7.453125 -9.988281 -8.082031 -10.613281 -9.3125 -11.1875 C -10.394531 -11.71875 -10.9375 -12.1875 -10.9375 -12.59375 C -10.9375 -12.914062 -10.8125 -13.175781 -10.5625 -13.375 C -10.320312 -13.582031 -10.03125 -13.6875 -9.6875 -13.6875 C -9.53125 -13.6875 -9.296875 -13.660156 -8.984375 -13.609375 C -8.671875 -13.554688 -8.4375 -13.53125 -8.28125 -13.53125 C -7.769531 -13.53125 -7.445312 -13.75 -7.3125 -14.1875 C -7.257812 -14.363281 -7.234375 -14.738281 -7.234375 -15.3125 C -7.234375 -16.375 -7.492188 -17.125 -8.015625 -17.5625 C -8.484375 -17.945312 -9.257812 -18.140625 -10.34375 -18.140625 C -12.257812 -18.140625 -13.820312 -17.367188 -15.03125 -15.828125 C -16.144531 -14.421875 -16.703125 -12.742188 -16.703125 -10.796875 C -16.703125 -8.523438 -15.84375 -6.742188 -14.125 -5.453125 C -12.59375 -4.285156 -10.664062 -3.703125 -8.34375 -3.703125 C -6.207031 -3.703125 -4.40625 -4.382812 -2.9375 -5.75 C -1.40625 -7.175781 -0.640625 -9.003906 -0.640625 -11.234375 C -0.640625 -11.867188 -0.757812 -12.585938 -1 -13.390625 L -1.765625 -15.4375 C -1.890625 -15.78125 -1.953125 -16.003906 -1.953125 -16.109375 C -1.953125 -16.421875 -1.820312 -16.691406 -1.5625 -16.921875 C -1.3125 -17.160156 -1.019531 -17.28125 -0.6875 -17.28125 C 0.0625 -17.28125 0.664062 -16.453125 1.125 -14.796875 C 1.46875 -13.535156 1.640625 -12.359375 1.640625 -11.265625 C 1.640625 -10.160156 1.425781 -9.03125 1 -7.875 C 0.570312 -6.726562 0.00390625 -5.742188 -0.703125 -4.921875 C -2.796875 -2.503906 -5.34375 -1.296875 -8.34375 -1.296875 C -11.34375 -1.296875 -13.851562 -2.125 -15.875 -3.78125 C -18.03125 -5.53125 -19.109375 -7.867188 -19.109375 -10.796875 C -19.109375 -13.429688 -18.3125 -15.691406 -16.71875 -17.578125 C -15.039062 -19.554688 -12.914062 -20.546875 -10.34375 -20.546875 C -8.59375 -20.546875 -7.242188 -20.113281 -6.296875 -19.25 C -5.316406 -18.351562 -4.828125 -17.039062 -4.828125 -15.3125 Z M -4.828125 -15.3125 "
           id="path72" />
      </symbol>
      <symbol
         overflow="visible"
         id="glyph2-11">
        <path
           style="stroke:none;"
           d="M 0.96875 -16.515625 C 0.96875 -15.867188 0.628906 -15.492188 -0.046875 -15.390625 C -0.910156 -15.242188 -2.125 -15.101562 -3.6875 -14.96875 L -7.3125 -14.5625 C -7.851562 -14.488281 -8.378906 -14.359375 -8.890625 -14.171875 C -9.597656 -13.898438 -9.953125 -13.609375 -9.953125 -13.296875 C -9.953125 -13.015625 -9.707031 -12.476562 -9.21875 -11.6875 C -8.757812 -10.9375 -8.394531 -10.441406 -8.125 -10.203125 C -7.382812 -10.203125 -6.648438 -10.222656 -5.921875 -10.265625 L -2.796875 -10.625 C -1.554688 -10.769531 -0.535156 -10.84375 0.265625 -10.84375 C 0.609375 -10.84375 0.890625 -10.734375 1.109375 -10.515625 C 1.335938 -10.304688 1.453125 -10.03125 1.453125 -9.6875 C 1.453125 -9.351562 1.335938 -9.078125 1.109375 -8.859375 C 0.890625 -8.648438 0.609375 -8.546875 0.265625 -8.546875 C -0.679688 -8.546875 -2.078125 -8.445312 -3.921875 -8.25 C -5.765625 -8.0625 -7.160156 -7.96875 -8.109375 -7.96875 C -8.941406 -7.96875 -9.585938 -7.851562 -10.046875 -7.625 C -9.796875 -7.070312 -9.390625 -6.515625 -8.828125 -5.953125 L -7.28125 -4.578125 C -7.09375 -4.453125 -6.847656 -4.25 -6.546875 -3.96875 C -6.078125 -3.96875 -5.382812 -3.925781 -4.46875 -3.84375 C -3.550781 -3.757812 -2.875 -3.71875 -2.4375 -3.71875 C -2.207031 -3.71875 -1.878906 -3.753906 -1.453125 -3.828125 C -1.035156 -3.898438 -0.734375 -3.9375 -0.546875 -3.9375 C -0.222656 -3.9375 0.046875 -3.816406 0.265625 -3.578125 C 0.484375 -3.335938 0.59375 -3.0625 0.59375 -2.75 C 0.59375 -1.863281 -0.410156 -1.421875 -2.421875 -1.421875 C -2.890625 -1.421875 -3.585938 -1.460938 -4.515625 -1.546875 C -5.441406 -1.628906 -6.140625 -1.671875 -6.609375 -1.671875 C -7.023438 -1.671875 -7.644531 -1.632812 -8.46875 -1.5625 C -9.300781 -1.488281 -9.925781 -1.453125 -10.34375 -1.453125 C -12.125 -1.453125 -13.015625 -1.851562 -13.015625 -2.65625 C -13.015625 -2.957031 -12.878906 -3.234375 -12.609375 -3.484375 C -12.347656 -3.742188 -12.0625 -3.875 -11.75 -3.875 C -11.59375 -3.875 -11.359375 -3.851562 -11.046875 -3.8125 C -10.734375 -3.769531 -10.5 -3.75 -10.34375 -3.75 L -9.109375 -3.78125 C -9.941406 -4.1875 -10.695312 -4.78125 -11.375 -5.5625 C -12.050781 -6.351562 -12.390625 -7.023438 -12.390625 -7.578125 C -12.390625 -8.804688 -11.78125 -9.648438 -10.5625 -10.109375 C -11.132812 -10.546875 -11.5625 -11.0625 -11.84375 -11.65625 C -12.125 -12.25 -12.265625 -12.925781 -12.265625 -13.6875 C -12.265625 -14.988281 -11.5625 -15.878906 -10.15625 -16.359375 C -9.875 -16.453125 -8.78125 -16.613281 -6.875 -16.84375 C -5.53125 -17.0625 -3.289062 -17.34375 -0.15625 -17.6875 C 0.15625 -17.707031 0.421875 -17.597656 0.640625 -17.359375 C 0.859375 -17.128906 0.96875 -16.847656 0.96875 -16.515625 Z M 0.96875 -16.515625 "
           id="path75" />
      </symbol>
      <symbol
         overflow="visible"
         id="glyph2-12">
        <path
           style="stroke:none;"
           d="M 0.484375 -11.390625 C 0.484375 -10.960938 0.253906 -10.628906 -0.203125 -10.390625 C -0.992188 -9.984375 -1.925781 -9.375 -3 -8.5625 L -5.828125 -6.484375 C -5.460938 -6.023438 -4.957031 -5.320312 -4.3125 -4.375 C -3.101562 -4.289062 -1.925781 -4.25 -0.78125 -4.25 C -0.425781 -4.25 -0.140625 -4.140625 0.078125 -3.921875 C 0.296875 -3.703125 0.40625 -3.425781 0.40625 -3.09375 C 0.40625 -2.300781 -0.125 -1.90625 -1.1875 -1.90625 C -1.832031 -1.90625 -2.800781 -1.953125 -4.09375 -2.046875 C -5.382812 -2.140625 -6.359375 -2.1875 -7.015625 -2.1875 C -8.203125 -2.1875 -9.554688 -2.203125 -11.078125 -2.234375 C -12.609375 -2.265625 -13.957031 -2.28125 -15.125 -2.28125 C -15.476562 -2.28125 -15.894531 -2.265625 -16.375 -2.234375 C -16.851562 -2.203125 -17.265625 -2.1875 -17.609375 -2.1875 C -17.960938 -2.1875 -18.25 -2.289062 -18.46875 -2.5 C -18.6875 -2.71875 -18.796875 -2.992188 -18.796875 -3.328125 C -18.796875 -3.660156 -18.6875 -3.9375 -18.46875 -4.15625 C -18.25 -4.375 -17.960938 -4.484375 -17.609375 -4.484375 C -17.253906 -4.484375 -16.832031 -4.5 -16.34375 -4.53125 C -15.851562 -4.570312 -15.429688 -4.59375 -15.078125 -4.59375 L -11.296875 -4.515625 C -9.941406 -4.472656 -8.582031 -4.460938 -7.21875 -4.484375 C -8.03125 -5.546875 -8.921875 -6.566406 -9.890625 -7.546875 L -12.546875 -10.125 C -12.816406 -10.382812 -12.953125 -10.660156 -12.953125 -10.953125 C -12.953125 -11.265625 -12.828125 -11.539062 -12.578125 -11.78125 C -12.335938 -12.03125 -12.0625 -12.15625 -11.75 -12.15625 C -11.476562 -12.15625 -11.210938 -12.039062 -10.953125 -11.8125 C -9.828125 -10.851562 -8.625 -9.671875 -7.34375 -8.265625 L -3.859375 -10.8125 C -2.222656 -12.007812 -1.160156 -12.609375 -0.671875 -12.609375 C -0.359375 -12.609375 -0.0859375 -12.484375 0.140625 -12.234375 C 0.367188 -11.992188 0.484375 -11.710938 0.484375 -11.390625 Z M 0.484375 -11.390625 "
           id="path78" />
      </symbol>
      <symbol
         overflow="visible"
         id="glyph2-13">
        <path
           style="stroke:none;"
           d="M 0.546875 -7.109375 C 0.546875 -5.335938 0.101562 -3.90625 -0.78125 -2.8125 C -1.757812 -1.613281 -3.128906 -1.015625 -4.890625 -1.015625 C -6.921875 -1.015625 -8.625 -1.507812 -10 -2.5 C -11.5 -3.570312 -12.25 -5 -12.25 -6.78125 C -12.25 -8.082031 -12.03125 -9.144531 -11.59375 -9.96875 C -11.050781 -10.96875 -10.222656 -11.46875 -9.109375 -11.46875 C -8.328125 -11.46875 -7.613281 -11.03125 -6.96875 -10.15625 C -6.6875 -9.757812 -6.25 -8.929688 -5.65625 -7.671875 L -3.546875 -3.1875 C -2.890625 -3.625 -2.394531 -4.164062 -2.0625 -4.8125 C -1.738281 -5.46875 -1.578125 -6.234375 -1.578125 -7.109375 C -1.578125 -7.640625 -1.679688 -8.269531 -1.890625 -9 C -2.148438 -9.925781 -2.488281 -10.519531 -2.90625 -10.78125 C -3.320312 -11.050781 -3.53125 -11.335938 -3.53125 -11.640625 C -3.53125 -11.910156 -3.425781 -12.148438 -3.21875 -12.359375 C -3.007812 -12.578125 -2.769531 -12.6875 -2.5 -12.6875 C -1.632812 -12.6875 -0.890625 -11.988281 -0.265625 -10.59375 C 0.273438 -9.394531 0.546875 -8.234375 0.546875 -7.109375 Z M -10.140625 -6.78125 C -10.140625 -5.832031 -9.769531 -5.039062 -9.03125 -4.40625 C -8.289062 -3.769531 -7.179688 -3.296875 -5.703125 -2.984375 L -7.40625 -6.59375 C -8.09375 -8 -8.691406 -9.003906 -9.203125 -9.609375 C -9.828125 -8.941406 -10.140625 -8 -10.140625 -6.78125 Z M -10.140625 -6.78125 "
           id="path81" />
      </symbol>
      <symbol
         overflow="visible"
         id="glyph2-14">
        <path
           style="stroke:none;"
           d="M 0.015625 -8.25 L 0.015625 -5.921875 L 0 -3.59375 C 0 -3.050781 -0.0351562 -2.671875 -0.109375 -2.453125 C -0.242188 -2.054688 -0.539062 -1.859375 -1 -1.859375 C -1.789062 -1.859375 -2.1875 -2.46875 -2.1875 -3.6875 L -2.171875 -4.25 L -2.140625 -4.734375 C -2.515625 -4.734375 -3.066406 -4.695312 -3.796875 -4.625 C -4.535156 -4.5625 -5.09375 -4.53125 -5.46875 -4.53125 C -6.457031 -4.53125 -7.960938 -4.625 -9.984375 -4.8125 C -11.972656 -4.976562 -13.484375 -5.054688 -14.515625 -5.046875 C -13.703125 -4.003906 -13.296875 -3.335938 -13.296875 -3.046875 C -13.296875 -2.734375 -13.410156 -2.460938 -13.640625 -2.234375 C -13.878906 -2.003906 -14.15625 -1.890625 -14.46875 -1.890625 C -14.832031 -1.890625 -15.273438 -2.222656 -15.796875 -2.890625 C -16.097656 -3.316406 -16.578125 -3.914062 -17.234375 -4.6875 C -17.921875 -5.375 -18.265625 -6.03125 -18.265625 -6.65625 C -18.265625 -7.175781 -17.96875 -7.4375 -17.375 -7.4375 C -17.1875 -7.4375 -16.914062 -7.410156 -16.5625 -7.359375 C -16.207031 -7.316406 -15.941406 -7.296875 -15.765625 -7.296875 C -15.503906 -7.296875 -15.113281 -7.3125 -14.59375 -7.34375 C -14.070312 -7.375 -13.679688 -7.390625 -13.421875 -7.390625 C -12.523438 -7.390625 -11.191406 -7.296875 -9.421875 -7.109375 C -7.660156 -6.921875 -6.34375 -6.828125 -5.46875 -6.828125 C -5.007812 -6.828125 -4.457031 -6.859375 -3.8125 -6.921875 C -3.164062 -6.984375 -2.632812 -7.015625 -2.21875 -7.015625 L -2.234375 -8.25 C -2.234375 -8.582031 -2.125 -8.851562 -1.90625 -9.0625 C -1.695312 -9.28125 -1.429688 -9.390625 -1.109375 -9.390625 C -0.785156 -9.390625 -0.515625 -9.28125 -0.296875 -9.0625 C -0.0859375 -8.851562 0.015625 -8.582031 0.015625 -8.25 Z M 0.015625 -8.25 "
           id="path84" />
      </symbol>
    </g>
    <clipPath
       id="clip1">
      <path
         d="M 74.984375 5.480469 L 499 5.480469 L 499 455 L 74.984375 455 Z M 74.984375 5.480469 "
         id="path87" />
    </clipPath>
    <clipPath
       id="clip2">
      <path
         d="M 74.984375 411 L 499 411 L 499 412 L 74.984375 412 Z M 74.984375 411 "
         id="path90" />
    </clipPath>
    <clipPath
       id="clip3">
      <path
         d="M 74.984375 313 L 499 313 L 499 315 L 74.984375 315 Z M 74.984375 313 "
         id="path93" />
    </clipPath>
    <clipPath
       id="clip4">
      <path
         d="M 74.984375 216 L 499 216 L 499 217 L 74.984375 217 Z M 74.984375 216 "
         id="path96" />
    </clipPath>
    <clipPath
       id="clip5">
      <path
         d="M 74.984375 119 L 499 119 L 499 120 L 74.984375 120 Z M 74.984375 119 "
         id="path99" />
    </clipPath>
    <clipPath
       id="clip6">
      <path
         d="M 74.984375 21 L 499 21 L 499 23 L 74.984375 23 Z M 74.984375 21 "
         id="path102" />
    </clipPath>
    <clipPath
       id="clip7">
      <path
         d="M 82 5.480469 L 84 5.480469 L 84 455 L 82 455 Z M 82 5.480469 "
         id="path105" />
    </clipPath>
    <clipPath
       id="clip8">
      <path
         d="M 195 5.480469 L 197 5.480469 L 197 455 L 195 455 Z M 195 5.480469 "
         id="path108" />
    </clipPath>
    <clipPath
       id="clip9">
      <path
         d="M 309 5.480469 L 310 5.480469 L 310 455 L 309 455 Z M 309 5.480469 "
         id="path111" />
    </clipPath>
    <clipPath
       id="clip10">
      <path
         d="M 422 5.480469 L 423 5.480469 L 423 455 L 422 455 Z M 422 5.480469 "
         id="path114" />
    </clipPath>
    <clipPath
       id="clip11">
      <path
         d="M 74.984375 362 L 499.519531 362 L 499.519531 364 L 74.984375 364 Z M 74.984375 362 "
         id="path117" />
    </clipPath>
    <clipPath
       id="clip12">
      <path
         d="M 74.984375 264 L 499.519531 264 L 499.519531 266 L 74.984375 266 Z M 74.984375 264 "
         id="path120" />
    </clipPath>
    <clipPath
       id="clip13">
      <path
         d="M 74.984375 167 L 499.519531 167 L 499.519531 169 L 74.984375 169 Z M 74.984375 167 "
         id="path123" />
    </clipPath>
    <clipPath
       id="clip14">
      <path
         d="M 74.984375 70 L 499.519531 70 L 499.519531 72 L 74.984375 72 Z M 74.984375 70 "
         id="path126" />
    </clipPath>
    <clipPath
       id="clip15">
      <path
         d="M 139 5.480469 L 141 5.480469 L 141 455 L 139 455 Z M 139 5.480469 "
         id="path129" />
    </clipPath>
    <clipPath
       id="clip16">
      <path
         d="M 252 5.480469 L 254 5.480469 L 254 455 L 252 455 Z M 252 5.480469 "
         id="path132" />
    </clipPath>
    <clipPath
       id="clip17">
      <path
         d="M 365 5.480469 L 367 5.480469 L 367 455 L 365 455 Z M 365 5.480469 "
         id="path135" />
    </clipPath>
    <clipPath
       id="clip18">
      <path
         d="M 478 5.480469 L 480 5.480469 L 480 455 L 478 455 Z M 478 5.480469 "
         id="path138" />
    </clipPath>
  </defs>
  <path
     inkscape:connector-curvature="0"
     id="path145"
     d="M 0,504 504,504 504,0 0,0 z m 0,0"
     style="fill:none;stroke:#ffffff;stroke-width:1.06697798;stroke-linecap:round;stroke-linejoin:round;stroke-miterlimit:10;stroke-opacity:1" />
  <g
     id="g147"
     clip-rule="nonzero"
     clip-path="url(#clip1)">
    <path
       inkscape:connector-curvature="0"
       id="path149"
       d="m 74.984375,454.01562 423.535155,0 0,-448.535151 -423.535155,0 z m 0,0"
       style="fill:#ebebeb;fill-opacity:1;fill-rule:nonzero;stroke:none" />
  </g>
  <g
     id="g151"
     clip-rule="nonzero"
     clip-path="url(#clip2)">
    <path
       inkscape:connector-curvature="0"
       id="path153"
       d="m 74.984375,411.31641 423.535155,0"
       style="fill:none;stroke:#ffffff;stroke-width:0.53348899;stroke-linecap:butt;stroke-linejoin:round;stroke-miterlimit:10;stroke-opacity:1" />
  </g>
  <g
     id="g155"
     clip-rule="nonzero"
     clip-path="url(#clip3)">
    <path
       inkscape:connector-curvature="0"
       id="path157"
       d="m 74.984375,313.98828 423.535155,0"
       style="fill:none;stroke:#ffffff;stroke-width:0.53348899;stroke-linecap:butt;stroke-linejoin:round;stroke-miterlimit:10;stroke-opacity:1" />
  </g>
  <g
     id="g159"
     clip-rule="nonzero"
     clip-path="url(#clip4)">
    <path
       inkscape:connector-curvature="0"
       id="path161"
       d="m 74.984375,216.66016 423.535155,0"
       style="fill:none;stroke:#ffffff;stroke-width:0.53348899;stroke-linecap:butt;stroke-linejoin:round;stroke-miterlimit:10;stroke-opacity:1" />
  </g>
  <g
     id="g163"
     clip-rule="nonzero"
     clip-path="url(#clip5)">
    <path
       inkscape:connector-curvature="0"
       id="path165"
       d="m 74.984375,119.33203 423.535155,0"
       style="fill:none;stroke:#ffffff;stroke-width:0.53348899;stroke-linecap:butt;stroke-linejoin:round;stroke-miterlimit:10;stroke-opacity:1" />
  </g>
  <g
     id="g167"
     clip-rule="nonzero"
     clip-path="url(#clip6)">
    <path
       inkscape:connector-curvature="0"
       id="path169"
       d="m 74.984375,22.003906 423.535155,0"
       style="fill:none;stroke:#ffffff;stroke-width:0.53348899;stroke-linecap:butt;stroke-linejoin:round;stroke-miterlimit:10;stroke-opacity:1" />
  </g>
  <g
     id="g171"
     clip-rule="nonzero"
     clip-path="url(#clip7)">
    <path
       inkscape:connector-curvature="0"
       id="path173"
       d="m 82.914062,454.01562 0,-448.535151"
       style="fill:none;stroke:#ffffff;stroke-width:0.53348899;stroke-linecap:butt;stroke-linejoin:round;stroke-miterlimit:10;stroke-opacity:1" />
  </g>
  <g
     id="g175"
     clip-rule="nonzero"
     clip-path="url(#clip8)">
    <path
       inkscape:connector-curvature="0"
       id="path177"
       d="m 196.15625,454.01562 0,-448.535151"
       style="fill:none;stroke:#ffffff;stroke-width:0.53348899;stroke-linecap:butt;stroke-linejoin:round;stroke-miterlimit:10;stroke-opacity:1" />
  </g>
  <g
     id="g179"
     clip-rule="nonzero"
     clip-path="url(#clip9)">
    <path
       inkscape:connector-curvature="0"
       id="path181"
       d="m 309.40234,454.01562 0,-448.535151"
       style="fill:none;stroke:#ffffff;stroke-width:0.53348899;stroke-linecap:butt;stroke-linejoin:round;stroke-miterlimit:10;stroke-opacity:1" />
  </g>
  <g
     id="g183"
     clip-rule="nonzero"
     clip-path="url(#clip10)">
    <path
       inkscape:connector-curvature="0"
       id="path185"
       d="m 422.64844,454.01562 0,-448.535151"
       style="fill:none;stroke:#ffffff;stroke-width:0.53348899;stroke-linecap:butt;stroke-linejoin:round;stroke-miterlimit:10;stroke-opacity:1" />
  </g>
  <g
     id="g187"
     clip-rule="nonzero"
     clip-path="url(#clip11)">
    <path
       inkscape:connector-curvature="0"
       id="path189"
       d="m 74.984375,362.65234 423.535155,0"
       style="fill:none;stroke:#ffffff;stroke-width:1.06697798;stroke-linecap:butt;stroke-linejoin:round;stroke-miterlimit:10;stroke-opacity:1" />
  </g>
  <g
     id="g191"
     clip-rule="nonzero"
     clip-path="url(#clip12)">
    <path
       inkscape:connector-curvature="0"
       id="path193"
       d="m 74.984375,265.32422 423.535155,0"
       style="fill:none;stroke:#ffffff;stroke-width:1.06697798;stroke-linecap:butt;stroke-linejoin:round;stroke-miterlimit:10;stroke-opacity:1" />
  </g>
  <g
     id="g195"
     clip-rule="nonzero"
     clip-path="url(#clip13)">
    <path
       inkscape:connector-curvature="0"
       id="path197"
       d="m 74.984375,167.99609 423.535155,0"
       style="fill:none;stroke:#ffffff;stroke-width:1.06697798;stroke-linecap:butt;stroke-linejoin:round;stroke-miterlimit:10;stroke-opacity:1" />
  </g>
  <g
     id="g199"
     clip-rule="nonzero"
     clip-path="url(#clip14)">
    <path
       inkscape:connector-curvature="0"
       id="path201"
       d="m 74.984375,70.667969 423.535155,0"
       style="fill:none;stroke:#ffffff;stroke-width:1.06697798;stroke-linecap:butt;stroke-linejoin:round;stroke-miterlimit:10;stroke-opacity:1" />
  </g>
  <g
     id="g203"
     clip-rule="nonzero"
     clip-path="url(#clip15)">
    <path
       inkscape:connector-curvature="0"
       id="path205"
       d="m 139.53516,454.01562 0,-448.535151"
       style="fill:none;stroke:#ffffff;stroke-width:1.06697798;stroke-linecap:butt;stroke-linejoin:round;stroke-miterlimit:10;stroke-opacity:1" />
  </g>
  <g
     id="g207"
     clip-rule="nonzero"
     clip-path="url(#clip16)">
    <path
       inkscape:connector-curvature="0"
       id="path209"
       d="m 252.78125,454.01562 0,-448.535151"
       style="fill:none;stroke:#ffffff;stroke-width:1.06697798;stroke-linecap:butt;stroke-linejoin:round;stroke-miterlimit:10;stroke-opacity:1" />
  </g>
  <g
     id="g211"
     clip-rule="nonzero"
     clip-path="url(#clip17)">
    <path
       inkscape:connector-curvature="0"
       id="path213"
       d="m 366.02344,454.01562 0,-448.535151"
       style="fill:none;stroke:#ffffff;stroke-width:1.06697798;stroke-linecap:butt;stroke-linejoin:round;stroke-miterlimit:10;stroke-opacity:1" />
  </g>
  <g
     id="g215"
     clip-rule="nonzero"
     clip-path="url(#clip18)">
    <path
       inkscape:connector-curvature="0"
       id="path217"
       d="m 479.26953,454.01562 0,-448.535151"
       style="fill:none;stroke:#ffffff;stroke-width:1.06697798;stroke-linecap:butt;stroke-linejoin:round;stroke-miterlimit:10;stroke-opacity:1" />
  </g>
  <path
     inkscape:connector-curvature="0"
     id="path219"
     d="m 94.238281,25.867188 11.324219,20.691406 11.32422,20.390625 11.32422,20.070312 11.32422,19.699219 11.32421,19.28906 11.32422,18.82422 11.32422,18.32813 11.32422,17.78125 11.32422,17.19921 11.32422,16.57422 11.32812,15.94141 11.32422,15.28125 11.32422,14.60937 11.32422,13.9375 11.32422,13.26563 11.32422,12.60547 11.32422,11.94922 11.32421,11.30859 11.32422,10.6875 11.32422,10.08594 11.32422,9.48828 11.32422,8.94531 11.32422,8.38672 11.32422,7.875 11.32422,7.36719 11.32421,6.90234 11.32422,6.4336 11.32813,5.99609 11.32422,5.58594 11.32422,5.17578 11.32421,4.80078 11.32422,4.4375 11.32422,4.08594 11.32422,3.75781"
     style="fill:none;stroke:#000000;stroke-width:1.06697798;stroke-linecap:butt;stroke-linejoin:round;stroke-miterlimit:1;stroke-opacity:1" />
  <path
     inkscape:connector-curvature="0"
     id="path221"
     d="m 481.22266,433.625 c 0,2.60547 -3.91016,2.60547 -3.91016,0 0,-2.60547 3.91016,-2.60547 3.91016,0"
     style="fill:#ff0000;fill-opacity:1;fill-rule:nonzero;stroke:#ff0000;stroke-width:0.70866102;stroke-linecap:round;stroke-linejoin:round;stroke-miterlimit:10;stroke-opacity:1" />
  <path
     inkscape:connector-curvature="0"
     id="path223"
     d="m 458.57422,425.86719 c 0,2.60937 -3.91016,2.60937 -3.91016,0 0,-2.60547 3.91016,-2.60547 3.91016,0"
     style="fill:#ff0000;fill-opacity:1;fill-rule:nonzero;stroke:#ff0000;stroke-width:0.70866102;stroke-linecap:round;stroke-linejoin:round;stroke-miterlimit:10;stroke-opacity:1" />
  <path
     inkscape:connector-curvature="0"
     id="path225"
     d="m 435.92578,416.75 c 0,2.60547 -3.91016,2.60547 -3.91016,0 0,-2.60547 3.91016,-2.60547 3.91016,0"
     style="fill:#ff0000;fill-opacity:1;fill-rule:nonzero;stroke:#ff0000;stroke-width:0.70866102;stroke-linecap:round;stroke-linejoin:round;stroke-miterlimit:10;stroke-opacity:1" />
  <path
     inkscape:connector-curvature="0"
     id="path227"
     d="m 413.27734,406.12109 c 0,2.60547 -3.91015,2.60547 -3.91015,0 0,-2.60547 3.91015,-2.60547 3.91015,0"
     style="fill:#ff0000;fill-opacity:1;fill-rule:nonzero;stroke:#ff0000;stroke-width:0.70866102;stroke-linecap:round;stroke-linejoin:round;stroke-miterlimit:10;stroke-opacity:1" />
  <path
     inkscape:connector-curvature="0"
     id="path229"
     d="m 390.62891,393.875 c 0,2.60937 -3.91016,2.60937 -3.91016,0 0,-2.60547 3.91016,-2.60547 3.91016,0"
     style="fill:#ff0000;fill-opacity:1;fill-rule:nonzero;stroke:#ff0000;stroke-width:0.70866102;stroke-linecap:round;stroke-linejoin:round;stroke-miterlimit:10;stroke-opacity:1" />
  <path
     inkscape:connector-curvature="0"
     id="path231"
     d="m 367.98047,379.86328 c 0,2.60547 -3.91016,2.60547 -3.91016,0 0,-2.60937 3.91016,-2.60937 3.91016,0"
     style="fill:#ff0000;fill-opacity:1;fill-rule:nonzero;stroke:#ff0000;stroke-width:0.70866102;stroke-linecap:round;stroke-linejoin:round;stroke-miterlimit:10;stroke-opacity:1" />
  <path
     inkscape:connector-curvature="0"
     id="path233"
     d="m 345.33203,363.99609 c 0,2.60547 -3.91016,2.60547 -3.91016,0 0,-2.60547 3.91016,-2.60547 3.91016,0"
     style="fill:#ff0000;fill-opacity:1;fill-rule:nonzero;stroke:#ff0000;stroke-width:0.70866102;stroke-linecap:round;stroke-linejoin:round;stroke-miterlimit:10;stroke-opacity:1" />
  <path
     inkscape:connector-curvature="0"
     id="path235"
     d="m 322.67969,346.20703 c 0,2.60547 -3.90625,2.60547 -3.90625,0 0,-2.60937 3.90625,-2.60937 3.90625,0"
     style="fill:#ff0000;fill-opacity:1;fill-rule:nonzero;stroke:#ff0000;stroke-width:0.70866102;stroke-linecap:round;stroke-linejoin:round;stroke-miterlimit:10;stroke-opacity:1" />
  <path
     inkscape:connector-curvature="0"
     id="path237"
     d="m 300.03125,325.82422 c 0,2.60547 -3.90625,2.60547 -3.90625,0 0,-2.60547 3.90625,-2.60547 3.90625,0"
     style="fill:#ff0000;fill-opacity:1;fill-rule:nonzero;stroke:#ff0000;stroke-width:0.70866102;stroke-linecap:round;stroke-linejoin:round;stroke-miterlimit:10;stroke-opacity:1" />
  <path
     inkscape:connector-curvature="0"
     id="path239"
     d="m 277.38281,303.25391 c 0,2.60546 -3.91015,2.60546 -3.91015,0 0,-2.60547 3.91015,-2.60547 3.91015,0"
     style="fill:#ff0000;fill-opacity:1;fill-rule:nonzero;stroke:#ff0000;stroke-width:0.70866102;stroke-linecap:round;stroke-linejoin:round;stroke-miterlimit:10;stroke-opacity:1" />
  <path
     inkscape:connector-curvature="0"
     id="path241"
     d="m 254.73437,284.46094 c 0,2.60547 -3.91015,2.60547 -3.91015,0 0,-2.60938 3.91015,-2.60938 3.91015,0"
     style="fill:#ff0000;fill-opacity:1;fill-rule:nonzero;stroke:#ff0000;stroke-width:0.70866102;stroke-linecap:round;stroke-linejoin:round;stroke-miterlimit:10;stroke-opacity:1" />
  <path
     inkscape:connector-curvature="0"
     id="path243"
     d="m 254.73437,284.46094 c 0,2.60547 -3.91015,2.60547 -3.91015,0 0,-2.60938 3.91015,-2.60938 3.91015,0"
     style="fill:#ff0000;fill-opacity:1;fill-rule:nonzero;stroke:#ff0000;stroke-width:0.70866102;stroke-linecap:round;stroke-linejoin:round;stroke-miterlimit:10;stroke-opacity:1" />
  <path
     inkscape:connector-curvature="0"
     id="path245"
     d="m 243.41016,264.61328 c 0,2.60938 -3.91016,2.60938 -3.91016,0 0,-2.60547 3.91016,-2.60547 3.91016,0"
     style="fill:#ff0000;fill-opacity:1;fill-rule:nonzero;stroke:#ff0000;stroke-width:0.70866102;stroke-linecap:round;stroke-linejoin:round;stroke-miterlimit:10;stroke-opacity:1" />
  <path
     inkscape:connector-curvature="0"
     id="path247"
     d="m 232.08594,250.5 c 0,2.60937 -3.91016,2.60937 -3.91016,0 0,-2.60547 3.91016,-2.60547 3.91016,0"
     style="fill:#ff0000;fill-opacity:1;fill-rule:nonzero;stroke:#ff0000;stroke-width:0.70866102;stroke-linecap:round;stroke-linejoin:round;stroke-miterlimit:10;stroke-opacity:1" />
  <path
     inkscape:connector-curvature="0"
     id="path249"
     d="m 220.76172,235.75781 c 0,2.60547 -3.91016,2.60547 -3.91016,0 0,-2.60937 3.91016,-2.60937 3.91016,0"
     style="fill:#ff0000;fill-opacity:1;fill-rule:nonzero;stroke:#ff0000;stroke-width:0.70866102;stroke-linecap:round;stroke-linejoin:round;stroke-miterlimit:10;stroke-opacity:1" />
  <path
     inkscape:connector-curvature="0"
     id="path251"
     d="m 209.4375,220.35937 c 0,2.60547 -3.91016,2.60547 -3.91016,0 0,-2.60546 3.91016,-2.60546 3.91016,0"
     style="fill:#ff0000;fill-opacity:1;fill-rule:nonzero;stroke:#ff0000;stroke-width:0.70866102;stroke-linecap:round;stroke-linejoin:round;stroke-miterlimit:10;stroke-opacity:1" />
  <path
     inkscape:connector-curvature="0"
     id="path253"
     d="m 198.11328,203.92969 c 0,2.60547 -3.91016,2.60547 -3.91016,0 0,-2.60547 3.91016,-2.60547 3.91016,0"
     style="fill:#ff0000;fill-opacity:1;fill-rule:nonzero;stroke:#ff0000;stroke-width:0.70866102;stroke-linecap:round;stroke-linejoin:round;stroke-miterlimit:10;stroke-opacity:1" />
  <path
     inkscape:connector-curvature="0"
     id="path255"
     d="m 186.78906,186.78906 c 0,2.60938 -3.91015,2.60938 -3.91015,0 0,-2.60547 3.91015,-2.60547 3.91015,0"
     style="fill:#ff0000;fill-opacity:1;fill-rule:nonzero;stroke:#ff0000;stroke-width:0.70866102;stroke-linecap:round;stroke-linejoin:round;stroke-miterlimit:10;stroke-opacity:1" />
  <path
     inkscape:connector-curvature="0"
     id="path257"
     d="m 175.46484,169.23437 c 0,2.60547 -3.91015,2.60547 -3.91015,0 0,-2.60937 3.91015,-2.60937 3.91015,0"
     style="fill:#ff0000;fill-opacity:1;fill-rule:nonzero;stroke:#ff0000;stroke-width:0.70866102;stroke-linecap:round;stroke-linejoin:round;stroke-miterlimit:10;stroke-opacity:1" />
  <path
     inkscape:connector-curvature="0"
     id="path259"
     d="m 164.14062,151.07031 c 0,2.60547 -3.91015,2.60547 -3.91015,0 0,-2.60547 3.91015,-2.60547 3.91015,0"
     style="fill:#ff0000;fill-opacity:1;fill-rule:nonzero;stroke:#ff0000;stroke-width:0.70866102;stroke-linecap:round;stroke-linejoin:round;stroke-miterlimit:10;stroke-opacity:1" />
  <path
     inkscape:connector-curvature="0"
     id="path261"
     d="m 152.81641,132.24609 c 0,2.60938 -3.91016,2.60938 -3.91016,0 0,-2.60547 3.91016,-2.60547 3.91016,0"
     style="fill:#ff0000;fill-opacity:1;fill-rule:nonzero;stroke:#ff0000;stroke-width:0.70866102;stroke-linecap:round;stroke-linejoin:round;stroke-miterlimit:10;stroke-opacity:1" />
  <path
     inkscape:connector-curvature="0"
     id="path263"
     d="m 141.49219,112.75391 c 0,2.60547 -3.91016,2.60547 -3.91016,0 0,-2.60938 3.91016,-2.60938 3.91016,0"
     style="fill:#ff0000;fill-opacity:1;fill-rule:nonzero;stroke:#ff0000;stroke-width:0.70866102;stroke-linecap:round;stroke-linejoin:round;stroke-miterlimit:10;stroke-opacity:1" />
  <path
     inkscape:connector-curvature="0"
     id="path265"
     d="m 141.49219,112.75391 c 0,2.60547 -3.91016,2.60547 -3.91016,0 0,-2.60938 3.91016,-2.60938 3.91016,0"
     style="fill:#ff0000;fill-opacity:1;fill-rule:nonzero;stroke:#ff0000;stroke-width:0.70866102;stroke-linecap:round;stroke-linejoin:round;stroke-miterlimit:10;stroke-opacity:1" />
  <path
     inkscape:connector-curvature="0"
     id="path267"
     d="m 130.16406,92.597656 c 0,2.605469 -3.90625,2.605469 -3.90625,0 0,-2.609375 3.90625,-2.609375 3.90625,0"
     style="fill:#ff0000;fill-opacity:1;fill-rule:nonzero;stroke:#ff0000;stroke-width:0.70866102;stroke-linecap:round;stroke-linejoin:round;stroke-miterlimit:10;stroke-opacity:1" />
  <path
     inkscape:connector-curvature="0"
     id="path269"
     d="m 118.83984,71.875 c 0,2.605469 -3.90625,2.605469 -3.90625,0 0,-2.605469 3.90625,-2.605469 3.90625,0"
     style="fill:#ff0000;fill-opacity:1;fill-rule:nonzero;stroke:#ff0000;stroke-width:0.70866102;stroke-linecap:round;stroke-linejoin:round;stroke-miterlimit:10;stroke-opacity:1" />
  <path
     inkscape:connector-curvature="0"
     id="path271"
     d="m 107.51563,50.734375 c 0,2.605469 -3.90625,2.605469 -3.90625,0 0,-2.605469 3.90625,-2.605469 3.90625,0"
     style="fill:#ff0000;fill-opacity:1;fill-rule:nonzero;stroke:#ff0000;stroke-width:0.70866102;stroke-linecap:round;stroke-linejoin:round;stroke-miterlimit:10;stroke-opacity:1" />
  <path
     inkscape:connector-curvature="0"
     id="path273"
     d="m 96.191406,30.011719 c 0,2.609375 -3.910156,2.609375 -3.910156,0 0,-2.605469 3.910156,-2.605469 3.910156,0"
     style="fill:#ff0000;fill-opacity:1;fill-rule:nonzero;stroke:#ff0000;stroke-width:0.70866102;stroke-linecap:round;stroke-linejoin:round;stroke-miterlimit:10;stroke-opacity:1" />
  <g
     id="g275"
     style="fill:#4c4c4c;fill-opacity:1">
    <use
       height="504"
       width="504"
       id="use277"
       y="369.31055"
       x="30.054688"
       xlink:href="#glyph0-1" />
    <use
       height="504"
       width="504"
       id="use279"
       y="369.31055"
       x="41.651367"
       xlink:href="#glyph0-2" />
    <use
       height="504"
       width="504"
       id="use281"
       y="369.31055"
       x="46.382812"
       xlink:href="#glyph0-3" />
    <use
       height="504"
       width="504"
       id="use283"
       y="369.31055"
       x="57.979492"
       xlink:href="#glyph0-4" />
  </g>
  <g
     id="g285"
     style="fill:#4c4c4c;fill-opacity:1">
    <use
       height="504"
       width="504"
       id="use287"
       y="271.98242"
       x="30.054688"
       xlink:href="#glyph0-1" />
    <use
       height="504"
       width="504"
       id="use289"
       y="271.98242"
       x="41.651367"
       xlink:href="#glyph0-2" />
    <use
       height="504"
       width="504"
       id="use291"
       y="271.98242"
       x="46.382812"
       xlink:href="#glyph0-3" />
    <use
       height="504"
       width="504"
       id="use293"
       y="271.98242"
       x="57.979492"
       xlink:href="#glyph0-3" />
  </g>
  <g
     id="g295"
     style="fill:#4c4c4c;fill-opacity:1">
    <use
       height="504"
       width="504"
       id="use297"
       y="174.6543"
       x="30.054688"
       xlink:href="#glyph0-1" />
    <use
       height="504"
       width="504"
       id="use299"
       y="174.6543"
       x="41.651367"
       xlink:href="#glyph0-2" />
    <use
       height="504"
       width="504"
       id="use301"
       y="174.6543"
       x="46.382812"
       xlink:href="#glyph0-3" />
    <use
       height="504"
       width="504"
       id="use303"
       y="174.6543"
       x="57.979492"
       xlink:href="#glyph0-5" />
  </g>
  <g
     id="g305"
     style="fill:#4c4c4c;fill-opacity:1">
    <use
       height="504"
       width="504"
       id="use307"
       y="77.326172"
       x="30.054688"
       xlink:href="#glyph0-1" />
    <use
       height="504"
       width="504"
       id="use309"
       y="77.326172"
       x="41.651367"
       xlink:href="#glyph0-2" />
    <use
       height="504"
       width="504"
       id="use311"
       y="77.326172"
       x="46.382812"
       xlink:href="#glyph0-3" />
    <use
       height="504"
       width="504"
       id="use313"
       y="77.326172"
       x="57.979492"
       xlink:href="#glyph0-6" />
  </g>
  <path
     inkscape:connector-curvature="0"
     id="path315"
     d="m 72.246094,362.65234 2.738281,0"
     style="fill:none;stroke:#333333;stroke-width:1.06697798;stroke-linecap:butt;stroke-linejoin:round;stroke-miterlimit:10;stroke-opacity:1" />
  <path
     inkscape:connector-curvature="0"
     id="path317"
     d="m 72.246094,265.32422 2.738281,0"
     style="fill:none;stroke:#333333;stroke-width:1.06697798;stroke-linecap:butt;stroke-linejoin:round;stroke-miterlimit:10;stroke-opacity:1" />
  <path
     inkscape:connector-curvature="0"
     id="path319"
     d="m 72.246094,167.99609 2.738281,0"
     style="fill:none;stroke:#333333;stroke-width:1.06697798;stroke-linecap:butt;stroke-linejoin:round;stroke-miterlimit:10;stroke-opacity:1" />
  <path
     inkscape:connector-curvature="0"
     id="path321"
     d="m 72.246094,70.667969 2.738281,0"
     style="fill:none;stroke:#333333;stroke-width:1.06697798;stroke-linecap:butt;stroke-linejoin:round;stroke-miterlimit:10;stroke-opacity:1" />
  <path
     inkscape:connector-curvature="0"
     id="path323"
     d="m 139.53516,456.75391 0,-2.73829"
     style="fill:none;stroke:#333333;stroke-width:1.06697798;stroke-linecap:butt;stroke-linejoin:round;stroke-miterlimit:10;stroke-opacity:1" />
  <path
     inkscape:connector-curvature="0"
     id="path325"
     d="m 252.78125,456.75391 0,-2.73829"
     style="fill:none;stroke:#333333;stroke-width:1.06697798;stroke-linecap:butt;stroke-linejoin:round;stroke-miterlimit:10;stroke-opacity:1" />
  <path
     inkscape:connector-curvature="0"
     id="path327"
     d="m 366.02344,456.75391 0,-2.73829"
     style="fill:none;stroke:#333333;stroke-width:1.06697798;stroke-linecap:butt;stroke-linejoin:round;stroke-miterlimit:10;stroke-opacity:1" />
  <path
     inkscape:connector-curvature="0"
     id="path329"
     d="m 479.26953,456.75391 0,-2.73829"
     style="fill:none;stroke:#333333;stroke-width:1.06697798;stroke-linecap:butt;stroke-linejoin:round;stroke-miterlimit:10;stroke-opacity:1" />
  <g
     id="g331"
     style="fill:#4c4c4c;fill-opacity:1">
    <use
       height="504"
       width="504"
       id="use333"
       y="473.10352"
       x="119.53516"
       xlink:href="#glyph0-1" />
    <use
       height="504"
       width="504"
       id="use335"
       y="473.10352"
       x="131.13184"
       xlink:href="#glyph0-2" />
    <use
       height="504"
       width="504"
       id="use337"
       y="473.10352"
       x="135.86328"
       xlink:href="#glyph0-1" />
    <use
       height="504"
       width="504"
       id="use339"
       y="473.10352"
       x="147.45996"
       xlink:href="#glyph0-5" />
  </g>
  <g
     id="g341"
     style="fill:#4c4c4c;fill-opacity:1">
    <use
       height="504"
       width="504"
       id="use343"
       y="473.10352"
       x="234.28125"
       xlink:href="#glyph0-1" />
    <use
       height="504"
       width="504"
       id="use345"
       y="473.10352"
       x="245.87793"
       xlink:href="#glyph0-2" />
    <use
       height="504"
       width="504"
       id="use347"
       y="473.10352"
       x="250.60938"
       xlink:href="#glyph0-7" />
    <use
       height="504"
       width="504"
       id="use349"
       y="473.10352"
       x="259.16309"
       xlink:href="#glyph0-1" />
  </g>
  <g
     id="g351"
     style="fill:#4c4c4c;fill-opacity:1">
    <use
       height="504"
       width="504"
       id="use353"
       y="473.10352"
       x="347.52344"
       xlink:href="#glyph0-1" />
    <use
       height="504"
       width="504"
       id="use355"
       y="473.10352"
       x="359.12012"
       xlink:href="#glyph0-2" />
    <use
       height="504"
       width="504"
       id="use357"
       y="473.10352"
       x="363.85156"
       xlink:href="#glyph0-7" />
    <use
       height="504"
       width="504"
       id="use359"
       y="473.10352"
       x="372.40527"
       xlink:href="#glyph0-5" />
  </g>
  <g
     id="g361"
     style="fill:#4c4c4c;fill-opacity:1">
    <use
       height="504"
       width="504"
       id="use363"
       y="473.10352"
       x="459.26953"
       xlink:href="#glyph0-1" />
    <use
       height="504"
       width="504"
       id="use365"
       y="473.10352"
       x="470.86621"
       xlink:href="#glyph0-2" />
    <use
       height="504"
       width="504"
       id="use367"
       y="473.10352"
       x="475.59766"
       xlink:href="#glyph0-8" />
    <use
       height="504"
       width="504"
       id="use369"
       y="473.10352"
       x="487.19434"
       xlink:href="#glyph0-1" />
  </g>
  <g
     id="g371"
     style="fill:#000000;fill-opacity:1">
    <use
       height="504"
       width="504"
       id="use373"
       y="495.77734"
       x="278.25391"
       xlink:href="#glyph1-1" />
  </g>
  <g
     id="g375"
     style="fill:#000000;fill-opacity:1">
    <use
       height="504"
       width="504"
       id="use377"
       y="343.24609"
       x="25.121094"
       xlink:href="#glyph2-1" />
    <use
       height="504"
       width="504"
       id="use379"
       y="331.04688"
       x="25.121094"
       xlink:href="#glyph2-2" />
    <use
       height="504"
       width="504"
       id="use381"
       y="319.51562"
       x="25.121094"
       xlink:href="#glyph2-3" />
    <use
       height="504"
       width="504"
       id="use383"
       y="307.23438"
       x="25.121094"
       xlink:href="#glyph2-4" />
    <use
       height="504"
       width="504"
       id="use385"
       y="294.90625"
       x="25.121094"
       xlink:href="#glyph2-5" />
    <use
       height="504"
       width="504"
       id="use387"
       y="283.59766"
       x="25.121094"
       xlink:href="#glyph2-6" />
    <use
       height="504"
       width="504"
       id="use389"
       y="276.87109"
       x="25.121094"
       xlink:href="#glyph2-7" />
    <use
       height="504"
       width="504"
       id="use391"
       y="264.25"
       x="25.121094"
       xlink:href="#glyph2-8" />
    <use
       height="504"
       width="504"
       id="use393"
       y="251.6875"
       x="25.121094"
       xlink:href="#glyph2-9" />
    <use
       height="504"
       width="504"
       id="use395"
       y="244.51562"
       x="25.121094"
       xlink:href="#glyph2-10" />
    <use
       height="504"
       width="504"
       id="use397"
       y="222.16797"
       x="25.121094"
       xlink:href="#glyph2-9" />
    <use
       height="504"
       width="504"
       id="use399"
       y="214.99609"
       x="25.121094"
       xlink:href="#glyph2-11" />
    <use
       height="504"
       width="504"
       id="use401"
       y="196.35156"
       x="25.121094"
       xlink:href="#glyph2-3" />
    <use
       height="504"
       width="504"
       id="use403"
       y="184.07031"
       x="25.121094"
       xlink:href="#glyph2-2" />
    <use
       height="504"
       width="504"
       id="use405"
       y="172.53906"
       x="25.121094"
       xlink:href="#glyph2-12" />
    <use
       height="504"
       width="504"
       id="use407"
       y="159.57812"
       x="25.121094"
       xlink:href="#glyph2-13" />
    <use
       height="504"
       width="504"
       id="use409"
       y="146.42969"
       x="25.121094"
       xlink:href="#glyph2-5" />
    <use
       height="504"
       width="504"
       id="use411"
       y="135.12109"
       x="25.121094"
       xlink:href="#glyph2-9" />
    <use
       height="504"
       width="504"
       id="use413"
       y="127.94922"
       x="25.121094"
       xlink:href="#glyph2-14" />
  </g>
  <text
     xml:space="preserve"
     style="font-size:24px;font-style:normal;font-variant:normal;font-weight:normal;font-stretch:normal;line-height:125%;letter-spacing:0px;word-spacing:0px;fill:#000000;fill-opacity:1;stroke:none;font-family:Comic Sans MS;-inkscape-font-specification:Comic Sans MS"
     x="471.83264"
     y="36.038136"
     id="text3394"
     sodipodi:linespacing="125%"
     transform="scale(0.8,0.8)"><tspan
       sodipodi:role="line"
       id="tspan3396"
       x="471.83264"
       y="36.038136">our algorithm</tspan></text>
  <path
     inkscape:connector-curvature="0"
     id="path269-7"
     d="m 349.00058,25.627118 c 0,2.605469 -3.90625,2.605469 -3.90625,0 0,-2.605469 3.90625,-2.605469 3.90625,0"
     style="fill:#ff0000;fill-opacity:1;fill-rule:nonzero;stroke:#ff0000;stroke-width:0.70866102;stroke-linecap:round;stroke-linejoin:round;stroke-miterlimit:10;stroke-opacity:1" />
  <text
     xml:space="preserve"
     style="font-size:19.20000076px;font-style:normal;font-variant:normal;font-weight:normal;font-stretch:normal;line-height:125%;letter-spacing:0px;word-spacing:0px;fill:#000000;fill-opacity:1;stroke:none;font-family:Comic Sans MS;-inkscape-font-specification:Comic Sans MS"
     x="378.53391"
     y="57.661015"
     id="text3553"
     sodipodi:linespacing="125%"><tspan
       sodipodi:role="line"
       id="tspan3555"
       x="378.53391"
       y="57.661015">1d reference</tspan></text>
  <path
     style="fill:none;stroke:#000000;stroke-width:0.75374365px;stroke-linecap:butt;stroke-linejoin:miter;stroke-opacity:1"
     d="m 329.04794,51.564653 36.42858,-0.179731"
     id="path3559"
     inkscape:connector-curvature="0" />
  <rect
     style="fill:#ff0000;fill-opacity:0;fill-rule:evenodd;stroke:#000000;stroke-opacity:1"
     id="rect3563"
     width="237.25104"
     height="81.753181"
     x="386.90942"
     y="6.6737275"
     transform="scale(0.8,0.8)" />
</svg>
